foo3
1000|1000000000|2.569999999999999840127884
2000|8000000000|20.460000000000000852651283
3000|27000000000|69.799999999999997157829057
4000|64000000000|165.509999999999990905052982
5000|125000000000|321.060000000000002273736754
6000|216000000000|553.559999999999945430317894
^C

Note:	This was cut off for taking too long.
