what,kind,bundleId,bundleVersion,description,time
executed,command,org.eclipse.ui,3.6.0.I20100603-1100,"org.eclipse.ui.file.save",1459879582771
executed,command,org.eclipse.ui,3.6.0.I20100603-1100,"org.eclipse.ui.file.save",1459879623314
deactivated,workbench,org.eclipse.ui.workbench,3.6.0.I20100603-1100,"",1459879636374
activated,workbench,org.eclipse.ui.workbench,3.6.0.I20100603-1100,"",1459879663002
activated,view,org.eclipse.ui.console,3.5.0.v20100526,"org.eclipse.ui.console.ConsoleView",1459879668349
started,bundle,org.eclipse.wst.xsl.debug.ui,1.0.100.v201004290328,"org.eclipse.wst.xsl.debug.ui",1459879669867
activated,editor,org.eclipse.jdt.ui,3.6.0.v20100602-1600,"org.eclipse.jdt.ui.CompilationUnitEditor",1459879672941
deactivated,workbench,org.eclipse.ui.workbench,3.6.0.I20100603-1100,"",1459879734612
activated,workbench,org.eclipse.ui.workbench,3.6.0.I20100603-1100,"",1459879747664
activated,view,org.eclipse.ui.console,3.5.0.v20100526,"org.eclipse.ui.console.ConsoleView",1459879751865
activated,editor,org.eclipse.jdt.ui,3.6.0.v20100602-1600,"org.eclipse.jdt.ui.CompilationUnitEditor",1459879756008
executed,command,org.eclipse.ui,3.6.0.I20100603-1100,"org.eclipse.ui.file.save",1459879762187
activated,view,org.eclipse.ui.console,3.5.0.v20100526,"org.eclipse.ui.console.ConsoleView",1459879765232
activated,editor,org.eclipse.jdt.ui,3.6.0.v20100602-1600,"org.eclipse.jdt.ui.CompilationUnitEditor",1459879777114
deactivated,workbench,org.eclipse.ui.workbench,3.6.0.I20100603-1100,"",1459879797702
activated,workbench,org.eclipse.ui.workbench,3.6.0.I20100603-1100,"",1459879822503
deactivated,workbench,org.eclipse.ui.workbench,3.6.0.I20100603-1100,"",1459879829706
activated,workbench,org.eclipse.ui.workbench,3.6.0.I20100603-1100,"",1459879988600
deactivated,workbench,org.eclipse.ui.workbench,3.6.0.I20100603-1100,"",1459880028689
activated,workbench,org.eclipse.ui.workbench,3.6.0.I20100603-1100,"",1459880053158
executed,command,org.eclipse.ui,3.6.0.I20100603-1100,"org.eclipse.ui.edit.cut",1459880062471
executed,command,org.eclipse.ui,3.6.0.I20100603-1100,"org.eclipse.ui.edit.paste",1459880068817
deactivated,workbench,org.eclipse.ui.workbench,3.6.0.I20100603-1100,"",1459880115575
activated,workbench,org.eclipse.ui.workbench,3.6.0.I20100603-1100,"",1459885901719
deactivated,workbench,org.eclipse.ui.workbench,3.6.0.I20100603-1100,"",1459885905975
activated,workbench,org.eclipse.ui.workbench,3.6.0.I20100603-1100,"",1459885913793
deactivated,workbench,org.eclipse.ui.workbench,3.6.0.I20100603-1100,"",1459885946237
activated,workbench,org.eclipse.ui.workbench,3.6.0.I20100603-1100,"",1459885959589
deactivated,workbench,org.eclipse.ui.workbench,3.6.0.I20100603-1100,"",1459885960683
activated,workbench,org.eclipse.ui.workbench,3.6.0.I20100603-1100,"",1459885962232
deactivated,workbench,org.eclipse.ui.workbench,3.6.0.I20100603-1100,"",1459885962397
activated,workbench,org.eclipse.ui.workbench,3.6.0.I20100603-1100,"",1459885964095
executed,command,org.eclipse.ui,3.6.0.I20100603-1100,"org.eclipse.ui.file.save",1459885976371
activated,view,org.eclipse.ui.console,3.5.0.v20100526,"org.eclipse.ui.console.ConsoleView",1459885979661
activated,editor,org.eclipse.jdt.ui,3.6.0.v20100602-1600,"org.eclipse.jdt.ui.CompilationUnitEditor",1459885982354
executed,command,org.eclipse.ui,3.6.0.I20100603-1100,"org.eclipse.ui.file.save",1459885993022
activated,view,org.eclipse.ui.console,3.5.0.v20100526,"org.eclipse.ui.console.ConsoleView",1459885995682
activated,editor,org.eclipse.jdt.ui,3.6.0.v20100602-1600,"org.eclipse.jdt.ui.CompilationUnitEditor",1459885999710
deactivated,workbench,org.eclipse.ui.workbench,3.6.0.I20100603-1100,"",1459886009766
activated,workbench,org.eclipse.ui.workbench,3.6.0.I20100603-1100,"",1459886017590
executed,command,org.eclipse.ui,3.6.0.I20100603-1100,"org.eclipse.ui.file.save",1459886087530
executed,command,org.eclipse.ui,3.6.0.I20100603-1100,"org.eclipse.ui.file.save",1459886092953
executed,command,org.eclipse.ui,3.6.0.I20100603-1100,"org.eclipse.ui.file.save",1459886137136
executed,command,org.eclipse.ui,3.6.0.I20100603-1100,"org.eclipse.ui.file.save",1459886212340
executed,command,org.eclipse.ui,3.6.0.I20100603-1100,"org.eclipse.ui.file.save",1459886240587
activated,view,org.eclipse.ui.console,3.5.0.v20100526,"org.eclipse.ui.console.ConsoleView",1459886245234
activated,editor,org.eclipse.jdt.ui,3.6.0.v20100602-1600,"org.eclipse.jdt.ui.CompilationUnitEditor",1459886251981
activated,view,org.eclipse.ui.console,3.5.0.v20100526,"org.eclipse.ui.console.ConsoleView",1459886253749
deactivated,workbench,org.eclipse.ui.workbench,3.6.0.I20100603-1100,"",1459886256405
activated,workbench,org.eclipse.ui.workbench,3.6.0.I20100603-1100,"",1459886378314
activated,editor,org.eclipse.jdt.ui,3.6.0.v20100602-1600,"org.eclipse.jdt.ui.CompilationUnitEditor",1459886381472
executed,command,org.eclipse.ui,3.6.0.I20100603-1100,"org.eclipse.ui.file.save",1459886388983
activated,view,org.eclipse.ui.console,3.5.0.v20100526,"org.eclipse.ui.console.ConsoleView",1459886391931
deactivated,workbench,org.eclipse.ui.workbench,3.6.0.I20100603-1100,"",1459886417447
activated,workbench,org.eclipse.ui.workbench,3.6.0.I20100603-1100,"",1459886491148
activated,editor,org.eclipse.jdt.ui,3.6.0.v20100602-1600,"org.eclipse.jdt.ui.CompilationUnitEditor",1459886491204
executed,command,org.eclipse.ui,3.6.0.I20100603-1100,"org.eclipse.ui.file.save",1459886509954
activated,view,org.eclipse.ui.console,3.5.0.v20100526,"org.eclipse.ui.console.ConsoleView",1459886514300
activated,editor,org.eclipse.jdt.ui,3.6.0.v20100602-1600,"org.eclipse.jdt.ui.CompilationUnitEditor",1459886516694
executed,command,org.eclipse.ui,3.6.0.I20100603-1100,"org.eclipse.ui.file.save",1459886518020
activated,view,org.eclipse.ui.console,3.5.0.v20100526,"org.eclipse.ui.console.ConsoleView",1459886522011
activated,editor,org.eclipse.jdt.ui,3.6.0.v20100602-1600,"org.eclipse.jdt.ui.CompilationUnitEditor",1459886537147
executed,command,org.eclipse.ui,3.6.0.I20100603-1100,"org.eclipse.ui.file.save",1459886559647
deactivated,workbench,org.eclipse.ui.workbench,3.6.0.I20100603-1100,"",1459886636205
activated,workbench,org.eclipse.ui.workbench,3.6.0.I20100603-1100,"",1459886854517
executed,command,org.eclipse.ui,3.6.0.I20100603-1100,"org.eclipse.ui.file.save",1459886888158
deactivated,workbench,org.eclipse.ui.workbench,3.6.0.I20100603-1100,"",1459886964412
activated,workbench,org.eclipse.ui.workbench,3.6.0.I20100603-1100,"",1459886970686
deactivated,workbench,org.eclipse.ui.workbench,3.6.0.I20100603-1100,"",1459887007334
activated,workbench,org.eclipse.ui.workbench,3.6.0.I20100603-1100,"",1459887007477
executed,command,org.eclipse.ui,3.6.0.I20100603-1100,"org.eclipse.ui.file.save",1459887010973
activated,view,org.eclipse.ui.console,3.5.0.v20100526,"org.eclipse.ui.console.ConsoleView",1459887014328
activated,editor,org.eclipse.jdt.ui,3.6.0.v20100602-1600,"org.eclipse.jdt.ui.CompilationUnitEditor",1459887015781
executed,command,org.eclipse.ui,3.6.0.I20100603-1100,"org.eclipse.ui.file.save",1459887043188
deactivated,workbench,org.eclipse.ui.workbench,3.6.0.I20100603-1100,"",1459887132493
activated,workbench,org.eclipse.ui.workbench,3.6.0.I20100603-1100,"",1459887262057
deactivated,workbench,org.eclipse.ui.workbench,3.6.0.I20100603-1100,"",1459887476806
activated,workbench,org.eclipse.ui.workbench,3.6.0.I20100603-1100,"",1459887533004
executed,command,org.eclipse.ui,3.6.0.I20100603-1100,"org.eclipse.ui.file.save",1459887663015
activated,view,org.eclipse.ui.console,3.5.0.v20100526,"org.eclipse.ui.console.ConsoleView",1459887666151
activated,editor,org.eclipse.jdt.ui,3.6.0.v20100602-1600,"org.eclipse.jdt.ui.CompilationUnitEditor",1459887678530
deactivated,workbench,org.eclipse.ui.workbench,3.6.0.I20100603-1100,"",1459887681652
activated,workbench,org.eclipse.ui.workbench,3.6.0.I20100603-1100,"",1459887735298
deactivated,workbench,org.eclipse.ui.workbench,3.6.0.I20100603-1100,"",1459887764709
activated,workbench,org.eclipse.ui.workbench,3.6.0.I20100603-1100,"",1459887786660
deactivated,workbench,org.eclipse.ui.workbench,3.6.0.I20100603-1100,"",1459887822824
activated,workbench,org.eclipse.ui.workbench,3.6.0.I20100603-1100,"",1459887856958
deactivated,workbench,org.eclipse.ui.workbench,3.6.0.I20100603-1100,"",1459887860568
activated,workbench,org.eclipse.ui.workbench,3.6.0.I20100603-1100,"",1459888144302
deactivated,workbench,org.eclipse.ui.workbench,3.6.0.I20100603-1100,"",1459888167617
activated,workbench,org.eclipse.ui.workbench,3.6.0.I20100603-1100,"",1459888268431
deactivated,workbench,org.eclipse.ui.workbench,3.6.0.I20100603-1100,"",1459888300597
activated,workbench,org.eclipse.ui.workbench,3.6.0.I20100603-1100,"",1459888387915
executed,command,org.eclipse.ui,3.6.0.I20100603-1100,"org.eclipse.ui.file.save",1459888644317
activated,view,org.eclipse.ui.console,3.5.0.v20100526,"org.eclipse.ui.console.ConsoleView",1459888648175
deactivated,workbench,org.eclipse.ui.workbench,3.6.0.I20100603-1100,"",1459888669388
activated,workbench,org.eclipse.ui.workbench,3.6.0.I20100603-1100,"",1459888700460
activated,editor,org.eclipse.jdt.ui,3.6.0.v20100602-1600,"org.eclipse.jdt.ui.CompilationUnitEditor",1459888700507
executed,command,org.eclipse.ui,3.6.0.I20100603-1100,"org.eclipse.ui.edit.copy",1459888709046
executed,command,org.eclipse.ui,3.6.0.I20100603-1100,"org.eclipse.ui.edit.paste",1459888710545
executed,command,org.eclipse.ui,3.6.0.I20100603-1100,"org.eclipse.ui.file.save",1459888713547
activated,view,org.eclipse.ui.console,3.5.0.v20100526,"org.eclipse.ui.console.ConsoleView",1459888716601
activated,editor,org.eclipse.jdt.ui,3.6.0.v20100602-1600,"org.eclipse.jdt.ui.CompilationUnitEditor",1459888721467
executed,command,org.eclipse.ui,3.6.0.I20100603-1100,"org.eclipse.ui.file.save",1459888722356
activated,view,org.eclipse.ui.console,3.5.0.v20100526,"org.eclipse.ui.console.ConsoleView",1459888725161
deactivated,workbench,org.eclipse.ui.workbench,3.6.0.I20100603-1100,"",1459888734082
activated,workbench,org.eclipse.ui.workbench,3.6.0.I20100603-1100,"",1459888747488
deactivated,workbench,org.eclipse.ui.workbench,3.6.0.I20100603-1100,"",1459888752102
activated,workbench,org.eclipse.ui.workbench,3.6.0.I20100603-1100,"",1459888821689
activated,editor,org.eclipse.jdt.ui,3.6.0.v20100602-1600,"org.eclipse.jdt.ui.CompilationUnitEditor",1459888821737
executed,command,org.eclipse.ui,3.6.0.I20100603-1100,"org.eclipse.ui.file.save",1459888874939
activated,view,org.eclipse.ui.console,3.5.0.v20100526,"org.eclipse.ui.console.ConsoleView",1459888877489
deactivated,workbench,org.eclipse.ui.workbench,3.6.0.I20100603-1100,"",1459888887583
activated,workbench,org.eclipse.ui.workbench,3.6.0.I20100603-1100,"",1459888903859
activated,editor,org.eclipse.jdt.ui,3.6.0.v20100602-1600,"org.eclipse.jdt.ui.CompilationUnitEditor",1459888903911
executed,command,org.eclipse.ui,3.6.0.I20100603-1100,"org.eclipse.ui.file.save",1459888906283
activated,view,org.eclipse.ui.console,3.5.0.v20100526,"org.eclipse.ui.console.ConsoleView",1459888908788
activated,editor,org.eclipse.jdt.ui,3.6.0.v20100602-1600,"org.eclipse.jdt.ui.CompilationUnitEditor",1459888923753
deactivated,workbench,org.eclipse.ui.workbench,3.6.0.I20100603-1100,"",1459888929923
activated,workbench,org.eclipse.ui.workbench,3.6.0.I20100603-1100,"",1459888944611
executed,command,org.eclipse.ui,3.6.0.I20100603-1100,"org.eclipse.ui.file.save",1459888946438
activated,view,org.eclipse.ui.console,3.5.0.v20100526,"org.eclipse.ui.console.ConsoleView",1459888949142
activated,editor,org.eclipse.jdt.ui,3.6.0.v20100602-1600,"org.eclipse.jdt.ui.CompilationUnitEditor",1459888952350
executed,command,org.eclipse.ui,3.6.0.I20100603-1100,"org.eclipse.ui.file.save",1459888953554
activated,view,org.eclipse.ui.console,3.5.0.v20100526,"org.eclipse.ui.console.ConsoleView",1459888956034
activated,editor,org.eclipse.jdt.ui,3.6.0.v20100602-1600,"org.eclipse.jdt.ui.CompilationUnitEditor",1459888959515
executed,command,org.eclipse.ui,3.6.0.I20100603-1100,"org.eclipse.ui.file.save",1459888961075
activated,view,org.eclipse.ui.console,3.5.0.v20100526,"org.eclipse.ui.console.ConsoleView",1459888963897
activated,editor,org.eclipse.jdt.ui,3.6.0.v20100602-1600,"org.eclipse.jdt.ui.CompilationUnitEditor",1459888968238
executed,command,org.eclipse.ui,3.6.0.I20100603-1100,"org.eclipse.ui.file.save",1459888969980
activated,view,org.eclipse.ui.console,3.5.0.v20100526,"org.eclipse.ui.console.ConsoleView",1459888972239
deactivated,workbench,org.eclipse.ui.workbench,3.6.0.I20100603-1100,"",1459888989599
activated,workbench,org.eclipse.ui.workbench,3.6.0.I20100603-1100,"",1459889036519
activated,editor,org.eclipse.jdt.ui,3.6.0.v20100602-1600,"org.eclipse.jdt.ui.CompilationUnitEditor",1459889036570
deactivated,workbench,org.eclipse.ui.workbench,3.6.0.I20100603-1100,"",1459889102244
activated,workbench,org.eclipse.ui.workbench,3.6.0.I20100603-1100,"",1459889102389
deactivated,workbench,org.eclipse.ui.workbench,3.6.0.I20100603-1100,"",1459889120228
activated,workbench,org.eclipse.ui.workbench,3.6.0.I20100603-1100,"",1459889138435
deactivated,workbench,org.eclipse.ui.workbench,3.6.0.I20100603-1100,"",1459889158249
activated,workbench,org.eclipse.ui.workbench,3.6.0.I20100603-1100,"",1459889168975
executed,command,org.eclipse.ui.workbench.texteditor,3.6.0.v20100520-0800,"org.eclipse.ui.edit.text.goto.lineEnd",1459889199934
executed,command,org.eclipse.ui,3.6.0.I20100603-1100,"org.eclipse.ui.file.save",1459889246120
deactivated,workbench,org.eclipse.ui.workbench,3.6.0.I20100603-1100,"",1459889248645
activated,workbench,org.eclipse.ui.workbench,3.6.0.I20100603-1100,"",1459889250130
deactivated,workbench,org.eclipse.ui.workbench,3.6.0.I20100603-1100,"",1459889255956
activated,workbench,org.eclipse.ui.workbench,3.6.0.I20100603-1100,"",1459889256102
executed,command,org.eclipse.ui,3.6.0.I20100603-1100,"org.eclipse.ui.file.save",1459889259402
activated,view,org.eclipse.ui.console,3.5.0.v20100526,"org.eclipse.ui.console.ConsoleView",1459889262578
activated,editor,org.eclipse.jdt.ui,3.6.0.v20100602-1600,"org.eclipse.jdt.ui.CompilationUnitEditor",1459889280159
executed,command,org.eclipse.ui,3.6.0.I20100603-1100,"org.eclipse.ui.file.save",1459889281602
activated,view,org.eclipse.ui.console,3.5.0.v20100526,"org.eclipse.ui.console.ConsoleView",1459889284493
activated,editor,org.eclipse.jdt.ui,3.6.0.v20100602-1600,"org.eclipse.jdt.ui.CompilationUnitEditor",1459889299078
executed,command,org.eclipse.ui,3.6.0.I20100603-1100,"org.eclipse.ui.file.save",1459889303655
activated,view,org.eclipse.ui.console,3.5.0.v20100526,"org.eclipse.ui.console.ConsoleView",1459889306622
activated,editor,org.eclipse.jdt.ui,3.6.0.v20100602-1600,"org.eclipse.jdt.ui.CompilationUnitEditor",1459889318909
deactivated,workbench,org.eclipse.ui.workbench,3.6.0.I20100603-1100,"",1459889327458
activated,workbench,org.eclipse.ui.workbench,3.6.0.I20100603-1100,"",1459889328895
executed,command,org.eclipse.ui,3.6.0.I20100603-1100,"org.eclipse.ui.file.save",1459889336442
activated,view,org.eclipse.ui.console,3.5.0.v20100526,"org.eclipse.ui.console.ConsoleView",1459889339335
deactivated,workbench,org.eclipse.ui.workbench,3.6.0.I20100603-1100,"",1459889343976
activated,workbench,org.eclipse.ui.workbench,3.6.0.I20100603-1100,"",1459889451630
activated,editor,org.eclipse.jdt.ui,3.6.0.v20100602-1600,"org.eclipse.jdt.ui.CompilationUnitEditor",1459889451679
deactivated,workbench,org.eclipse.ui.workbench,3.6.0.I20100603-1100,"",1459889464628
activated,workbench,org.eclipse.ui.workbench,3.6.0.I20100603-1100,"",1459889466245
deactivated,workbench,org.eclipse.ui.workbench,3.6.0.I20100603-1100,"",1459889471199
activated,workbench,org.eclipse.ui.workbench,3.6.0.I20100603-1100,"",1459889472539
deactivated,workbench,org.eclipse.ui.workbench,3.6.0.I20100603-1100,"",1459889499026
activated,workbench,org.eclipse.ui.workbench,3.6.0.I20100603-1100,"",1459889540113
deactivated,workbench,org.eclipse.ui.workbench,3.6.0.I20100603-1100,"",1459889585174
activated,workbench,org.eclipse.ui.workbench,3.6.0.I20100603-1100,"",1459889637580
executed,command,org.eclipse.ui,3.6.0.I20100603-1100,"org.eclipse.ui.file.save",1459889649324
activated,view,org.eclipse.ui.console,3.5.0.v20100526,"org.eclipse.ui.console.ConsoleView",1459889651954
deactivated,workbench,org.eclipse.ui.workbench,3.6.0.I20100603-1100,"",1459889658564
activated,workbench,org.eclipse.ui.workbench,3.6.0.I20100603-1100,"",1459889660565
activated,editor,org.eclipse.jdt.ui,3.6.0.v20100602-1600,"org.eclipse.jdt.ui.CompilationUnitEditor",1459889666425
executed,command,org.eclipse.ui,3.6.0.I20100603-1100,"org.eclipse.ui.edit.undo",1459889673847
executed,command,org.eclipse.ui,3.6.0.I20100603-1100,"org.eclipse.ui.edit.undo",1459889674428
executed,command,org.eclipse.ui,3.6.0.I20100603-1100,"org.eclipse.ui.edit.undo",1459889674452
executed,command,org.eclipse.ui,3.6.0.I20100603-1100,"org.eclipse.ui.edit.undo",1459889674494
executed,command,org.eclipse.ui,3.6.0.I20100603-1100,"org.eclipse.ui.edit.undo",1459889674522
executed,command,org.eclipse.ui,3.6.0.I20100603-1100,"org.eclipse.ui.edit.undo",1459889674547
executed,command,org.eclipse.ui,3.6.0.I20100603-1100,"org.eclipse.ui.edit.undo",1459889674574
executed,command,org.eclipse.ui,3.6.0.I20100603-1100,"org.eclipse.ui.edit.undo",1459889674614
executed,command,org.eclipse.ui,3.6.0.I20100603-1100,"org.eclipse.ui.edit.undo",1459889674634
executed,command,org.eclipse.ui,3.6.0.I20100603-1100,"org.eclipse.ui.edit.undo",1459889674653
executed,command,org.eclipse.ui,3.6.0.I20100603-1100,"org.eclipse.ui.edit.undo",1459889674685
executed,command,org.eclipse.ui,3.6.0.I20100603-1100,"org.eclipse.ui.edit.undo",1459889674724
executed,command,org.eclipse.ui,3.6.0.I20100603-1100,"org.eclipse.ui.edit.undo",1459889674771
executed,command,org.eclipse.ui,3.6.0.I20100603-1100,"org.eclipse.ui.edit.undo",1459889674792
executed,command,org.eclipse.ui,3.6.0.I20100603-1100,"org.eclipse.ui.edit.undo",1459889675259
executed,command,org.eclipse.ui,3.6.0.I20100603-1100,"org.eclipse.ui.edit.undo",1459889675527
executed,command,org.eclipse.ui,3.6.0.I20100603-1100,"org.eclipse.ui.edit.undo",1459889675746
executed,command,org.eclipse.ui,3.6.0.I20100603-1100,"org.eclipse.ui.edit.undo",1459889675955
executed,command,org.eclipse.ui,3.6.0.I20100603-1100,"org.eclipse.ui.edit.undo",1459889676206
executed,command,org.eclipse.ui,3.6.0.I20100603-1100,"org.eclipse.ui.file.save",1459889678671
activated,view,org.eclipse.ui.console,3.5.0.v20100526,"org.eclipse.ui.console.ConsoleView",1459889681170
activated,editor,org.eclipse.jdt.ui,3.6.0.v20100602-1600,"org.eclipse.jdt.ui.CompilationUnitEditor",1459889687836
activated,view,org.eclipse.ui.console,3.5.0.v20100526,"org.eclipse.ui.console.ConsoleView",1459889689982
activated,editor,org.eclipse.jdt.ui,3.6.0.v20100602-1600,"org.eclipse.jdt.ui.CompilationUnitEditor",1459889694786
deactivated,workbench,org.eclipse.ui.workbench,3.6.0.I20100603-1100,"",1459889703708
activated,workbench,org.eclipse.ui.workbench,3.6.0.I20100603-1100,"",1459889728966
executed,command,org.eclipse.ui,3.6.0.I20100603-1100,"org.eclipse.ui.file.save",1459889731525
activated,view,org.eclipse.ui.console,3.5.0.v20100526,"org.eclipse.ui.console.ConsoleView",1459889733754
deactivated,workbench,org.eclipse.ui.workbench,3.6.0.I20100603-1100,"",1459889742730
activated,workbench,org.eclipse.ui.workbench,3.6.0.I20100603-1100,"",1459889845661
activated,editor,org.eclipse.jdt.ui,3.6.0.v20100602-1600,"org.eclipse.jdt.ui.CompilationUnitEditor",1459889845712
executed,command,org.eclipse.ui,3.6.0.I20100603-1100,"org.eclipse.ui.file.save",1459889849578
activated,view,org.eclipse.ui.console,3.5.0.v20100526,"org.eclipse.ui.console.ConsoleView",1459889852349
activated,editor,org.eclipse.jdt.ui,3.6.0.v20100602-1600,"org.eclipse.jdt.ui.CompilationUnitEditor",1459889860865
executed,command,org.eclipse.ui,3.6.0.I20100603-1100,"org.eclipse.ui.edit.undo",1459889881063
executed,command,org.eclipse.ui,3.6.0.I20100603-1100,"org.eclipse.ui.edit.undo",1459889881827
started,bundle,org.eclipse.mylyn.java.tasks,3.4.0.v20100608-0100-e3x,"org.eclipse.mylyn.java.tasks",1459889882241
executed,command,org.eclipse.ui,3.6.0.I20100603-1100,"org.eclipse.ui.edit.undo",1459889883070
executed,command,org.eclipse.ui,3.6.0.I20100603-1100,"org.eclipse.ui.edit.undo",1459889883564
deactivated,workbench,org.eclipse.ui.workbench,3.6.0.I20100603-1100,"",1459889899999
activated,workbench,org.eclipse.ui.workbench,3.6.0.I20100603-1100,"",1459889900144
executed,command,org.eclipse.ui,3.6.0.I20100603-1100,"org.eclipse.ui.edit.undo",1459889903113
deactivated,workbench,org.eclipse.ui.workbench,3.6.0.I20100603-1100,"",1459889921493
activated,workbench,org.eclipse.ui.workbench,3.6.0.I20100603-1100,"",1459889921637
executed,command,org.eclipse.ui,3.6.0.I20100603-1100,"org.eclipse.ui.file.save",1459889925331
deactivated,workbench,org.eclipse.ui.workbench,3.6.0.I20100603-1100,"",1459889939794
activated,workbench,org.eclipse.ui.workbench,3.6.0.I20100603-1100,"",1459890003410
deactivated,workbench,org.eclipse.ui.workbench,3.6.0.I20100603-1100,"",1459890005249
activated,workbench,org.eclipse.ui.workbench,3.6.0.I20100603-1100,"",1459890006356
deactivated,workbench,org.eclipse.ui.workbench,3.6.0.I20100603-1100,"",1459890014286
activated,workbench,org.eclipse.ui.workbench,3.6.0.I20100603-1100,"",1459890024822
activated,view,org.eclipse.ui.console,3.5.0.v20100526,"org.eclipse.ui.console.ConsoleView",1459890028866
activated,editor,org.eclipse.jdt.ui,3.6.0.v20100602-1600,"org.eclipse.jdt.ui.CompilationUnitEditor",1459890033055
deactivated,workbench,org.eclipse.ui.workbench,3.6.0.I20100603-1100,"",1459890046516
activated,workbench,org.eclipse.ui.workbench,3.6.0.I20100603-1100,"",1459890183778
executed,command,org.eclipse.ui,3.6.0.I20100603-1100,"org.eclipse.ui.edit.copy",1459890192117
deactivated,workbench,org.eclipse.ui.workbench,3.6.0.I20100603-1100,"",1459890193192
activated,workbench,org.eclipse.ui.workbench,3.6.0.I20100603-1100,"",1459890521111
executed,command,org.eclipse.ui,3.6.0.I20100603-1100,"org.eclipse.ui.edit.copy",1459890531185
deactivated,workbench,org.eclipse.ui.workbench,3.6.0.I20100603-1100,"",1459890533271
activated,workbench,org.eclipse.ui.workbench,3.6.0.I20100603-1100,"",1459890631616
executed,command,org.eclipse.ui,3.6.0.I20100603-1100,"org.eclipse.ui.edit.undo",1459890638506
executed,command,org.eclipse.ui,3.6.0.I20100603-1100,"org.eclipse.ui.edit.undo",1459890638705
executed,command,org.eclipse.ui,3.6.0.I20100603-1100,"org.eclipse.ui.edit.undo",1459890639099
executed,command,org.eclipse.ui,3.6.0.I20100603-1100,"org.eclipse.ui.edit.redo",1459890645160
deactivated,workbench,org.eclipse.ui.workbench,3.6.0.I20100603-1100,"",1459890647218
activated,workbench,org.eclipse.ui.workbench,3.6.0.I20100603-1100,"",1459890659209
executed,command,org.eclipse.ui.workbench.texteditor,3.6.0.v20100520-0800,"org.eclipse.ui.edit.text.smartEnter",1459890701429
executed,command,org.eclipse.ui,3.6.0.I20100603-1100,"org.eclipse.ui.edit.undo",1459890702329
executed,command,org.eclipse.ui,3.6.0.I20100603-1100,"org.eclipse.ui.file.save",1459890705670
deactivated,workbench,org.eclipse.ui.workbench,3.6.0.I20100603-1100,"",1459890709783
activated,workbench,org.eclipse.ui.workbench,3.6.0.I20100603-1100,"",1459892394855
deactivated,workbench,org.eclipse.ui.workbench,3.6.0.I20100603-1100,"",1459892500436
activated,workbench,org.eclipse.ui.workbench,3.6.0.I20100603-1100,"",1459892589040
executed,command,org.eclipse.ui,3.6.0.I20100603-1100,"org.eclipse.ui.file.save",1459892603487
executed,command,org.eclipse.ui,3.6.0.I20100603-1100,"org.eclipse.ui.file.save",1459892634679
executed,command,org.eclipse.ui,3.6.0.I20100603-1100,"org.eclipse.ui.file.save",1459892641758
activated,view,org.eclipse.ui.console,3.5.0.v20100526,"org.eclipse.ui.console.ConsoleView",1459892644629
activated,editor,org.eclipse.jdt.ui,3.6.0.v20100602-1600,"org.eclipse.jdt.ui.CompilationUnitEditor",1459892664982
executed,command,org.eclipse.ui,3.6.0.I20100603-1100,"org.eclipse.ui.file.save",1459892670122
activated,view,org.eclipse.ui.console,3.5.0.v20100526,"org.eclipse.ui.console.ConsoleView",1459892673104
activated,editor,org.eclipse.jdt.ui,3.6.0.v20100602-1600,"org.eclipse.jdt.ui.CompilationUnitEditor",1459892674810
executed,command,org.eclipse.ui,3.6.0.I20100603-1100,"org.eclipse.ui.file.save",1459892684782
activated,view,org.eclipse.ui.console,3.5.0.v20100526,"org.eclipse.ui.console.ConsoleView",1459892687339
activated,editor,org.eclipse.jdt.ui,3.6.0.v20100602-1600,"org.eclipse.jdt.ui.CompilationUnitEditor",1459892689058
executed,command,org.eclipse.ui,3.6.0.I20100603-1100,"org.eclipse.ui.file.save",1459892693359
activated,view,org.eclipse.ui.console,3.5.0.v20100526,"org.eclipse.ui.console.ConsoleView",1459892696883
activated,editor,org.eclipse.jdt.ui,3.6.0.v20100602-1600,"org.eclipse.jdt.ui.CompilationUnitEditor",1459892717802
executed,command,org.eclipse.ui,3.6.0.I20100603-1100,"org.eclipse.ui.file.save",1459892721259
activated,view,org.eclipse.ui.console,3.5.0.v20100526,"org.eclipse.ui.console.ConsoleView",1459892723830
activated,editor,org.eclipse.jdt.ui,3.6.0.v20100602-1600,"org.eclipse.jdt.ui.CompilationUnitEditor",1459892726547
executed,command,org.eclipse.ui,3.6.0.I20100603-1100,"org.eclipse.ui.file.save",1459892729662
executed,command,org.eclipse.ui,3.6.0.I20100603-1100,"org.eclipse.ui.file.save",1459892735639
executed,command,org.eclipse.ui,3.6.0.I20100603-1100,"org.eclipse.ui.file.save",1459892736932
activated,view,org.eclipse.ui.console,3.5.0.v20100526,"org.eclipse.ui.console.ConsoleView",1459892739267
activated,editor,org.eclipse.jdt.ui,3.6.0.v20100602-1600,"org.eclipse.jdt.ui.CompilationUnitEditor",1459892741145
deactivated,workbench,org.eclipse.ui.workbench,3.6.0.I20100603-1100,"",1459892745576
activated,workbench,org.eclipse.ui.workbench,3.6.0.I20100603-1100,"",1459892764404
executed,command,org.eclipse.ui,3.6.0.I20100603-1100,"org.eclipse.ui.file.save",1459892771597
activated,view,org.eclipse.ui.console,3.5.0.v20100526,"org.eclipse.ui.console.ConsoleView",1459892774783
