what,kind,bundleId,bundleVersion,description,time
opened,editor,org.eclipse.jdt.ui,3.6.0.v20100602-1600,"org.eclipse.jdt.ui.CompilationUnitEditor",1461540042192
activated,editor,org.eclipse.jdt.ui,3.6.0.v20100602-1600,"org.eclipse.jdt.ui.CompilationUnitEditor",1461540042351
activated,view,org.eclipse.jdt.ui,3.6.0.v20100602-1600,"org.eclipse.jdt.ui.PackageExplorer",1461540043821
opened,editor,org.eclipse.jdt.ui,3.6.0.v20100602-1600,"org.eclipse.jdt.ui.CompilationUnitEditor",1461540044166
activated,editor,org.eclipse.jdt.ui,3.6.0.v20100602-1600,"org.eclipse.jdt.ui.CompilationUnitEditor",1461540044309
activated,view,org.eclipse.jdt.ui,3.6.0.v20100602-1600,"org.eclipse.jdt.ui.PackageExplorer",1461540044368
opened,editor,org.eclipse.jdt.ui,3.6.0.v20100602-1600,"org.eclipse.jdt.ui.CompilationUnitEditor",1461540045305
activated,editor,org.eclipse.jdt.ui,3.6.0.v20100602-1600,"org.eclipse.jdt.ui.CompilationUnitEditor",1461540045454
activated,view,org.eclipse.jdt.ui,3.6.0.v20100602-1600,"org.eclipse.jdt.ui.PackageExplorer",1461540046096
opened,editor,org.eclipse.jdt.ui,3.6.0.v20100602-1600,"org.eclipse.jdt.ui.CompilationUnitEditor",1461540046458
activated,editor,org.eclipse.jdt.ui,3.6.0.v20100602-1600,"org.eclipse.jdt.ui.CompilationUnitEditor",1461540046600
activated,editor,org.eclipse.jdt.ui,3.6.0.v20100602-1600,"org.eclipse.jdt.ui.CompilationUnitEditor",1461540048012
executed,command,org.eclipse.ui,3.6.0.I20100603-1100,"org.eclipse.ui.file.save",1461540072019
deactivated,workbench,org.eclipse.ui.workbench,3.6.0.I20100603-1100,"",1461540075110
activated,workbench,org.eclipse.ui.workbench,3.6.0.I20100603-1100,"",1461540111801
activated,editor,org.eclipse.jdt.ui,3.6.0.v20100602-1600,"org.eclipse.jdt.ui.CompilationUnitEditor",1461540117195
activated,editor,org.eclipse.jdt.ui,3.6.0.v20100602-1600,"org.eclipse.jdt.ui.CompilationUnitEditor",1461540118320
activated,editor,org.eclipse.jdt.ui,3.6.0.v20100602-1600,"org.eclipse.jdt.ui.CompilationUnitEditor",1461540118965
activated,editor,org.eclipse.jdt.ui,3.6.0.v20100602-1600,"org.eclipse.jdt.ui.CompilationUnitEditor",1461540119764
activated,editor,org.eclipse.jdt.ui,3.6.0.v20100602-1600,"org.eclipse.jdt.ui.CompilationUnitEditor",1461540120466
executed,command,org.eclipse.ui,3.6.0.I20100603-1100,"org.eclipse.ui.file.save",1461540130037
activated,editor,org.eclipse.jdt.ui,3.6.0.v20100602-1600,"org.eclipse.jdt.ui.CompilationUnitEditor",1461540131937
activated,editor,org.eclipse.jdt.ui,3.6.0.v20100602-1600,"org.eclipse.jdt.ui.CompilationUnitEditor",1461540155928
activated,editor,org.eclipse.jdt.ui,3.6.0.v20100602-1600,"org.eclipse.jdt.ui.CompilationUnitEditor",1461540165986
executed,command,org.eclipse.ui,3.6.0.I20100603-1100,"org.eclipse.ui.file.save",1461540175808
deactivated,workbench,org.eclipse.ui.workbench,3.6.0.I20100603-1100,"",1461540198789
activated,workbench,org.eclipse.ui.workbench,3.6.0.I20100603-1100,"",1461540201022
deactivated,workbench,org.eclipse.ui.workbench,3.6.0.I20100603-1100,"",1461540202184
activated,workbench,org.eclipse.ui.workbench,3.6.0.I20100603-1100,"",1461540204692
deactivated,workbench,org.eclipse.ui.workbench,3.6.0.I20100603-1100,"",1461540207375
activated,workbench,org.eclipse.ui.workbench,3.6.0.I20100603-1100,"",1461540235051
executed,command,org.eclipse.ui,3.6.0.I20100603-1100,"org.eclipse.ui.file.save",1461540242900
deactivated,workbench,org.eclipse.ui.workbench,3.6.0.I20100603-1100,"",1461540254757
activated,workbench,org.eclipse.ui.workbench,3.6.0.I20100603-1100,"",1461540256410
deactivated,workbench,org.eclipse.ui.workbench,3.6.0.I20100603-1100,"",1461540256812
activated,workbench,org.eclipse.ui.workbench,3.6.0.I20100603-1100,"",1461540264048
started,bundle,org.eclipse.debug.ui,3.6.0.v20100601-1530,"org.eclipse.debug.ui",1461540266212
error,log,,,"Unhandled event loop exception",1461540266770
started,bundle,org.eclipse.jdt.debug,3.6.0.v20100526,"org.eclipse.jdt.debug",1461540267098
started,bundle,org.eclipse.jdt.debug.ui,3.5.0.v20100602-0830,"org.eclipse.jdt.debug.ui",1461540267687
activated,view,org.eclipse.jdt.ui,3.6.0.v20100602-1600,"org.eclipse.jdt.ui.PackageExplorer",1461540271943
started,bundle,org.eclipse.pde.core,3.6.0.v20100601,"org.eclipse.pde.core",1461540273656
deactivated,workbench,org.eclipse.ui.workbench,3.6.0.I20100603-1100,"",1461540276164
activated,workbench,org.eclipse.ui.workbench,3.6.0.I20100603-1100,"",1461540277683
executed,command,org.eclipse.jdt.debug.ui,3.5.0.v20100602-0830,"org.eclipse.jdt.debug.ui.localJavaShortcut.run",1461540277693
activated,editor,org.eclipse.jdt.ui,3.6.0.v20100602-1600,"org.eclipse.jdt.ui.CompilationUnitEditor",1461540279355
activated,view,org.eclipse.jdt.ui,3.6.0.v20100602-1600,"org.eclipse.jdt.ui.PackageExplorer",1461540284194
deactivated,workbench,org.eclipse.ui.workbench,3.6.0.I20100603-1100,"",1461540286542
activated,workbench,org.eclipse.ui.workbench,3.6.0.I20100603-1100,"",1461540287780
executed,command,org.eclipse.jdt.debug.ui,3.5.0.v20100602-0830,"org.eclipse.jdt.debug.ui.localJavaShortcut.run",1461540287791
activated,editor,org.eclipse.jdt.ui,3.6.0.v20100602-1600,"org.eclipse.jdt.ui.CompilationUnitEditor",1461540288541
activated,editor,org.eclipse.jdt.ui,3.6.0.v20100602-1600,"org.eclipse.jdt.ui.CompilationUnitEditor",1461540291194
activated,editor,org.eclipse.jdt.ui,3.6.0.v20100602-1600,"org.eclipse.jdt.ui.CompilationUnitEditor",1461540292705
activated,editor,org.eclipse.jdt.ui,3.6.0.v20100602-1600,"org.eclipse.jdt.ui.CompilationUnitEditor",1461540294019
started,bundle,org.eclipse.wst.server.core,1.1.202.v20100518,"org.eclipse.wst.server.core",1461540298046
started,bundle,org.eclipse.wst.server.ui,1.1.203.v20100601,"org.eclipse.wst.server.ui",1461540298080
deactivated,workbench,org.eclipse.ui.workbench,3.6.0.I20100603-1100,"",1461540298638
activated,workbench,org.eclipse.ui.workbench,3.6.0.I20100603-1100,"",1461540360354
deactivated,workbench,org.eclipse.ui.workbench,3.6.0.I20100603-1100,"",1461540380774
activated,workbench,org.eclipse.ui.workbench,3.6.0.I20100603-1100,"",1461540385607
deactivated,workbench,org.eclipse.ui.workbench,3.6.0.I20100603-1100,"",1461540410975
activated,workbench,org.eclipse.ui.workbench,3.6.0.I20100603-1100,"",1461540421970
deactivated,workbench,org.eclipse.ui.workbench,3.6.0.I20100603-1100,"",1461540424912
activated,workbench,org.eclipse.ui.workbench,3.6.0.I20100603-1100,"",1461540435758
deactivated,workbench,org.eclipse.ui.workbench,3.6.0.I20100603-1100,"",1461540437108
activated,workbench,org.eclipse.ui.workbench,3.6.0.I20100603-1100,"",1461540456759
activated,view,org.eclipse.jdt.ui,3.6.0.v20100602-1600,"org.eclipse.jdt.ui.PackageExplorer",1461540483192
deactivated,workbench,org.eclipse.ui.workbench,3.6.0.I20100603-1100,"",1461540492740
activated,workbench,org.eclipse.ui.workbench,3.6.0.I20100603-1100,"",1461540561270
started,bundle,org.eclipse.jst.server.core,1.2.101.v20100421,"org.eclipse.jst.server.core",1461540561362
started,bundle,org.eclipse.jst.jee,1.0.300.v201005191301,"org.eclipse.jst.jee",1461540561379
deactivated,workbench,org.eclipse.ui.workbench,3.6.0.I20100603-1100,"",1461540573132
activated,workbench,org.eclipse.ui.workbench,3.6.0.I20100603-1100,"",1461540640882
activated,editor,org.eclipse.jdt.ui,3.6.0.v20100602-1600,"org.eclipse.jdt.ui.CompilationUnitEditor",1461540643799
activated,editor,org.eclipse.jdt.ui,3.6.0.v20100602-1600,"org.eclipse.jdt.ui.CompilationUnitEditor",1461540645836
closed,editor,org.eclipse.jdt.ui,3.6.0.v20100602-1600,"org.eclipse.jdt.ui.CompilationUnitEditor",1461540645836
closed,editor,org.eclipse.jdt.ui,3.6.0.v20100602-1600,"org.eclipse.jdt.ui.CompilationUnitEditor",1461540647256
activated,editor,org.eclipse.jdt.ui,3.6.0.v20100602-1600,"org.eclipse.jdt.ui.CompilationUnitEditor",1461540648532
activated,editor,org.eclipse.jdt.ui,3.6.0.v20100602-1600,"org.eclipse.jdt.ui.CompilationUnitEditor",1461540649810
closed,editor,org.eclipse.jdt.ui,3.6.0.v20100602-1600,"org.eclipse.jdt.ui.CompilationUnitEditor",1461540649810
closed,editor,org.eclipse.jdt.ui,3.6.0.v20100602-1600,"org.eclipse.jdt.ui.CompilationUnitEditor",1461540650951
closed,editor,org.eclipse.jdt.ui,3.6.0.v20100602-1600,"org.eclipse.jdt.ui.CompilationUnitEditor",1461540652388
closed,editor,org.eclipse.jdt.ui,3.6.0.v20100602-1600,"org.eclipse.jdt.ui.CompilationUnitEditor",1461540653476
activated,view,org.eclipse.jdt.ui,3.6.0.v20100602-1600,"org.eclipse.jdt.ui.PackageExplorer",1461540655027
closed,editor,org.eclipse.jdt.ui,3.6.0.v20100602-1600,"org.eclipse.jdt.ui.CompilationUnitEditor",1461540655027
deactivated,workbench,org.eclipse.ui.workbench,3.6.0.I20100603-1100,"",1461540674641
activated,workbench,org.eclipse.ui.workbench,3.6.0.I20100603-1100,"",1461540676734
deactivated,workbench,org.eclipse.ui.workbench,3.6.0.I20100603-1100,"",1461540683309
activated,workbench,org.eclipse.ui.workbench,3.6.0.I20100603-1100,"",1461540759174
opened,editor,org.eclipse.jdt.ui,3.6.0.v20100602-1600,"org.eclipse.jdt.ui.CompilationUnitEditor",1461540759943
activated,editor,org.eclipse.jdt.ui,3.6.0.v20100602-1600,"org.eclipse.jdt.ui.CompilationUnitEditor",1461540760011
deactivated,workbench,org.eclipse.ui.workbench,3.6.0.I20100603-1100,"",1461540794702
activated,workbench,org.eclipse.ui.workbench,3.6.0.I20100603-1100,"",1461540808734
deactivated,workbench,org.eclipse.ui.workbench,3.6.0.I20100603-1100,"",1461540809051
activated,workbench,org.eclipse.ui.workbench,3.6.0.I20100603-1100,"",1461540812085
executed,command,org.eclipse.ui,3.6.0.I20100603-1100,"org.eclipse.ui.file.save",1461540814194
deactivated,workbench,org.eclipse.ui.workbench,3.6.0.I20100603-1100,"",1461540822113
activated,workbench,org.eclipse.ui.workbench,3.6.0.I20100603-1100,"",1461540826709
activated,view,org.eclipse.jdt.ui,3.6.0.v20100602-1600,"org.eclipse.jdt.ui.PackageExplorer",1461540851239
deactivated,workbench,org.eclipse.ui.workbench,3.6.0.I20100603-1100,"",1461540852738
started,bundle,org.eclipse.wst.jsdt.manipulation,1.0.200.v201004150600,"org.eclipse.wst.jsdt.manipulation",1461540854181
started,bundle,org.eclipse.wst.jsdt.core,1.1.0.v201006030738,"org.eclipse.wst.jsdt.core",1461540854567
started,bundle,org.eclipse.wst.jsdt.ui,1.1.0.v201005200157,"org.eclipse.wst.jsdt.ui",1461540854977
closed,editor,org.eclipse.jdt.ui,3.6.0.v20100602-1600,"org.eclipse.jdt.ui.CompilationUnitEditor",1461540855719
activated,workbench,org.eclipse.ui.workbench,3.6.0.I20100603-1100,"",1461540855790
executed,command,org.eclipse.ltk.ui.refactoring,3.5.0.v20100526-0800,"org.eclipse.ltk.ui.refactoring.commands.deleteResources",1461540855845
executed,command,org.eclipse.ui,3.6.0.I20100603-1100,"org.eclipse.ui.edit.delete",1461540855845
deactivated,workbench,org.eclipse.ui.workbench,3.6.0.I20100603-1100,"",1461540864978
activated,workbench,org.eclipse.ui.workbench,3.6.0.I20100603-1100,"",1461540871755
deactivated,workbench,org.eclipse.ui.workbench,3.6.0.I20100603-1100,"",1461540879439
activated,workbench,org.eclipse.ui.workbench,3.6.0.I20100603-1100,"",1461540880471
executed,command,org.eclipse.ltk.ui.refactoring,3.5.0.v20100526-0800,"org.eclipse.ltk.ui.refactoring.commands.deleteResources",1461540880491
executed,command,org.eclipse.ui,3.6.0.I20100603-1100,"org.eclipse.ui.edit.delete",1461540880491
deactivated,workbench,org.eclipse.ui.workbench,3.6.0.I20100603-1100,"",1461540884361
activated,workbench,org.eclipse.ui.workbench,3.6.0.I20100603-1100,"",1461540890194
deactivated,workbench,org.eclipse.ui.workbench,3.6.0.I20100603-1100,"",1461540898537
activated,workbench,org.eclipse.ui.workbench,3.6.0.I20100603-1100,"",1461540916533
deactivated,workbench,org.eclipse.ui.workbench,3.6.0.I20100603-1100,"",1461540923887
activated,workbench,org.eclipse.ui.workbench,3.6.0.I20100603-1100,"",1461540925843
deactivated,workbench,org.eclipse.ui.workbench,3.6.0.I20100603-1100,"",1461540929256
activated,workbench,org.eclipse.ui.workbench,3.6.0.I20100603-1100,"",1461540945501
executed,command,org.eclipse.ui,3.6.0.I20100603-1100,"org.eclipse.ui.file.import",1461540945531
executed,command,org.eclipse.ui,3.6.0.I20100603-1100,"org.eclipse.ui.file.import",1461540945531
deactivated,workbench,org.eclipse.ui.workbench,3.6.0.I20100603-1100,"",1461540962974
activated,workbench,org.eclipse.ui.workbench,3.6.0.I20100603-1100,"",1461540964432
executed,command,org.eclipse.ui,3.6.0.I20100603-1100,"org.eclipse.ui.edit.delete",1461540964447
deactivated,workbench,org.eclipse.ui.workbench,3.6.0.I20100603-1100,"",1461540976123
activated,workbench,org.eclipse.ui.workbench,3.6.0.I20100603-1100,"",1461540978772
deactivated,workbench,org.eclipse.ui.workbench,3.6.0.I20100603-1100,"",1461541000470
activated,workbench,org.eclipse.ui.workbench,3.6.0.I20100603-1100,"",1461541004412
executed,command,org.eclipse.ui,3.6.0.I20100603-1100,"org.eclipse.ui.file.properties",1461541004430
opened,editor,org.eclipse.jdt.ui,3.6.0.v20100602-1600,"org.eclipse.jdt.ui.CompilationUnitEditor",1461541015218
activated,editor,org.eclipse.jdt.ui,3.6.0.v20100602-1600,"org.eclipse.jdt.ui.CompilationUnitEditor",1461541015287
deactivated,workbench,org.eclipse.ui.workbench,3.6.0.I20100603-1100,"",1461541024234
activated,workbench,org.eclipse.ui.workbench,3.6.0.I20100603-1100,"",1461541024388
executed,command,org.eclipse.ui,3.6.0.I20100603-1100,"org.eclipse.ui.file.save",1461541026444
executed,command,org.eclipse.ui,3.6.0.I20100603-1100,"org.eclipse.ui.file.save",1461541030947
deactivated,workbench,org.eclipse.ui.workbench,3.6.0.I20100603-1100,"",1461541048272
activated,workbench,org.eclipse.ui.workbench,3.6.0.I20100603-1100,"",1461541048417
deactivated,workbench,org.eclipse.ui.workbench,3.6.0.I20100603-1100,"",1461541048864
activated,workbench,org.eclipse.ui.workbench,3.6.0.I20100603-1100,"",1461541050312
activated,view,org.eclipse.jdt.ui,3.6.0.v20100602-1600,"org.eclipse.jdt.ui.PackageExplorer",1461541053176
opened,editor,org.eclipse.jdt.ui,3.6.0.v20100602-1600,"org.eclipse.jdt.ui.CompilationUnitEditor",1461541053487
activated,editor,org.eclipse.jdt.ui,3.6.0.v20100602-1600,"org.eclipse.jdt.ui.CompilationUnitEditor",1461541053605
executed,command,org.eclipse.ui,3.6.0.I20100603-1100,"org.eclipse.ui.file.save",1461541057408
deactivated,workbench,org.eclipse.ui.workbench,3.6.0.I20100603-1100,"",1461541061590
activated,workbench,org.eclipse.ui.workbench,3.6.0.I20100603-1100,"",1461541061686
executed,command,org.eclipse.ui,3.6.0.I20100603-1100,"org.eclipse.ui.file.save",1461541063569
activated,view,org.eclipse.jdt.ui,3.6.0.v20100602-1600,"org.eclipse.jdt.ui.PackageExplorer",1461541065532
opened,editor,org.eclipse.jdt.ui,3.6.0.v20100602-1600,"org.eclipse.jdt.ui.CompilationUnitEditor",1461541065920
activated,editor,org.eclipse.jdt.ui,3.6.0.v20100602-1600,"org.eclipse.jdt.ui.CompilationUnitEditor",1461541066088
deactivated,workbench,org.eclipse.ui.workbench,3.6.0.I20100603-1100,"",1461541068392
activated,workbench,org.eclipse.ui.workbench,3.6.0.I20100603-1100,"",1461541068537
executed,command,org.eclipse.ui,3.6.0.I20100603-1100,"org.eclipse.ui.file.save",1461541069533
activated,view,org.eclipse.jdt.ui,3.6.0.v20100602-1600,"org.eclipse.jdt.ui.PackageExplorer",1461541070972
opened,editor,org.eclipse.jdt.ui,3.6.0.v20100602-1600,"org.eclipse.jdt.ui.CompilationUnitEditor",1461541071332
activated,editor,org.eclipse.jdt.ui,3.6.0.v20100602-1600,"org.eclipse.jdt.ui.CompilationUnitEditor",1461541071437
deactivated,workbench,org.eclipse.ui.workbench,3.6.0.I20100603-1100,"",1461541073367
activated,workbench,org.eclipse.ui.workbench,3.6.0.I20100603-1100,"",1461541073523
executed,command,org.eclipse.ui,3.6.0.I20100603-1100,"org.eclipse.ui.file.save",1461541074434
activated,view,org.eclipse.jdt.ui,3.6.0.v20100602-1600,"org.eclipse.jdt.ui.PackageExplorer",1461541076059
opened,editor,org.eclipse.jdt.ui,3.6.0.v20100602-1600,"org.eclipse.jdt.ui.CompilationUnitEditor",1461541076387
activated,editor,org.eclipse.jdt.ui,3.6.0.v20100602-1600,"org.eclipse.jdt.ui.CompilationUnitEditor",1461541076505
deactivated,workbench,org.eclipse.ui.workbench,3.6.0.I20100603-1100,"",1461541078660
activated,workbench,org.eclipse.ui.workbench,3.6.0.I20100603-1100,"",1461541079301
executed,command,org.eclipse.ui,3.6.0.I20100603-1100,"org.eclipse.ui.file.save",1461541080270
activated,view,org.eclipse.jdt.ui,3.6.0.v20100602-1600,"org.eclipse.jdt.ui.PackageExplorer",1461541081675
activated,editor,org.eclipse.jdt.ui,3.6.0.v20100602-1600,"org.eclipse.jdt.ui.CompilationUnitEditor",1461541081852
activated,view,org.eclipse.jdt.ui,3.6.0.v20100602-1600,"org.eclipse.jdt.ui.PackageExplorer",1461541083251
opened,editor,org.eclipse.jdt.ui,3.6.0.v20100602-1600,"org.eclipse.jdt.ui.CompilationUnitEditor",1461541083582
activated,editor,org.eclipse.jdt.ui,3.6.0.v20100602-1600,"org.eclipse.jdt.ui.CompilationUnitEditor",1461541083699
deactivated,workbench,org.eclipse.ui.workbench,3.6.0.I20100603-1100,"",1461541085831
activated,workbench,org.eclipse.ui.workbench,3.6.0.I20100603-1100,"",1461541085893
executed,command,org.eclipse.ui,3.6.0.I20100603-1100,"org.eclipse.ui.file.save",1461541086980
activated,view,org.eclipse.jdt.ui,3.6.0.v20100602-1600,"org.eclipse.jdt.ui.PackageExplorer",1461541088301
opened,editor,org.eclipse.jdt.ui,3.6.0.v20100602-1600,"org.eclipse.jdt.ui.CompilationUnitEditor",1461541088654
activated,editor,org.eclipse.jdt.ui,3.6.0.v20100602-1600,"org.eclipse.jdt.ui.CompilationUnitEditor",1461541088778
deactivated,workbench,org.eclipse.ui.workbench,3.6.0.I20100603-1100,"",1461541090914
activated,workbench,org.eclipse.ui.workbench,3.6.0.I20100603-1100,"",1461541090998
executed,command,org.eclipse.ui,3.6.0.I20100603-1100,"org.eclipse.ui.file.save",1461541091954
activated,view,org.eclipse.jdt.ui,3.6.0.v20100602-1600,"org.eclipse.jdt.ui.PackageExplorer",1461541093350
activated,editor,org.eclipse.jdt.ui,3.6.0.v20100602-1600,"org.eclipse.jdt.ui.CompilationUnitEditor",1461541093562
activated,view,org.eclipse.jdt.ui,3.6.0.v20100602-1600,"org.eclipse.jdt.ui.PackageExplorer",1461541094449
activated,editor,org.eclipse.jdt.ui,3.6.0.v20100602-1600,"org.eclipse.jdt.ui.CompilationUnitEditor",1461541094643
executed,command,org.eclipse.ui,3.6.0.I20100603-1100,"org.eclipse.ui.file.save",1461541101565
executed,command,org.eclipse.ui,3.6.0.I20100603-1100,"org.eclipse.ui.edit.undo",1461541103868
executed,command,org.eclipse.ui,3.6.0.I20100603-1100,"org.eclipse.ui.file.save",1461541105722
activated,view,org.eclipse.jdt.ui,3.6.0.v20100602-1600,"org.eclipse.jdt.ui.PackageExplorer",1461541146222
activated,editor,org.eclipse.jdt.ui,3.6.0.v20100602-1600,"org.eclipse.jdt.ui.CompilationUnitEditor",1461541148802
deactivated,workbench,org.eclipse.ui.workbench,3.6.0.I20100603-1100,"",1461541158215
executed,command,org.eclipse.ui,3.6.0.I20100603-1100,"org.eclipse.ui.edit.copy",1461541162495
activated,workbench,org.eclipse.ui.workbench,3.6.0.I20100603-1100,"",1461541250782
executed,command,org.eclipse.ui,3.6.0.I20100603-1100,"org.eclipse.ui.file.save",1461541257077
deactivated,workbench,org.eclipse.ui.workbench,3.6.0.I20100603-1100,"",1461541269345
executed,command,org.eclipse.ui,3.6.0.I20100603-1100,"org.eclipse.ui.edit.copy",1461541273560
activated,workbench,org.eclipse.ui.workbench,3.6.0.I20100603-1100,"",1461541306314
activated,view,org.eclipse.jdt.ui,3.6.0.v20100602-1600,"org.eclipse.jdt.ui.PackageExplorer",1461541308265
deactivated,workbench,org.eclipse.ui.workbench,3.6.0.I20100603-1100,"",1461541322989
activated,workbench,org.eclipse.ui.workbench,3.6.0.I20100603-1100,"",1461541324779
executed,command,org.eclipse.ui.ide,3.6.0.I20100601-0800,"org.eclipse.ui.project.cleanAction",1461541324797
activated,editor,org.eclipse.jdt.ui,3.6.0.v20100602-1600,"org.eclipse.jdt.ui.CompilationUnitEditor",1461541328091
executed,command,org.eclipse.ui,3.6.0.I20100603-1100,"org.eclipse.ui.file.save",1461541330374
activated,editor,org.eclipse.jdt.ui,3.6.0.v20100602-1600,"org.eclipse.jdt.ui.CompilationUnitEditor",1461541333009
activated,editor,org.eclipse.jdt.ui,3.6.0.v20100602-1600,"org.eclipse.jdt.ui.CompilationUnitEditor",1461541336364
activated,editor,org.eclipse.jdt.ui,3.6.0.v20100602-1600,"org.eclipse.jdt.ui.CompilationUnitEditor",1461541338550
activated,editor,org.eclipse.jdt.ui,3.6.0.v20100602-1600,"org.eclipse.jdt.ui.CompilationUnitEditor",1461541343665
activated,editor,org.eclipse.jdt.ui,3.6.0.v20100602-1600,"org.eclipse.jdt.ui.CompilationUnitEditor",1461541344795
activated,editor,org.eclipse.jdt.ui,3.6.0.v20100602-1600,"org.eclipse.jdt.ui.CompilationUnitEditor",1461541345532
deactivated,workbench,org.eclipse.ui.workbench,3.6.0.I20100603-1100,"",1461541386600
activated,workbench,org.eclipse.ui.workbench,3.6.0.I20100603-1100,"",1461541387333
deactivated,workbench,org.eclipse.ui.workbench,3.6.0.I20100603-1100,"",1461541389930
activated,workbench,org.eclipse.ui.workbench,3.6.0.I20100603-1100,"",1461541390077
executed,command,org.eclipse.ui,3.6.0.I20100603-1100,"org.eclipse.ui.edit.undo",1461541391932
executed,command,org.eclipse.ui,3.6.0.I20100603-1100,"org.eclipse.ui.file.save",1461541402317
activated,editor,org.eclipse.jdt.ui,3.6.0.v20100602-1600,"org.eclipse.jdt.ui.CompilationUnitEditor",1461541404648
deactivated,workbench,org.eclipse.ui.workbench,3.6.0.I20100603-1100,"",1461541412601
activated,workbench,org.eclipse.ui.workbench,3.6.0.I20100603-1100,"",1461541412746
deactivated,workbench,org.eclipse.ui.workbench,3.6.0.I20100603-1100,"",1461541413198
activated,workbench,org.eclipse.ui.workbench,3.6.0.I20100603-1100,"",1461541420566
deactivated,workbench,org.eclipse.ui.workbench,3.6.0.I20100603-1100,"",1461541423933
activated,workbench,org.eclipse.ui.workbench,3.6.0.I20100603-1100,"",1461541426417
deactivated,workbench,org.eclipse.ui.workbench,3.6.0.I20100603-1100,"",1461541429426
activated,workbench,org.eclipse.ui.workbench,3.6.0.I20100603-1100,"",1461541433927
executed,command,org.eclipse.ui.ide,3.6.0.I20100601-0800,"org.eclipse.ui.project.cleanAction",1461541433947
deactivated,workbench,org.eclipse.ui.workbench,3.6.0.I20100603-1100,"",1461541440141
activated,workbench,org.eclipse.ui.workbench,3.6.0.I20100603-1100,"",1461541470705
deactivated,workbench,org.eclipse.ui.workbench,3.6.0.I20100603-1100,"",1461541471698
activated,workbench,org.eclipse.ui.workbench,3.6.0.I20100603-1100,"",1461541473922
started,bundle,org.eclipse.wst.jsdt.debug.core,1.0.0.v201006082045,"org.eclipse.wst.jsdt.debug.core",1461541473993
closed,workbench,org.eclipse.ui.workbench,3.6.0.I20100603-1100,"",1461541474413
stopped,bundle,org.eclipse.jst.j2ee.xdoclet.runtime,1.1.300.v201004280700,"org.eclipse.jst.j2ee.xdoclet.runtime",1461541475455
stopped,bundle,org.eclipse.jst.j2ee.ejb.annotations.xdoclet,1.2.100.v201003112036,"org.eclipse.jst.j2ee.ejb.annotations.xdoclet",1461541475543
stopped,bundle,org.eclipse.jst.server.generic.jboss,1.6.1.v200904151730,"org.eclipse.jst.server.generic.jboss",1461541475578
stopped,bundle,org.eclipse.jst.server.generic.jonas,1.5.205.v200805140145,"org.eclipse.jst.server.generic.jonas",1461541475626
stopped,bundle,org.eclipse.jst.server.generic.oc4j,1.5.206.v20090812,"org.eclipse.jst.server.generic.oc4j",1461541475676
stopped,bundle,org.eclipse.jst.server.websphere.core,1.0.302.v20080620,"org.eclipse.jst.server.websphere.core",1461541475696
stopped,bundle,org.eclipse.jst.server.generic.ui,1.0.505.v20100428,"org.eclipse.jst.server.generic.ui",1461541475697
stopped,bundle,org.eclipse.jst.server.generic.core,1.0.606.v20100512,"org.eclipse.jst.server.generic.core",1461541475797
stopped,bundle,org.eclipse.mylyn.ide.ant,3.4.0.v20100608-0100-e3x,"org.eclipse.mylyn.ide.ant",1461541475860
stopped,bundle,org.eclipse.datatools.connectivity.oda.template.ui,3.2.1.v201004090942,"org.eclipse.datatools.connectivity.oda.template.ui",1461541475880
stopped,bundle,org.eclipse.pde.api.tools.ui,1.0.200.v20100601-1815,"org.eclipse.pde.api.tools.ui",1461541475880
activated,perspective,org.eclipse.jdt.ui,,"org.eclipse.jdt.ui.JavaPerspective",1461541504755
started,bundle,org.eclipse.osgi,3.6.0.v20100517,"org.eclipse.osgi",1461541504757
started,bundle,org.eclipse.equinox.simpleconfigurator,1.0.200.v20100503,"org.eclipse.equinox.simpleconfigurator",1461541504758
started,bundle,com.ibm.icu,4.2.1.v20100412,"com.ibm.icu",1461541504760
started,bundle,org.eclipse.compare.core,3.5.100.I20100526-0800,"org.eclipse.compare.core",1461541504762
started,bundle,org.eclipse.core.contenttype,3.4.100.v20100505-1235,"org.eclipse.core.contenttype",1461541504764
started,bundle,org.eclipse.core.databinding.observable,1.3.0.I20100601-0800,"org.eclipse.core.databinding.observable",1461541504766
started,bundle,org.eclipse.core.expressions,3.4.200.v20100505,"org.eclipse.core.expressions",1461541504767
started,bundle,org.eclipse.core.filebuffers,3.5.100.v20100520-0800,"org.eclipse.core.filebuffers",1461541504770
started,bundle,org.eclipse.core.filesystem,1.3.0.v20100526-0737,"org.eclipse.core.filesystem",1461541504773
started,bundle,org.eclipse.core.jobs,3.5.0.v20100515,"org.eclipse.core.jobs",1461541504774
started,bundle,org.eclipse.core.net,1.2.100.I20100511-0800,"org.eclipse.core.net",1461541504776
started,bundle,org.eclipse.core.resources,3.6.0.v20100526-0737,"org.eclipse.core.resources",1461541504777
started,bundle,org.eclipse.core.runtime,3.6.0.v20100505,"org.eclipse.core.runtime",1461541504779
started,bundle,org.eclipse.core.runtime.compatibility,3.2.100.v20100505,"org.eclipse.core.runtime.compatibility",1461541504782
started,bundle,org.eclipse.core.runtime.compatibility.auth,3.2.200.v20100517,"org.eclipse.core.runtime.compatibility.auth",1461541504783
started,bundle,org.eclipse.debug.core,3.6.0.v20100519,"org.eclipse.debug.core",1461541504786
started,bundle,org.eclipse.emf.common,2.6.0.v20100614-1136,"org.eclipse.emf.common",1461541504787
started,bundle,org.eclipse.emf.ecore,2.6.0.v20100614-1136,"org.eclipse.emf.ecore",1461541504790
started,bundle,org.eclipse.emf.ecore.xmi,2.5.0.v20100521-1846,"org.eclipse.emf.ecore.xmi",1461541504791
started,bundle,org.eclipse.epp.usagedata.gathering,1.3.0.R201005261100,"org.eclipse.epp.usagedata.gathering",1461541504792
started,bundle,org.eclipse.epp.usagedata.recording,1.3.0.R201005261100,"org.eclipse.epp.usagedata.recording",1461541504794
started,bundle,org.eclipse.equinox.app,1.3.0.v20100512,"org.eclipse.equinox.app",1461541504795
started,bundle,org.eclipse.equinox.common,3.6.0.v20100503,"org.eclipse.equinox.common",1461541504797
started,bundle,org.eclipse.equinox.ds,1.2.0.v20100507,"org.eclipse.equinox.ds",1461541504799
