what,kind,bundleId,bundleVersion,description,time
activated,editor,org.eclipse.jdt.ui,3.6.0.v20100602-1600,"org.eclipse.jdt.ui.CompilationUnitEditor",1459730315875
activated,editor,org.eclipse.jdt.ui,3.6.0.v20100602-1600,"org.eclipse.jdt.ui.CompilationUnitEditor",1459730337569
deactivated,workbench,org.eclipse.ui.workbench,3.6.0.I20100603-1100,"",1459730339562
activated,workbench,org.eclipse.ui.workbench,3.6.0.I20100603-1100,"",1459730347044
activated,editor,org.eclipse.jdt.ui,3.6.0.v20100602-1600,"org.eclipse.jdt.ui.CompilationUnitEditor",1459730359933
activated,editor,org.eclipse.jdt.ui,3.6.0.v20100602-1600,"org.eclipse.jdt.ui.CompilationUnitEditor",1459730368841
executed,command,org.eclipse.ui,3.6.0.I20100603-1100,"org.eclipse.ui.file.save",1459730379875
deactivated,workbench,org.eclipse.ui.workbench,3.6.0.I20100603-1100,"",1459730397083
activated,workbench,org.eclipse.ui.workbench,3.6.0.I20100603-1100,"",1459730422327
deactivated,workbench,org.eclipse.ui.workbench,3.6.0.I20100603-1100,"",1459730428454
activated,workbench,org.eclipse.ui.workbench,3.6.0.I20100603-1100,"",1459730437485
deactivated,workbench,org.eclipse.ui.workbench,3.6.0.I20100603-1100,"",1459730443326
activated,workbench,org.eclipse.ui.workbench,3.6.0.I20100603-1100,"",1459730470067
executed,command,org.eclipse.ui.editors,3.6.0.v20100520-0800,"org.eclipse.ui.editors.lineNumberToggle",1459730472965
activated,view,org.eclipse.ui.console,3.5.0.v20100526,"org.eclipse.ui.console.ConsoleView",1459730497544
activated,editor,org.eclipse.jdt.ui,3.6.0.v20100602-1600,"org.eclipse.jdt.ui.CompilationUnitEditor",1459730497740
deactivated,workbench,org.eclipse.ui.workbench,3.6.0.I20100603-1100,"",1459730504435
activated,workbench,org.eclipse.ui.workbench,3.6.0.I20100603-1100,"",1459730512118
deactivated,workbench,org.eclipse.ui.workbench,3.6.0.I20100603-1100,"",1459730524062
activated,workbench,org.eclipse.ui.workbench,3.6.0.I20100603-1100,"",1459730524197
executed,command,org.eclipse.ui,3.6.0.I20100603-1100,"org.eclipse.ui.file.save",1459730526552
executed,command,org.eclipse.ui,3.6.0.I20100603-1100,"org.eclipse.ui.file.save",1459730563653
activated,view,org.eclipse.ui.console,3.5.0.v20100526,"org.eclipse.ui.console.ConsoleView",1459730569043
activated,editor,org.eclipse.jdt.ui,3.6.0.v20100602-1600,"org.eclipse.jdt.ui.CompilationUnitEditor",1459730569256
activated,editor,org.eclipse.jdt.ui,3.6.0.v20100602-1600,"org.eclipse.jdt.ui.CompilationUnitEditor",1459730577196
activated,editor,org.eclipse.jdt.ui,3.6.0.v20100602-1600,"org.eclipse.jdt.ui.CompilationUnitEditor",1459730578683
deactivated,workbench,org.eclipse.ui.workbench,3.6.0.I20100603-1100,"",1459730585296
activated,workbench,org.eclipse.ui.workbench,3.6.0.I20100603-1100,"",1459730593503
executed,command,org.eclipse.ui,3.6.0.I20100603-1100,"org.eclipse.ui.file.save",1459730614701
activated,editor,org.eclipse.jdt.ui,3.6.0.v20100602-1600,"org.eclipse.jdt.ui.CompilationUnitEditor",1459730624332
deactivated,workbench,org.eclipse.ui.workbench,3.6.0.I20100603-1100,"",1459730633464
activated,workbench,org.eclipse.ui.workbench,3.6.0.I20100603-1100,"",1459730641793
deactivated,workbench,org.eclipse.ui.workbench,3.6.0.I20100603-1100,"",1459730645166
activated,workbench,org.eclipse.ui.workbench,3.6.0.I20100603-1100,"",1459730685601
deactivated,workbench,org.eclipse.ui.workbench,3.6.0.I20100603-1100,"",1459730758684
activated,workbench,org.eclipse.ui.workbench,3.6.0.I20100603-1100,"",1459730758789
executed,command,org.eclipse.ui,3.6.0.I20100603-1100,"org.eclipse.ui.edit.undo",1459730763288
deactivated,workbench,org.eclipse.ui.workbench,3.6.0.I20100603-1100,"",1459730857696
activated,workbench,org.eclipse.ui.workbench,3.6.0.I20100603-1100,"",1459730857833
deactivated,workbench,org.eclipse.ui.workbench,3.6.0.I20100603-1100,"",1459730933920
activated,workbench,org.eclipse.ui.workbench,3.6.0.I20100603-1100,"",1459730934058
executed,command,org.eclipse.ui,3.6.0.I20100603-1100,"org.eclipse.ui.edit.undo",1459730935969
executed,command,org.eclipse.ui,3.6.0.I20100603-1100,"org.eclipse.ui.file.save",1459730956793
deactivated,workbench,org.eclipse.ui.workbench,3.6.0.I20100603-1100,"",1459730964909
activated,workbench,org.eclipse.ui.workbench,3.6.0.I20100603-1100,"",1459730977023
executed,command,org.eclipse.ui,3.6.0.I20100603-1100,"org.eclipse.ui.file.save",1459730982820
activated,view,org.eclipse.ui.console,3.5.0.v20100526,"org.eclipse.ui.console.ConsoleView",1459730985031
activated,editor,org.eclipse.jdt.ui,3.6.0.v20100602-1600,"org.eclipse.jdt.ui.CompilationUnitEditor",1459730987181
activated,editor,org.eclipse.jdt.ui,3.6.0.v20100602-1600,"org.eclipse.jdt.ui.CompilationUnitEditor",1459730987215
executed,command,org.eclipse.ui,3.6.0.I20100603-1100,"org.eclipse.ui.file.save",1459731013842
activated,view,org.eclipse.ui.console,3.5.0.v20100526,"org.eclipse.ui.console.ConsoleView",1459731015920
activated,editor,org.eclipse.jdt.ui,3.6.0.v20100602-1600,"org.eclipse.jdt.ui.CompilationUnitEditor",1459731023366
executed,command,org.eclipse.ui,3.6.0.I20100603-1100,"org.eclipse.ui.file.save",1459731025463
activated,view,org.eclipse.ui.console,3.5.0.v20100526,"org.eclipse.ui.console.ConsoleView",1459731027486
deactivated,workbench,org.eclipse.ui.workbench,3.6.0.I20100603-1100,"",1459731116435
started,bundle,org.eclipse.wst.xsl.debug.ui,1.0.100.v201004290328,"org.eclipse.wst.xsl.debug.ui",1459731117795
activated,workbench,org.eclipse.ui.workbench,3.6.0.I20100603-1100,"",1459731118277
activated,editor,org.eclipse.jdt.ui,3.6.0.v20100602-1600,"org.eclipse.jdt.ui.CompilationUnitEditor",1459731121633
activated,editor,org.eclipse.jdt.ui,3.6.0.v20100602-1600,"org.eclipse.jdt.ui.CompilationUnitEditor",1459731121665
activated,editor,org.eclipse.jdt.ui,3.6.0.v20100602-1600,"org.eclipse.jdt.ui.CompilationUnitEditor",1459731122786
deactivated,workbench,org.eclipse.ui.workbench,3.6.0.I20100603-1100,"",1459731126117
activated,workbench,org.eclipse.ui.workbench,3.6.0.I20100603-1100,"",1459731135241
activated,editor,org.eclipse.jdt.ui,3.6.0.v20100602-1600,"org.eclipse.jdt.ui.CompilationUnitEditor",1459731136391
activated,editor,org.eclipse.jdt.ui,3.6.0.v20100602-1600,"org.eclipse.jdt.ui.CompilationUnitEditor",1459731140389
closed,editor,org.eclipse.jdt.ui,3.6.0.v20100602-1600,"org.eclipse.jdt.ui.CompilationUnitEditor",1459731140389
activated,editor,org.eclipse.jdt.ui,3.6.0.v20100602-1600,"org.eclipse.jdt.ui.CompilationUnitEditor",1459731142383
executed,command,org.eclipse.ui,3.6.0.I20100603-1100,"org.eclipse.ui.edit.undo",1459731169456
executed,command,org.eclipse.ui,3.6.0.I20100603-1100,"org.eclipse.ui.edit.undo",1459731172907
activated,editor,org.eclipse.jdt.ui,3.6.0.v20100602-1600,"org.eclipse.jdt.ui.CompilationUnitEditor",1459731186827
activated,editor,org.eclipse.jdt.ui,3.6.0.v20100602-1600,"org.eclipse.jdt.ui.CompilationUnitEditor",1459731187841
activated,editor,org.eclipse.jdt.ui,3.6.0.v20100602-1600,"org.eclipse.jdt.ui.CompilationUnitEditor",1459731393948
activated,editor,org.eclipse.jdt.ui,3.6.0.v20100602-1600,"org.eclipse.jdt.ui.CompilationUnitEditor",1459731394864
deactivated,workbench,org.eclipse.ui.workbench,3.6.0.I20100603-1100,"",1459731395206
activated,workbench,org.eclipse.ui.workbench,3.6.0.I20100603-1100,"",1459731414911
activated,editor,org.eclipse.jdt.ui,3.6.0.v20100602-1600,"org.eclipse.jdt.ui.CompilationUnitEditor",1459731415913
deactivated,workbench,org.eclipse.ui.workbench,3.6.0.I20100603-1100,"",1459731429598
activated,workbench,org.eclipse.ui.workbench,3.6.0.I20100603-1100,"",1459731731268
deactivated,workbench,org.eclipse.ui.workbench,3.6.0.I20100603-1100,"",1459731748553
activated,workbench,org.eclipse.ui.workbench,3.6.0.I20100603-1100,"",1459731913389
deactivated,workbench,org.eclipse.ui.workbench,3.6.0.I20100603-1100,"",1459731915366
activated,workbench,org.eclipse.ui.workbench,3.6.0.I20100603-1100,"",1459732007235
deactivated,workbench,org.eclipse.ui.workbench,3.6.0.I20100603-1100,"",1459732007788
activated,workbench,org.eclipse.ui.workbench,3.6.0.I20100603-1100,"",1459732136580
deactivated,workbench,org.eclipse.ui.workbench,3.6.0.I20100603-1100,"",1459732144333
activated,workbench,org.eclipse.ui.workbench,3.6.0.I20100603-1100,"",1459732176567
deactivated,workbench,org.eclipse.ui.workbench,3.6.0.I20100603-1100,"",1459732194138
activated,workbench,org.eclipse.ui.workbench,3.6.0.I20100603-1100,"",1459732205055
activated,editor,org.eclipse.jdt.ui,3.6.0.v20100602-1600,"org.eclipse.jdt.ui.CompilationUnitEditor",1459732262873
executed,command,org.eclipse.ui,3.6.0.I20100603-1100,"org.eclipse.ui.file.save",1459732269247
activated,editor,org.eclipse.jdt.ui,3.6.0.v20100602-1600,"org.eclipse.jdt.ui.CompilationUnitEditor",1459732273680
executed,command,org.eclipse.ui,3.6.0.I20100603-1100,"org.eclipse.ui.file.save",1459732279496
activated,editor,org.eclipse.jdt.ui,3.6.0.v20100602-1600,"org.eclipse.jdt.ui.CompilationUnitEditor",1459732336847
activated,editor,org.eclipse.jdt.ui,3.6.0.v20100602-1600,"org.eclipse.jdt.ui.CompilationUnitEditor",1459732337918
activated,editor,org.eclipse.jdt.ui,3.6.0.v20100602-1600,"org.eclipse.jdt.ui.CompilationUnitEditor",1459732346002
activated,editor,org.eclipse.jdt.ui,3.6.0.v20100602-1600,"org.eclipse.jdt.ui.CompilationUnitEditor",1459732374427
activated,view,org.eclipse.jdt.ui,3.6.0.v20100602-1600,"org.eclipse.jdt.ui.PackageExplorer",1459732387498
opened,editor,org.eclipse.jdt.ui,3.6.0.v20100602-1600,"org.eclipse.jdt.ui.CompilationUnitEditor",1459732397673
activated,editor,org.eclipse.jdt.ui,3.6.0.v20100602-1600,"org.eclipse.jdt.ui.CompilationUnitEditor",1459732397733
activated,view,org.eclipse.jdt.ui,3.6.0.v20100602-1600,"org.eclipse.jdt.ui.PackageExplorer",1459732406644
opened,editor,org.eclipse.jdt.ui,3.6.0.v20100602-1600,"org.eclipse.jdt.ui.CompilationUnitEditor",1459732406803
activated,editor,org.eclipse.jdt.ui,3.6.0.v20100602-1600,"org.eclipse.jdt.ui.CompilationUnitEditor",1459732406866
activated,view,org.eclipse.jdt.ui,3.6.0.v20100602-1600,"org.eclipse.jdt.ui.PackageExplorer",1459732411302
opened,editor,org.eclipse.jdt.ui,3.6.0.v20100602-1600,"org.eclipse.jdt.ui.CompilationUnitEditor",1459732411453
activated,editor,org.eclipse.jdt.ui,3.6.0.v20100602-1600,"org.eclipse.jdt.ui.CompilationUnitEditor",1459732411505
executed,command,org.eclipse.ui,3.6.0.I20100603-1100,"org.eclipse.ui.edit.copy",1459732415714
activated,view,org.eclipse.jdt.ui,3.6.0.v20100602-1600,"org.eclipse.jdt.ui.PackageExplorer",1459732419479
activated,editor,org.eclipse.jdt.ui,3.6.0.v20100602-1600,"org.eclipse.jdt.ui.CompilationUnitEditor",1459732422546
closed,editor,org.eclipse.jdt.ui,3.6.0.v20100602-1600,"org.eclipse.jdt.ui.CompilationUnitEditor",1459732422552
closed,editor,org.eclipse.jdt.ui,3.6.0.v20100602-1600,"org.eclipse.jdt.ui.CompilationUnitEditor",1459732423966
activated,editor,org.eclipse.jdt.ui,3.6.0.v20100602-1600,"org.eclipse.jdt.ui.CompilationUnitEditor",1459732424850
closed,editor,org.eclipse.jdt.ui,3.6.0.v20100602-1600,"org.eclipse.jdt.ui.CompilationUnitEditor",1459732424850
activated,view,org.eclipse.jdt.ui,3.6.0.v20100602-1600,"org.eclipse.jdt.ui.PackageExplorer",1459732427432
opened,editor,org.eclipse.jdt.ui,3.6.0.v20100602-1600,"org.eclipse.jdt.ui.CompilationUnitEditor",1459732447060
activated,editor,org.eclipse.jdt.ui,3.6.0.v20100602-1600,"org.eclipse.jdt.ui.CompilationUnitEditor",1459732447113
activated,editor,org.eclipse.jdt.ui,3.6.0.v20100602-1600,"org.eclipse.jdt.ui.CompilationUnitEditor",1459732459721
activated,editor,org.eclipse.jdt.ui,3.6.0.v20100602-1600,"org.eclipse.jdt.ui.CompilationUnitEditor",1459732461362
deactivated,workbench,org.eclipse.ui.workbench,3.6.0.I20100603-1100,"",1459732519141
activated,workbench,org.eclipse.ui.workbench,3.6.0.I20100603-1100,"",1459732520245
deactivated,workbench,org.eclipse.ui.workbench,3.6.0.I20100603-1100,"",1459732526615
activated,workbench,org.eclipse.ui.workbench,3.6.0.I20100603-1100,"",1459732526738
executed,command,org.eclipse.ui,3.6.0.I20100603-1100,"org.eclipse.ui.edit.undo",1459732528538
activated,editor,org.eclipse.jdt.ui,3.6.0.v20100602-1600,"org.eclipse.jdt.ui.CompilationUnitEditor",1459732569391
activated,editor,org.eclipse.jdt.ui,3.6.0.v20100602-1600,"org.eclipse.jdt.ui.CompilationUnitEditor",1459732570221
activated,editor,org.eclipse.jdt.ui,3.6.0.v20100602-1600,"org.eclipse.jdt.ui.CompilationUnitEditor",1459732583197
activated,editor,org.eclipse.jdt.ui,3.6.0.v20100602-1600,"org.eclipse.jdt.ui.CompilationUnitEditor",1459732584598
executed,command,org.eclipse.ui,3.6.0.I20100603-1100,"org.eclipse.ui.file.save",1459732632852
activated,editor,org.eclipse.jdt.ui,3.6.0.v20100602-1600,"org.eclipse.jdt.ui.CompilationUnitEditor",1459732644547
activated,editor,org.eclipse.jdt.ui,3.6.0.v20100602-1600,"org.eclipse.jdt.ui.CompilationUnitEditor",1459732679995
activated,editor,org.eclipse.jdt.ui,3.6.0.v20100602-1600,"org.eclipse.jdt.ui.CompilationUnitEditor",1459732683540
deactivated,workbench,org.eclipse.ui.workbench,3.6.0.I20100603-1100,"",1459732724772
activated,workbench,org.eclipse.ui.workbench,3.6.0.I20100603-1100,"",1459732724910
activated,editor,org.eclipse.jdt.ui,3.6.0.v20100602-1600,"org.eclipse.jdt.ui.CompilationUnitEditor",1459732729498
activated,editor,org.eclipse.jdt.ui,3.6.0.v20100602-1600,"org.eclipse.jdt.ui.CompilationUnitEditor",1459732732929
deactivated,workbench,org.eclipse.ui.workbench,3.6.0.I20100603-1100,"",1459732753913
activated,workbench,org.eclipse.ui.workbench,3.6.0.I20100603-1100,"",1459732754050
deactivated,workbench,org.eclipse.ui.workbench,3.6.0.I20100603-1100,"",1459732754185
activated,workbench,org.eclipse.ui.workbench,3.6.0.I20100603-1100,"",1459732755676
deactivated,workbench,org.eclipse.ui.workbench,3.6.0.I20100603-1100,"",1459732760416
activated,workbench,org.eclipse.ui.workbench,3.6.0.I20100603-1100,"",1459732760553
executed,command,org.eclipse.ui,3.6.0.I20100603-1100,"org.eclipse.ui.edit.undo",1459732762785
activated,editor,org.eclipse.jdt.ui,3.6.0.v20100602-1600,"org.eclipse.jdt.ui.CompilationUnitEditor",1459732765822
activated,editor,org.eclipse.jdt.ui,3.6.0.v20100602-1600,"org.eclipse.jdt.ui.CompilationUnitEditor",1459732768612
activated,editor,org.eclipse.jdt.ui,3.6.0.v20100602-1600,"org.eclipse.jdt.ui.CompilationUnitEditor",1459732784609
activated,editor,org.eclipse.jdt.ui,3.6.0.v20100602-1600,"org.eclipse.jdt.ui.CompilationUnitEditor",1459732788509
activated,editor,org.eclipse.jdt.ui,3.6.0.v20100602-1600,"org.eclipse.jdt.ui.CompilationUnitEditor",1459732790434
activated,editor,org.eclipse.jdt.ui,3.6.0.v20100602-1600,"org.eclipse.jdt.ui.CompilationUnitEditor",1459732799155
activated,editor,org.eclipse.jdt.ui,3.6.0.v20100602-1600,"org.eclipse.jdt.ui.CompilationUnitEditor",1459732800723
activated,editor,org.eclipse.jdt.ui,3.6.0.v20100602-1600,"org.eclipse.jdt.ui.CompilationUnitEditor",1459732820776
activated,editor,org.eclipse.jdt.ui,3.6.0.v20100602-1600,"org.eclipse.jdt.ui.CompilationUnitEditor",1459732821773
activated,editor,org.eclipse.jdt.ui,3.6.0.v20100602-1600,"org.eclipse.jdt.ui.CompilationUnitEditor",1459732823982
activated,editor,org.eclipse.jdt.ui,3.6.0.v20100602-1600,"org.eclipse.jdt.ui.CompilationUnitEditor",1459732824928
deactivated,workbench,org.eclipse.ui.workbench,3.6.0.I20100603-1100,"",1459732869210
activated,workbench,org.eclipse.ui.workbench,3.6.0.I20100603-1100,"",1459732869349
activated,view,org.eclipse.jdt.ui,3.6.0.v20100602-1600,"org.eclipse.jdt.ui.PackageExplorer",1459732879385
activated,editor,org.eclipse.jdt.ui,3.6.0.v20100602-1600,"org.eclipse.jdt.ui.CompilationUnitEditor",1459732879537
activated,editor,org.eclipse.jdt.ui,3.6.0.v20100602-1600,"org.eclipse.jdt.ui.CompilationUnitEditor",1459732883872
deactivated,workbench,org.eclipse.ui.workbench,3.6.0.I20100603-1100,"",1459732888315
activated,workbench,org.eclipse.ui.workbench,3.6.0.I20100603-1100,"",1459732991294
activated,editor,org.eclipse.jdt.ui,3.6.0.v20100602-1600,"org.eclipse.jdt.ui.CompilationUnitEditor",1459732992456
deactivated,workbench,org.eclipse.ui.workbench,3.6.0.I20100603-1100,"",1459733018858
activated,workbench,org.eclipse.ui.workbench,3.6.0.I20100603-1100,"",1459733040710
executed,command,org.eclipse.ui,3.6.0.I20100603-1100,"org.eclipse.ui.file.save",1459733374725
executed,command,org.eclipse.ui,3.6.0.I20100603-1100,"org.eclipse.ui.edit.copy",1459733390056
activated,editor,org.eclipse.jdt.ui,3.6.0.v20100602-1600,"org.eclipse.jdt.ui.CompilationUnitEditor",1459733391780
executed,command,org.eclipse.ui,3.6.0.I20100603-1100,"org.eclipse.ui.edit.paste",1459733393934
executed,command,org.eclipse.ui,3.6.0.I20100603-1100,"org.eclipse.ui.file.save",1459733394538
deactivated,workbench,org.eclipse.ui.workbench,3.6.0.I20100603-1100,"",1459733399886
activated,workbench,org.eclipse.ui.workbench,3.6.0.I20100603-1100,"",1459733400025
activated,editor,org.eclipse.jdt.ui,3.6.0.v20100602-1600,"org.eclipse.jdt.ui.CompilationUnitEditor",1459733400062
executed,command,org.eclipse.ui,3.6.0.I20100603-1100,"org.eclipse.ui.edit.undo",1459733402742
executed,command,org.eclipse.ui,3.6.0.I20100603-1100,"org.eclipse.ui.edit.undo",1459733402831
executed,command,org.eclipse.ui,3.6.0.I20100603-1100,"org.eclipse.ui.edit.undo",1459733404314
executed,command,org.eclipse.ui,3.6.0.I20100603-1100,"org.eclipse.ui.file.save",1459733407301
activated,editor,org.eclipse.jdt.ui,3.6.0.v20100602-1600,"org.eclipse.jdt.ui.CompilationUnitEditor",1459733408863
executed,command,org.eclipse.ui,3.6.0.I20100603-1100,"org.eclipse.ui.file.save",1459733414692
deactivated,workbench,org.eclipse.ui.workbench,3.6.0.I20100603-1100,"",1459733418537
activated,workbench,org.eclipse.ui.workbench,3.6.0.I20100603-1100,"",1459733418675
deactivated,workbench,org.eclipse.ui.workbench,3.6.0.I20100603-1100,"",1459733418794
activated,workbench,org.eclipse.ui.workbench,3.6.0.I20100603-1100,"",1459733422044
activated,editor,org.eclipse.jdt.ui,3.6.0.v20100602-1600,"org.eclipse.jdt.ui.CompilationUnitEditor",1459733425221
activated,editor,org.eclipse.jdt.ui,3.6.0.v20100602-1600,"org.eclipse.jdt.ui.CompilationUnitEditor",1459733428775
deactivated,workbench,org.eclipse.ui.workbench,3.6.0.I20100603-1100,"",1459733432341
activated,workbench,org.eclipse.ui.workbench,3.6.0.I20100603-1100,"",1459733432478
executed,command,org.eclipse.ui,3.6.0.I20100603-1100,"org.eclipse.ui.file.save",1459733434322
activated,editor,org.eclipse.jdt.ui,3.6.0.v20100602-1600,"org.eclipse.jdt.ui.CompilationUnitEditor",1459733445231
deactivated,workbench,org.eclipse.ui.workbench,3.6.0.I20100603-1100,"",1459733503622
activated,workbench,org.eclipse.ui.workbench,3.6.0.I20100603-1100,"",1459733514567
deactivated,workbench,org.eclipse.ui.workbench,3.6.0.I20100603-1100,"",1459733519574
activated,workbench,org.eclipse.ui.workbench,3.6.0.I20100603-1100,"",1459733520494
executed,command,org.eclipse.ui,3.6.0.I20100603-1100,"org.eclipse.ui.file.save",1459733522855
activated,editor,org.eclipse.jdt.ui,3.6.0.v20100602-1600,"org.eclipse.jdt.ui.CompilationUnitEditor",1459733525766
executed,command,org.eclipse.ui,3.6.0.I20100603-1100,"org.eclipse.ui.file.save",1459733530399
activated,editor,org.eclipse.jdt.ui,3.6.0.v20100602-1600,"org.eclipse.jdt.ui.CompilationUnitEditor",1459733532230
executed,command,org.eclipse.ui,3.6.0.I20100603-1100,"org.eclipse.ui.file.save",1459733550508
executed,command,org.eclipse.ui,3.6.0.I20100603-1100,"org.eclipse.ui.edit.cut",1459733559644
executed,command,org.eclipse.ui,3.6.0.I20100603-1100,"org.eclipse.ui.edit.paste",1459733561865
executed,command,org.eclipse.ui,3.6.0.I20100603-1100,"org.eclipse.ui.file.save",1459733570669
deactivated,workbench,org.eclipse.ui.workbench,3.6.0.I20100603-1100,"",1459733609248
activated,workbench,org.eclipse.ui.workbench,3.6.0.I20100603-1100,"",1459733618612
deactivated,workbench,org.eclipse.ui.workbench,3.6.0.I20100603-1100,"",1459733635994
activated,workbench,org.eclipse.ui.workbench,3.6.0.I20100603-1100,"",1459733661072
deactivated,workbench,org.eclipse.ui.workbench,3.6.0.I20100603-1100,"",1459733674539
activated,workbench,org.eclipse.ui.workbench,3.6.0.I20100603-1100,"",1459733705518
deactivated,workbench,org.eclipse.ui.workbench,3.6.0.I20100603-1100,"",1459733771032
activated,workbench,org.eclipse.ui.workbench,3.6.0.I20100603-1100,"",1459733788656
executed,command,org.eclipse.ui,3.6.0.I20100603-1100,"org.eclipse.ui.edit.copy",1459733789999
executed,command,org.eclipse.ui,3.6.0.I20100603-1100,"org.eclipse.ui.edit.paste",1459733791582
executed,command,org.eclipse.ui,3.6.0.I20100603-1100,"org.eclipse.ui.edit.cut",1459733797209
executed,command,org.eclipse.ui,3.6.0.I20100603-1100,"org.eclipse.ui.edit.paste",1459733798623
executed,command,org.eclipse.ui,3.6.0.I20100603-1100,"org.eclipse.ui.file.save",1459733804515
activated,editor,org.eclipse.jdt.ui,3.6.0.v20100602-1600,"org.eclipse.jdt.ui.CompilationUnitEditor",1459733810624
deactivated,workbench,org.eclipse.ui.workbench,3.6.0.I20100603-1100,"",1459733817216
activated,workbench,org.eclipse.ui.workbench,3.6.0.I20100603-1100,"",1459733817354
activated,editor,org.eclipse.jdt.ui,3.6.0.v20100602-1600,"org.eclipse.jdt.ui.CompilationUnitEditor",1459733817395
executed,command,org.eclipse.ui,3.6.0.I20100603-1100,"org.eclipse.ui.edit.undo",1459733820558
activated,editor,org.eclipse.jdt.ui,3.6.0.v20100602-1600,"org.eclipse.jdt.ui.CompilationUnitEditor",1459733824549
activated,editor,org.eclipse.jdt.ui,3.6.0.v20100602-1600,"org.eclipse.jdt.ui.CompilationUnitEditor",1459733846997
activated,editor,org.eclipse.jdt.ui,3.6.0.v20100602-1600,"org.eclipse.jdt.ui.CompilationUnitEditor",1459733848175
deactivated,workbench,org.eclipse.ui.workbench,3.6.0.I20100603-1100,"",1459733873611
activated,workbench,org.eclipse.ui.workbench,3.6.0.I20100603-1100,"",1459733914188
deactivated,workbench,org.eclipse.ui.workbench,3.6.0.I20100603-1100,"",1459733922913
activated,workbench,org.eclipse.ui.workbench,3.6.0.I20100603-1100,"",1459734433264
deactivated,workbench,org.eclipse.ui.workbench,3.6.0.I20100603-1100,"",1459734434456
activated,workbench,org.eclipse.ui.workbench,3.6.0.I20100603-1100,"",1459734494106
activated,editor,org.eclipse.jdt.ui,3.6.0.v20100602-1600,"org.eclipse.jdt.ui.CompilationUnitEditor",1459734546924
activated,editor,org.eclipse.jdt.ui,3.6.0.v20100602-1600,"org.eclipse.jdt.ui.CompilationUnitEditor",1459734548064
deactivated,workbench,org.eclipse.ui.workbench,3.6.0.I20100603-1100,"",1459734551257
activated,workbench,org.eclipse.ui.workbench,3.6.0.I20100603-1100,"",1459734592875
activated,editor,org.eclipse.jdt.ui,3.6.0.v20100602-1600,"org.eclipse.jdt.ui.CompilationUnitEditor",1459734606333
activated,editor,org.eclipse.jdt.ui,3.6.0.v20100602-1600,"org.eclipse.jdt.ui.CompilationUnitEditor",1459734607948
deactivated,workbench,org.eclipse.ui.workbench,3.6.0.I20100603-1100,"",1459734613561
activated,workbench,org.eclipse.ui.workbench,3.6.0.I20100603-1100,"",1459734618491
activated,view,org.eclipse.jdt.ui,3.6.0.v20100602-1600,"org.eclipse.jdt.ui.PackageExplorer",1459734619670
opened,editor,org.eclipse.jdt.ui,3.6.0.v20100602-1600,"org.eclipse.jdt.ui.CompilationUnitEditor",1459734631095
activated,editor,org.eclipse.jdt.ui,3.6.0.v20100602-1600,"org.eclipse.jdt.ui.CompilationUnitEditor",1459734631148
activated,view,org.eclipse.jdt.ui,3.6.0.v20100602-1600,"org.eclipse.jdt.ui.PackageExplorer",1459734649466
opened,editor,org.eclipse.jdt.ui,3.6.0.v20100602-1600,"org.eclipse.jdt.ui.CompilationUnitEditor",1459734649660
activated,editor,org.eclipse.jdt.ui,3.6.0.v20100602-1600,"org.eclipse.jdt.ui.CompilationUnitEditor",1459734649713
activated,view,org.eclipse.jdt.ui,3.6.0.v20100602-1600,"org.eclipse.jdt.ui.PackageExplorer",1459734652530
opened,editor,org.eclipse.jdt.ui,3.6.0.v20100602-1600,"org.eclipse.jdt.ui.CompilationUnitEditor",1459734665432
activated,editor,org.eclipse.jdt.ui,3.6.0.v20100602-1600,"org.eclipse.jdt.ui.CompilationUnitEditor",1459734665481
activated,editor,org.eclipse.jdt.ui,3.6.0.v20100602-1600,"org.eclipse.jdt.ui.CompilationUnitEditor",1459734671426
activated,editor,org.eclipse.jdt.ui,3.6.0.v20100602-1600,"org.eclipse.jdt.ui.CompilationUnitEditor",1459734672766
executed,command,org.eclipse.ui,3.6.0.I20100603-1100,"org.eclipse.ui.file.save",1459734689578
activated,editor,org.eclipse.jdt.ui,3.6.0.v20100602-1600,"org.eclipse.jdt.ui.CompilationUnitEditor",1459734694712
activated,editor,org.eclipse.jdt.ui,3.6.0.v20100602-1600,"org.eclipse.jdt.ui.CompilationUnitEditor",1459734709103
deactivated,workbench,org.eclipse.ui.workbench,3.6.0.I20100603-1100,"",1459734730809
activated,workbench,org.eclipse.ui.workbench,3.6.0.I20100603-1100,"",1459734730946
executed,command,org.eclipse.ui,3.6.0.I20100603-1100,"org.eclipse.ui.file.save",1459734752360
executed,command,org.eclipse.ui,3.6.0.I20100603-1100,"org.eclipse.ui.edit.undo",1459734756488
executed,command,org.eclipse.ui,3.6.0.I20100603-1100,"org.eclipse.ui.edit.undo",1459734756836
executed,command,org.eclipse.ui,3.6.0.I20100603-1100,"org.eclipse.ui.file.save",1459734757918
activated,editor,org.eclipse.jdt.ui,3.6.0.v20100602-1600,"org.eclipse.jdt.ui.CompilationUnitEditor",1459734760175
executed,command,org.eclipse.ui,3.6.0.I20100603-1100,"org.eclipse.ui.file.save",1459734761938
activated,editor,org.eclipse.jdt.ui,3.6.0.v20100602-1600,"org.eclipse.jdt.ui.CompilationUnitEditor",1459734764272
deactivated,workbench,org.eclipse.ui.workbench,3.6.0.I20100603-1100,"",1459734768207
activated,workbench,org.eclipse.ui.workbench,3.6.0.I20100603-1100,"",1459734768345
executed,command,org.eclipse.ui,3.6.0.I20100603-1100,"org.eclipse.ui.file.save",1459734774063
activated,editor,org.eclipse.jdt.ui,3.6.0.v20100602-1600,"org.eclipse.jdt.ui.CompilationUnitEditor",1459734776828
activated,editor,org.eclipse.jdt.ui,3.6.0.v20100602-1600,"org.eclipse.jdt.ui.CompilationUnitEditor",1459734781826
deactivated,workbench,org.eclipse.ui.workbench,3.6.0.I20100603-1100,"",1459734784435
executed,command,org.eclipse.ui,3.6.0.I20100603-1100,"org.eclipse.ui.edit.findReplace",1459734784454
activated,workbench,org.eclipse.ui.workbench,3.6.0.I20100603-1100,"",1459734794298
activated,view,org.eclipse.jdt.ui,3.6.0.v20100602-1600,"org.eclipse.jdt.ui.PackageExplorer",1459734799816
opened,editor,org.eclipse.jdt.ui,3.6.0.v20100602-1600,"org.eclipse.jdt.ui.CompilationUnitEditor",1459734799976
activated,editor,org.eclipse.jdt.ui,3.6.0.v20100602-1600,"org.eclipse.jdt.ui.CompilationUnitEditor",1459734800030
activated,editor,org.eclipse.jdt.ui,3.6.0.v20100602-1600,"org.eclipse.jdt.ui.CompilationUnitEditor",1459734807090
activated,editor,org.eclipse.jdt.ui,3.6.0.v20100602-1600,"org.eclipse.jdt.ui.CompilationUnitEditor",1459734808501
executed,command,org.eclipse.ui,3.6.0.I20100603-1100,"org.eclipse.ui.file.save",1459734823319
executed,command,org.eclipse.ui,3.6.0.I20100603-1100,"org.eclipse.ui.file.save",1459734904438
executed,command,org.eclipse.ui,3.6.0.I20100603-1100,"org.eclipse.ui.edit.copy",1459734909454
executed,command,org.eclipse.ui,3.6.0.I20100603-1100,"org.eclipse.ui.edit.paste",1459734911290
executed,command,org.eclipse.ui,3.6.0.I20100603-1100,"org.eclipse.ui.edit.copy",1459734920715
executed,command,org.eclipse.ui,3.6.0.I20100603-1100,"org.eclipse.ui.edit.paste",1459734922156
executed,command,org.eclipse.ui,3.6.0.I20100603-1100,"org.eclipse.ui.file.save",1459734926454
