what,kind,bundleId,bundleVersion,description,time
stopped,bundle,org.eclipse.mylyn.wikitext.ui,1.3.0.v20100608-0100-e3x,"org.eclipse.mylyn.wikitext.ui",1456984477812
stopped,bundle,org.eclipse.rse.subsystems.files.dstore,2.1.100.v200905272300,"org.eclipse.rse.subsystems.files.dstore",1456984477812
stopped,bundle,org.eclipse.rse.subsystems.processes.dstore,2.1.100.v200905272300,"org.eclipse.rse.subsystems.processes.dstore",1456984477812
stopped,bundle,org.eclipse.rse.subsystems.shells.dstore,2.1.200.v201005200200,"org.eclipse.rse.subsystems.shells.dstore",1456984477812
stopped,bundle,org.eclipse.rse.connectorservice.dstore,3.1.100.v201005281600,"org.eclipse.rse.connectorservice.dstore",1456984477813
stopped,bundle,org.eclipse.rse.subsystems.files.local,2.1.101.v200907301400,"org.eclipse.rse.subsystems.files.local",1456984477813
stopped,bundle,org.eclipse.rse.subsystems.processes.local,2.1.100.v200905272300,"org.eclipse.rse.subsystems.processes.local",1456984477813
stopped,bundle,org.eclipse.rse.subsystems.shells.local,2.1.100.v200905272300,"org.eclipse.rse.subsystems.shells.local",1456984477813
stopped,bundle,org.eclipse.rse.connectorservice.local,2.1.100.v200905272300,"org.eclipse.rse.connectorservice.local",1456984477813
stopped,bundle,org.eclipse.rse.subsystems.files.ssh,2.1.100.v200905272300,"org.eclipse.rse.subsystems.files.ssh",1456984477813
stopped,bundle,org.eclipse.rse.subsystems.shells.ssh,2.1.100.v200905272300,"org.eclipse.rse.subsystems.shells.ssh",1456984477813
stopped,bundle,org.eclipse.rse.subsystems.terminals.ssh,1.0.1.v200908051630,"org.eclipse.rse.subsystems.terminals.ssh",1456984477813
stopped,bundle,org.eclipse.rse.connectorservice.ssh,2.1.100.v200905272300,"org.eclipse.rse.connectorservice.ssh",1456984477813
stopped,bundle,org.eclipse.rse.connectorservice.telnet,1.2.1.v200908051630,"org.eclipse.rse.connectorservice.telnet",1456984477814
stopped,bundle,org.eclipse.rse.dstore.security,3.0.200.v201003010830,"org.eclipse.rse.dstore.security",1456984477814
stopped,bundle,org.eclipse.rse.efs,2.1.200.v201005262000,"org.eclipse.rse.efs",1456984477814
stopped,bundle,org.eclipse.rse.subsystems.files.ftp,2.1.100.v200905272300,"org.eclipse.rse.subsystems.files.ftp",1456984477814
activated,perspective,org.eclipse.jdt.ui,,"org.eclipse.jdt.ui.JavaPerspective",1457213203207
started,bundle,org.eclipse.osgi,3.6.0.v20100517,"org.eclipse.osgi",1457213203210
started,bundle,org.eclipse.equinox.simpleconfigurator,1.0.200.v20100503,"org.eclipse.equinox.simpleconfigurator",1457213203212
started,bundle,com.ibm.icu,4.2.1.v20100412,"com.ibm.icu",1457213203214
started,bundle,org.eclipse.compare.core,3.5.100.I20100526-0800,"org.eclipse.compare.core",1457213203215
started,bundle,org.eclipse.core.contenttype,3.4.100.v20100505-1235,"org.eclipse.core.contenttype",1457213203216
started,bundle,org.eclipse.core.databinding.observable,1.3.0.I20100601-0800,"org.eclipse.core.databinding.observable",1457213203218
started,bundle,org.eclipse.core.expressions,3.4.200.v20100505,"org.eclipse.core.expressions",1457213203220
started,bundle,org.eclipse.core.filebuffers,3.5.100.v20100520-0800,"org.eclipse.core.filebuffers",1457213203221
started,bundle,org.eclipse.core.filesystem,1.3.0.v20100526-0737,"org.eclipse.core.filesystem",1457213203223
started,bundle,org.eclipse.core.jobs,3.5.0.v20100515,"org.eclipse.core.jobs",1457213203225
started,bundle,org.eclipse.core.net,1.2.100.I20100511-0800,"org.eclipse.core.net",1457213203226
started,bundle,org.eclipse.core.resources,3.6.0.v20100526-0737,"org.eclipse.core.resources",1457213203267
started,bundle,org.eclipse.core.runtime,3.6.0.v20100505,"org.eclipse.core.runtime",1457213203269
started,bundle,org.eclipse.core.runtime.compatibility,3.2.100.v20100505,"org.eclipse.core.runtime.compatibility",1457213203279
started,bundle,org.eclipse.core.runtime.compatibility.auth,3.2.200.v20100517,"org.eclipse.core.runtime.compatibility.auth",1457213203281
started,bundle,org.eclipse.core.variables,3.2.400.v20100505,"org.eclipse.core.variables",1457213203282
started,bundle,org.eclipse.debug.core,3.6.0.v20100519,"org.eclipse.debug.core",1457213203284
started,bundle,org.eclipse.epp.usagedata.gathering,1.3.0.R201005261100,"org.eclipse.epp.usagedata.gathering",1457213203285
started,bundle,org.eclipse.epp.usagedata.recording,1.3.0.R201005261100,"org.eclipse.epp.usagedata.recording",1457213203288
started,bundle,org.eclipse.equinox.app,1.3.0.v20100512,"org.eclipse.equinox.app",1457213203290
started,bundle,org.eclipse.equinox.common,3.6.0.v20100503,"org.eclipse.equinox.common",1457213203291
started,bundle,org.eclipse.equinox.ds,1.2.0.v20100507,"org.eclipse.equinox.ds",1457213203293
started,bundle,org.eclipse.equinox.event,1.2.0.v20100503,"org.eclipse.equinox.event",1457213203295
started,bundle,org.eclipse.equinox.frameworkadmin,2.0.0.v20100503,"org.eclipse.equinox.frameworkadmin",1457213203296
started,bundle,org.eclipse.equinox.p2.core,2.0.0.v20100510,"org.eclipse.equinox.p2.core",1457213203297
started,bundle,org.eclipse.equinox.p2.directorywatcher,1.0.200.v20100601,"org.eclipse.equinox.p2.directorywatcher",1457213203299
started,bundle,org.eclipse.equinox.p2.engine,2.0.0.v20100606,"org.eclipse.equinox.p2.engine",1457213203300
started,bundle,org.eclipse.equinox.p2.metadata,2.0.0.v20100601,"org.eclipse.equinox.p2.metadata",1457213203302
started,bundle,org.eclipse.equinox.p2.metadata.repository,1.1.0.v20100513,"org.eclipse.equinox.p2.metadata.repository",1457213203304
started,bundle,org.eclipse.equinox.p2.operations,2.0.0.v20100510,"org.eclipse.equinox.p2.operations",1457213203305
started,bundle,org.eclipse.equinox.p2.reconciler.dropins,1.1.0.v20100525,"org.eclipse.equinox.p2.reconciler.dropins",1457213203345
started,bundle,org.eclipse.equinox.p2.repository,2.0.0.v20100519,"org.eclipse.equinox.p2.repository",1457213203347
started,bundle,org.eclipse.equinox.p2.ui.sdk.scheduler,1.0.0.v20100507-1815,"org.eclipse.equinox.p2.ui.sdk.scheduler",1457213203349
started,bundle,org.eclipse.equinox.p2.updatechecker,1.1.100.v20100503a,"org.eclipse.equinox.p2.updatechecker",1457213203351
started,bundle,org.eclipse.equinox.preferences,3.3.0.v20100503,"org.eclipse.equinox.preferences",1457213203352
started,bundle,org.eclipse.equinox.registry,3.5.0.v20100503,"org.eclipse.equinox.registry",1457213203378
started,bundle,org.eclipse.equinox.security,1.0.200.v20100503,"org.eclipse.equinox.security",1457213203380
started,bundle,org.eclipse.equinox.simpleconfigurator.manipulator,2.0.0.v20100503,"org.eclipse.equinox.simpleconfigurator.manipulator",1457213203381
started,bundle,org.eclipse.equinox.util,1.0.200.v20100503,"org.eclipse.equinox.util",1457213203383
started,bundle,org.eclipse.help,3.5.0.v20100524,"org.eclipse.help",1457213203531
started,bundle,org.eclipse.jdt.apt.core,3.3.400.v20100513-0845,"org.eclipse.jdt.apt.core",1457213203533
started,bundle,org.eclipse.jdt.core,3.6.0.v_A58,"org.eclipse.jdt.core",1457213203535
started,bundle,org.eclipse.jdt.core.manipulation,1.3.0.v20100520-0800,"org.eclipse.jdt.core.manipulation",1457213203536
started,bundle,org.eclipse.jdt.junit,3.6.0.v20100526-0800,"org.eclipse.jdt.junit",1457213203538
started,bundle,org.eclipse.jdt.junit.core,3.6.0.v20100526-0800,"org.eclipse.jdt.junit.core",1457213203540
started,bundle,org.eclipse.jdt.launching,3.5.100.v20100526,"org.eclipse.jdt.launching",1457213203542
started,bundle,org.eclipse.jdt.ui,3.6.0.v20100602-1600,"org.eclipse.jdt.ui",1457213203542
started,bundle,org.eclipse.jface,3.6.0.I20100601-0800,"org.eclipse.jface",1457213203588
started,bundle,org.eclipse.jsch.core,1.1.200.I20100505-1245,"org.eclipse.jsch.core",1457213203591
started,bundle,org.eclipse.jst.ws.jaxws.utils,1.0.0.v201004171919,"org.eclipse.jst.ws.jaxws.utils",1457213203592
started,bundle,org.eclipse.ltk.core.refactoring,3.5.100.v20100526-0800,"org.eclipse.ltk.core.refactoring",1457213203594
started,bundle,org.eclipse.ltk.ui.refactoring,3.5.0.v20100526-0800,"org.eclipse.ltk.ui.refactoring",1457213203596
started,bundle,org.eclipse.pde.launching,3.6.0.v20100601,"org.eclipse.pde.launching",1457213203598
started,bundle,org.eclipse.pde.ui,3.6.0.v20100601,"org.eclipse.pde.ui",1457213203666
started,bundle,org.eclipse.team.core,3.5.100.I20100527-0800,"org.eclipse.team.core",1457213203667
started,bundle,org.eclipse.team.cvs.core,3.3.300.I20100526-0800,"org.eclipse.team.cvs.core",1457213203670
started,bundle,org.eclipse.team.ui,3.5.100.I20100527-0800,"org.eclipse.team.ui",1457213203673
started,bundle,org.eclipse.ui,3.6.0.I20100603-1100,"org.eclipse.ui",1457213203761
started,bundle,org.eclipse.ui.console,3.5.0.v20100526,"org.eclipse.ui.console",1457213203763
started,bundle,org.eclipse.ui.editors,3.6.0.v20100520-0800,"org.eclipse.ui.editors",1457213203763
started,bundle,org.eclipse.ui.ide,3.6.0.I20100601-0800,"org.eclipse.ui.ide",1457213203891
started,bundle,org.eclipse.ui.net,1.2.100.I20100505-1245,"org.eclipse.ui.net",1457213203892
started,bundle,org.eclipse.ui.views,3.5.0.I20100527-0800,"org.eclipse.ui.views",1457213203893
started,bundle,org.eclipse.ui.views.log,1.0.100.v20100423,"org.eclipse.ui.views.log",1457213203895
started,bundle,org.eclipse.ui.workbench,3.6.0.I20100603-1100,"org.eclipse.ui.workbench",1457213203973
started,bundle,org.eclipse.ui.workbench.texteditor,3.6.0.v20100520-0800,"org.eclipse.ui.workbench.texteditor",1457213203974
started,bundle,org.eclipse.wst.common.project.facet.core,1.4.100.v201005190114,"org.eclipse.wst.common.project.facet.core",1457213203977
started,bundle,org.eclipse.wst.jsdt.debug.ui,1.0.0.v201005250108,"org.eclipse.wst.jsdt.debug.ui",1457213203980
started,bundle,org.eclipse.wst.web,1.1.400.v201005270700,"org.eclipse.wst.web",1457213203981
os,sysinfo,,,"win32",1457213203990
arch,sysinfo,,,"x86_64",1457213203990
ws,sysinfo,,,"win32",1457213203990
locale,sysinfo,,,"en_US",1457213203990
processors,sysinfo,,,"8",1457213203990
java.runtime.name,sysinfo,,,"Java(TM) SE Runtime Environment",1457213203990
java.runtime.version,sysinfo,,,"1.8.0_66-b18",1457213203990
java.specification.name,sysinfo,,,"Java Platform API Specification",1457213203990
java.specification.vendor,sysinfo,,,"Oracle Corporation",1457213203990
java.specification.version,sysinfo,,,"1.8",1457213203990
java.vendor,sysinfo,,,"Oracle Corporation",1457213203990
java.version,sysinfo,,,"1.8.0_66",1457213203990
java.vm.info,sysinfo,,,"mixed mode",1457213203990
java.vm.name,sysinfo,,,"Java HotSpot(TM) 64-Bit Server VM",1457213203990
java.vm.specification.name,sysinfo,,,"Java Virtual Machine Specification",1457213203990
java.vm.specification.vendor,sysinfo,,,"Oracle Corporation",1457213203990
java.vm.specification.version,sysinfo,,,"1.8",1457213203990
java.vm.vendor,sysinfo,,,"Oracle Corporation",1457213203990
java.vm.version,sysinfo,,,"25.66-b18",1457213203990
started,bundle,org.eclipse.mylyn.commons.net,3.4.0.v20100608-0100-e3x,"org.eclipse.mylyn.commons.net",1457213204134
started,bundle,org.eclipse.team.cvs.ui,3.3.300.I20100526-0800,"org.eclipse.team.cvs.ui",1457213205491
started,bundle,org.eclipse.emf.ecore,2.6.0.v20100614-1136,"org.eclipse.emf.ecore",1457213205759
started,bundle,org.eclipse.emf.ecore.xmi,2.5.0.v20100521-1846,"org.eclipse.emf.ecore.xmi",1457213207626
started,bundle,org.eclipse.jst.common.project.facet.core,1.4.100.v201004202202,"org.eclipse.jst.common.project.facet.core",1457213208953
started,bundle,org.eclipse.jst.ws.jaxrs.core,1.0.0.v201005191955,"org.eclipse.jst.ws.jaxrs.core",1457213209058
started,bundle,org.eclipse.mylyn.commons.ui,3.4.0.v20100608-0100-e3x,"org.eclipse.mylyn.commons.ui",1457213209350
started,bundle,org.eclipse.mylyn.bugzilla.core,3.4.0.v20100608-0100-e3x,"org.eclipse.mylyn.bugzilla.core",1457213210067
started,bundle,org.eclipse.mylyn.bugzilla.ui,3.4.0.v20100608-0100-e3x,"org.eclipse.mylyn.bugzilla.ui",1457213210721
started,bundle,org.eclipse.ui.forms,3.5.0.v20100427,"org.eclipse.ui.forms",1457213211983
started,bundle,org.eclipse.mylyn.context.core,3.4.0.v20100608-0100-e3x,"org.eclipse.mylyn.context.core",1457213212284
started,bundle,org.eclipse.mylyn.context.ui,3.4.0.v20100608-0100-e3x,"org.eclipse.mylyn.context.ui",1457213212364
started,bundle,org.eclipse.mylyn.tasks.ui,3.4.0.v20100608-0100-e3x,"org.eclipse.mylyn.tasks.ui",1457213214464
started,bundle,org.eclipse.mylyn.team.ui,3.4.0.v20100608-0100-e3x,"org.eclipse.mylyn.team.ui",1457213214575
started,bundle,org.eclipse.update.scheduler,3.2.300.v20100512,"org.eclipse.update.scheduler",1457213214683
started,bundle,org.eclipse.update.configurator,3.3.100.v20100512,"org.eclipse.update.configurator",1457213215469
started,bundle,org.eclipse.update.core,3.2.400.v20100512,"org.eclipse.update.core",1457213215635
deactivated,workbench,org.eclipse.ui.workbench,3.6.0.I20100603-1100,"",1457213328280
activated,workbench,org.eclipse.ui.workbench,3.6.0.I20100603-1100,"",1457214056941
activated,view,org.eclipse.jdt.ui,3.6.0.v20100602-1600,"org.eclipse.jdt.ui.PackageExplorer",1457214058524
deactivated,workbench,org.eclipse.ui.workbench,3.6.0.I20100603-1100,"",1457214072214
started,bundle,org.eclipse.jdt.apt.pluggable.core,1.0.300.v20100513-0845,"org.eclipse.jdt.apt.pluggable.core",1457214090717
activated,workbench,org.eclipse.ui.workbench,3.6.0.I20100603-1100,"",1457214091642
started,bundle,org.eclipse.jpt.core,2.3.0.v201006020000,"org.eclipse.jpt.core",1457214092351
activated,editor,org.eclipse.jdt.ui,3.6.0.v20100602-1600,"org.eclipse.jdt.ui.CompilationUnitEditor",1457214109371
activated,view,org.eclipse.jdt.ui,3.6.0.v20100602-1600,"org.eclipse.jdt.ui.PackageExplorer",1457214113019
closed,editor,org.eclipse.jdt.ui,3.6.0.v20100602-1600,"org.eclipse.jdt.ui.CompilationUnitEditor",1457214113042
deactivated,workbench,org.eclipse.ui.workbench,3.6.0.I20100603-1100,"",1457214114952
activated,workbench,org.eclipse.ui.workbench,3.6.0.I20100603-1100,"",1457214117454
started,bundle,org.eclipse.compare,3.5.100.I20100526-0800,"org.eclipse.compare",1457214121086
deactivated,workbench,org.eclipse.ui.workbench,3.6.0.I20100603-1100,"",1457214122223
activated,workbench,org.eclipse.ui.workbench,3.6.0.I20100603-1100,"",1457214146732
executed,command,org.eclipse.ui,3.6.0.I20100603-1100,"org.eclipse.ui.file.import",1457214146747
executed,command,org.eclipse.ui,3.6.0.I20100603-1100,"org.eclipse.ui.file.import",1457214146747
deactivated,workbench,org.eclipse.ui.workbench,3.6.0.I20100603-1100,"",1457214151168
activated,workbench,org.eclipse.ui.workbench,3.6.0.I20100603-1100,"",1457214156893
deactivated,workbench,org.eclipse.ui.workbench,3.6.0.I20100603-1100,"",1457214157206
activated,workbench,org.eclipse.ui.workbench,3.6.0.I20100603-1100,"",1457214157921
opened,editor,org.eclipse.jdt.ui,3.6.0.v20100602-1600,"org.eclipse.jdt.ui.CompilationUnitEditor",1457214161762
activated,editor,org.eclipse.jdt.ui,3.6.0.v20100602-1600,"org.eclipse.jdt.ui.CompilationUnitEditor",1457214161888
activated,view,org.eclipse.jdt.ui,3.6.0.v20100602-1600,"org.eclipse.jdt.ui.PackageExplorer",1457214162248
opened,editor,org.eclipse.jdt.ui,3.6.0.v20100602-1600,"org.eclipse.jdt.ui.CompilationUnitEditor",1457214162482
activated,editor,org.eclipse.jdt.ui,3.6.0.v20100602-1600,"org.eclipse.jdt.ui.CompilationUnitEditor",1457214162573
error,log,,,"Problems occurred when invoking code from plug-in: ""org.eclipse.ui.workbench"".",1457214163063
error,log,,,"Exception in Decorator. The 'Java Method Override Indicator' decorator will be disabled.",1457214163065
error,log,,,"java.lang.NullPointerException",1457214163066
activated,view,org.eclipse.jdt.ui,3.6.0.v20100602-1600,"org.eclipse.jdt.ui.PackageExplorer",1457214163342
opened,editor,org.eclipse.jdt.ui,3.6.0.v20100602-1600,"org.eclipse.jdt.ui.CompilationUnitEditor",1457214163523
activated,editor,org.eclipse.jdt.ui,3.6.0.v20100602-1600,"org.eclipse.jdt.ui.CompilationUnitEditor",1457214163604
activated,view,org.eclipse.jdt.ui,3.6.0.v20100602-1600,"org.eclipse.jdt.ui.PackageExplorer",1457214179207
activated,editor,org.eclipse.jdt.ui,3.6.0.v20100602-1600,"org.eclipse.jdt.ui.CompilationUnitEditor",1457214179467
activated,view,org.eclipse.jdt.ui,3.6.0.v20100602-1600,"org.eclipse.jdt.ui.PackageExplorer",1457214181370
activated,editor,org.eclipse.jdt.ui,3.6.0.v20100602-1600,"org.eclipse.jdt.ui.CompilationUnitEditor",1457214181552
error,log,,,"Unexpected runtime error while computing a text hover",1457214187695
deactivated,workbench,org.eclipse.ui.workbench,3.6.0.I20100603-1100,"",1457214192179
activated,workbench,org.eclipse.ui.workbench,3.6.0.I20100603-1100,"",1457214552721
deactivated,workbench,org.eclipse.ui.workbench,3.6.0.I20100603-1100,"",1457214552913
activated,workbench,org.eclipse.ui.workbench,3.6.0.I20100603-1100,"",1457214944559
deactivated,workbench,org.eclipse.ui.workbench,3.6.0.I20100603-1100,"",1457214946274
activated,workbench,org.eclipse.ui.workbench,3.6.0.I20100603-1100,"",1457215838998
deactivated,workbench,org.eclipse.ui.workbench,3.6.0.I20100603-1100,"",1457215839699
activated,workbench,org.eclipse.ui.workbench,3.6.0.I20100603-1100,"",1457216883754
deactivated,workbench,org.eclipse.ui.workbench,3.6.0.I20100603-1100,"",1457216900855
activated,workbench,org.eclipse.ui.workbench,3.6.0.I20100603-1100,"",1457216924320
activated,view,org.eclipse.jdt.ui,3.6.0.v20100602-1600,"org.eclipse.jdt.ui.PackageExplorer",1457216925825
deactivated,workbench,org.eclipse.ui.workbench,3.6.0.I20100603-1100,"",1457216930921
activated,workbench,org.eclipse.ui.workbench,3.6.0.I20100603-1100,"",1457216975587
executed,command,org.eclipse.ui,3.6.0.I20100603-1100,"org.eclipse.ui.file.import",1457216975599
executed,command,org.eclipse.ui,3.6.0.I20100603-1100,"org.eclipse.ui.file.import",1457216975599
opened,editor,org.eclipse.jdt.ui,3.6.0.v20100602-1600,"org.eclipse.jdt.ui.CompilationUnitEditor",1457216978279
activated,editor,org.eclipse.jdt.ui,3.6.0.v20100602-1600,"org.eclipse.jdt.ui.CompilationUnitEditor",1457216978349
closed,editor,org.eclipse.jdt.ui,3.6.0.v20100602-1600,"org.eclipse.jdt.ui.CompilationUnitEditor",1457216979418
activated,editor,org.eclipse.jdt.ui,3.6.0.v20100602-1600,"org.eclipse.jdt.ui.CompilationUnitEditor",1457216979659
opened,view,org.eclipse.ui.ide,3.6.0.I20100601-0800,"org.eclipse.ui.views.ProblemView",1457216981301
deactivated,workbench,org.eclipse.ui.workbench,3.6.0.I20100603-1100,"",1457216982274
activated,workbench,org.eclipse.ui.workbench,3.6.0.I20100603-1100,"",1457216984200
activated,editor,org.eclipse.jdt.ui,3.6.0.v20100602-1600,"org.eclipse.jdt.ui.CompilationUnitEditor",1457216984255
closed,editor,org.eclipse.jdt.ui,3.6.0.v20100602-1600,"org.eclipse.jdt.ui.CompilationUnitEditor",1457216984255
closed,editor,org.eclipse.jdt.ui,3.6.0.v20100602-1600,"org.eclipse.jdt.ui.CompilationUnitEditor",1457216985187
activated,view,org.eclipse.jdt.ui,3.6.0.v20100602-1600,"org.eclipse.jdt.ui.PackageExplorer",1457216986355
opened,editor,org.eclipse.jdt.ui,3.6.0.v20100602-1600,"org.eclipse.jdt.ui.CompilationUnitEditor",1457216986862
activated,editor,org.eclipse.jdt.ui,3.6.0.v20100602-1600,"org.eclipse.jdt.ui.CompilationUnitEditor",1457216986918
activated,view,org.eclipse.jdt.ui,3.6.0.v20100602-1600,"org.eclipse.jdt.ui.PackageExplorer",1457216987314
opened,editor,org.eclipse.jdt.ui,3.6.0.v20100602-1600,"org.eclipse.jdt.ui.CompilationUnitEditor",1457216987479
activated,editor,org.eclipse.jdt.ui,3.6.0.v20100602-1600,"org.eclipse.jdt.ui.CompilationUnitEditor",1457216987540
executed,command,org.eclipse.ui.workbench.texteditor,3.6.0.v20100520-0800,"org.eclipse.ui.edit.text.toggleOverwrite",1457216990790
executed,command,org.eclipse.ui.workbench.texteditor,3.6.0.v20100520-0800,"org.eclipse.ui.edit.text.toggleOverwrite",1457216992038
executed,command,org.eclipse.ui,3.6.0.I20100603-1100,"org.eclipse.ui.file.save",1457217006407
activated,editor,org.eclipse.jdt.ui,3.6.0.v20100602-1600,"org.eclipse.jdt.ui.CompilationUnitEditor",1457217052595
activated,editor,org.eclipse.jdt.ui,3.6.0.v20100602-1600,"org.eclipse.jdt.ui.CompilationUnitEditor",1457217059186
executed,command,org.eclipse.ui,3.6.0.I20100603-1100,"org.eclipse.ui.file.save",1457217072327
started,bundle,org.eclipse.mylyn.java.tasks,3.4.0.v20100608-0100-e3x,"org.eclipse.mylyn.java.tasks",1457217072549
activated,editor,org.eclipse.jdt.ui,3.6.0.v20100602-1600,"org.eclipse.jdt.ui.CompilationUnitEditor",1457217075057
deactivated,workbench,org.eclipse.ui.workbench,3.6.0.I20100603-1100,"",1457217081695
activated,workbench,org.eclipse.ui.workbench,3.6.0.I20100603-1100,"",1457217092629
deactivated,workbench,org.eclipse.ui.workbench,3.6.0.I20100603-1100,"",1457217096251
activated,workbench,org.eclipse.ui.workbench,3.6.0.I20100603-1100,"",1457217128605
deactivated,workbench,org.eclipse.ui.workbench,3.6.0.I20100603-1100,"",1457217150901
activated,workbench,org.eclipse.ui.workbench,3.6.0.I20100603-1100,"",1457217158559
activated,editor,org.eclipse.jdt.ui,3.6.0.v20100602-1600,"org.eclipse.jdt.ui.CompilationUnitEditor",1457217167514
executed,command,org.eclipse.ui,3.6.0.I20100603-1100,"org.eclipse.ui.file.save",1457217168626
activated,editor,org.eclipse.jdt.ui,3.6.0.v20100602-1600,"org.eclipse.jdt.ui.CompilationUnitEditor",1457217178535
activated,editor,org.eclipse.jdt.ui,3.6.0.v20100602-1600,"org.eclipse.jdt.ui.CompilationUnitEditor",1457217179958
deactivated,workbench,org.eclipse.ui.workbench,3.6.0.I20100603-1100,"",1457217195858
activated,workbench,org.eclipse.ui.workbench,3.6.0.I20100603-1100,"",1457217310156
deactivated,workbench,org.eclipse.ui.workbench,3.6.0.I20100603-1100,"",1457217312519
activated,workbench,org.eclipse.ui.workbench,3.6.0.I20100603-1100,"",1457217316414
deactivated,workbench,org.eclipse.ui.workbench,3.6.0.I20100603-1100,"",1457217317305
activated,workbench,org.eclipse.ui.workbench,3.6.0.I20100603-1100,"",1457217320991
deactivated,workbench,org.eclipse.ui.workbench,3.6.0.I20100603-1100,"",1457217360005
activated,workbench,org.eclipse.ui.workbench,3.6.0.I20100603-1100,"",1457217361521
deactivated,workbench,org.eclipse.ui.workbench,3.6.0.I20100603-1100,"",1457217362232
activated,workbench,org.eclipse.ui.workbench,3.6.0.I20100603-1100,"",1457217363708
deactivated,workbench,org.eclipse.ui.workbench,3.6.0.I20100603-1100,"",1457217380484
activated,workbench,org.eclipse.ui.workbench,3.6.0.I20100603-1100,"",1457217381312
deactivated,workbench,org.eclipse.ui.workbench,3.6.0.I20100603-1100,"",1457217432648
activated,workbench,org.eclipse.ui.workbench,3.6.0.I20100603-1100,"",1457217460545
deactivated,workbench,org.eclipse.ui.workbench,3.6.0.I20100603-1100,"",1457217469890
started,bundle,org.eclipse.ant.ui,3.5.0.v20100427,"org.eclipse.ant.ui",1457217471591
started,bundle,org.eclipse.ant.launching,1.0.0.v20100427,"org.eclipse.ant.launching",1457217471636
started,bundle,org.eclipse.jst.j2ee.ui,1.1.400.v201006030400,"org.eclipse.jst.j2ee.ui",1457217478057
started,bundle,org.eclipse.wst.common.frameworks,1.2.0.v201003040800,"org.eclipse.wst.common.frameworks",1457217478072
started,bundle,org.eclipse.wst.common.emf,1.2.0.v201005200700,"org.eclipse.wst.common.emf",1457217478138
started,bundle,org.eclipse.jem.util,2.1.0.v201005130500,"org.eclipse.jem.util",1457217478149
started,bundle,org.eclipse.wst.common.emfworkbench.integration,1.2.0.v201004110600,"org.eclipse.wst.common.emfworkbench.integration",1457217478152
started,bundle,org.eclipse.wst.common.core,1.2.0.v200908252030,"org.eclipse.wst.common.core",1457217478197
started,bundle,org.eclipse.wst.common.modulecore,1.2.0.v201005200200,"org.eclipse.wst.common.modulecore",1457217478200
started,bundle,org.eclipse.jst.j2ee.core,1.2.0.v201005200200,"org.eclipse.jst.j2ee.core",1457217478244
started,bundle,org.eclipse.jem,2.0.400.v201005110200,"org.eclipse.jem",1457217478273
started,bundle,org.eclipse.wst.common.frameworks.ui,1.2.0.v201004080500,"org.eclipse.wst.common.frameworks.ui",1457217478335
started,bundle,org.eclipse.wst.xml.core,1.1.500.v201005271618,"org.eclipse.wst.xml.core",1457217478354
started,bundle,org.eclipse.wst.validation,1.2.200.v201005271900,"org.eclipse.wst.validation",1457217478413
started,bundle,org.eclipse.jst.j2ee,1.1.400.v201005271900,"org.eclipse.jst.j2ee",1457217478479
started,bundle,org.eclipse.jpt.ui,2.3.0.v201005190001,"org.eclipse.jpt.ui",1457217481199
started,bundle,org.eclipse.wst.jsdt.core,1.1.0.v201006030738,"org.eclipse.wst.jsdt.core",1457217484148
started,bundle,org.eclipse.wst.jsdt.manipulation,1.0.200.v201004150600,"org.eclipse.wst.jsdt.manipulation",1457217484292
started,bundle,org.eclipse.wst.jsdt.ui,1.1.0.v201005200157,"org.eclipse.wst.jsdt.ui",1457217484323
activated,workbench,org.eclipse.ui.workbench,3.6.0.I20100603-1100,"",1457217550072
activated,view,org.eclipse.jdt.ui,3.6.0.v20100602-1600,"org.eclipse.jdt.ui.PackageExplorer",1457217551772
deactivated,workbench,org.eclipse.ui.workbench,3.6.0.I20100603-1100,"",1457217552527
activated,workbench,org.eclipse.ui.workbench,3.6.0.I20100603-1100,"",1457217553964
deactivated,workbench,org.eclipse.ui.workbench,3.6.0.I20100603-1100,"",1457217558075
activated,workbench,org.eclipse.ui.workbench,3.6.0.I20100603-1100,"",1457217568961
started,bundle,org.eclipse.wst.ws.service.policy.ui,1.0.202.v201004211732,"org.eclipse.wst.ws.service.policy.ui",1457217583239
started,bundle,org.eclipse.wst.ws.service.policy,1.0.203.v201004211732,"org.eclipse.wst.ws.service.policy",1457217583259
started,bundle,org.eclipse.wst.command.env,1.0.409.v201004211805,"org.eclipse.wst.command.env",1457217583353
started,bundle,org.eclipse.wst.ws,1.1.203.v201004211805,"org.eclipse.wst.ws",1457217583354
deactivated,workbench,org.eclipse.ui.workbench,3.6.0.I20100603-1100,"",1457217583580
started,bundle,org.eclipse.ui.externaltools,3.2.0.v20100427,"org.eclipse.ui.externaltools",1457217585935
started,bundle,org.eclipse.debug.ui,3.6.0.v20100601-1530,"org.eclipse.debug.ui",1457217586694
started,bundle,org.eclipse.core.externaltools,1.0.0.v20100505,"org.eclipse.core.externaltools",1457217586729
started,bundle,org.eclipse.jdt.debug,3.6.0.v20100526,"org.eclipse.jdt.debug",1457217587185
activated,workbench,org.eclipse.ui.workbench,3.6.0.I20100603-1100,"",1457217590855
executed,command,org.eclipse.ui.ide,3.6.0.I20100601-0800,"org.eclipse.ui.project.properties",1457217590992
started,bundle,org.eclipse.jdt.debug.ui,3.5.0.v20100602-0830,"org.eclipse.jdt.debug.ui",1457217594293
activated,editor,org.eclipse.jdt.ui,3.6.0.v20100602-1600,"org.eclipse.jdt.ui.CompilationUnitEditor",1457217594395
activated,editor,org.eclipse.jdt.ui,3.6.0.v20100602-1600,"org.eclipse.jdt.ui.CompilationUnitEditor",1457217614294
activated,editor,org.eclipse.jdt.ui,3.6.0.v20100602-1600,"org.eclipse.jdt.ui.CompilationUnitEditor",1457217616212
activated,view,org.eclipse.jdt.ui,3.6.0.v20100602-1600,"org.eclipse.jdt.ui.PackageExplorer",1457217618324
deactivated,workbench,org.eclipse.ui.workbench,3.6.0.I20100603-1100,"",1457217624128
activated,workbench,org.eclipse.ui.workbench,3.6.0.I20100603-1100,"",1457217636914
