what,kind,bundleId,bundleVersion,description,time
executed,command,org.eclipse.ui,3.6.0.I20100603-1100,"org.eclipse.ui.file.save",1458792427257
deactivated,workbench,org.eclipse.ui.workbench,3.6.0.I20100603-1100,"",1458792431009
activated,workbench,org.eclipse.ui.workbench,3.6.0.I20100603-1100,"",1458792431144
executed,command,org.eclipse.ui,3.6.0.I20100603-1100,"org.eclipse.ui.file.save",1458792439696
activated,editor,org.eclipse.jdt.ui,3.6.0.v20100602-1600,"org.eclipse.jdt.ui.CompilationUnitEditor",1458792441939
activated,editor,org.eclipse.jdt.ui,3.6.0.v20100602-1600,"org.eclipse.jdt.ui.CompilationUnitEditor",1458792452148
activated,editor,org.eclipse.jdt.ui,3.6.0.v20100602-1600,"org.eclipse.jdt.ui.CompilationUnitEditor",1458792457536
activated,editor,org.eclipse.jdt.ui,3.6.0.v20100602-1600,"org.eclipse.jdt.ui.CompilationUnitEditor",1458792463314
activated,editor,org.eclipse.jdt.ui,3.6.0.v20100602-1600,"org.eclipse.jdt.ui.CompilationUnitEditor",1458792473593
activated,editor,org.eclipse.jdt.ui,3.6.0.v20100602-1600,"org.eclipse.jdt.ui.CompilationUnitEditor",1458792517384
activated,editor,org.eclipse.jdt.ui,3.6.0.v20100602-1600,"org.eclipse.jdt.ui.CompilationUnitEditor",1458792536640
activated,editor,org.eclipse.jdt.ui,3.6.0.v20100602-1600,"org.eclipse.jdt.ui.CompilationUnitEditor",1458792554024
activated,editor,org.eclipse.jdt.ui,3.6.0.v20100602-1600,"org.eclipse.jdt.ui.CompilationUnitEditor",1458792568620
executed,command,org.eclipse.ui,3.6.0.I20100603-1100,"org.eclipse.ui.edit.paste",1458792579446
activated,editor,org.eclipse.jdt.ui,3.6.0.v20100602-1600,"org.eclipse.jdt.ui.CompilationUnitEditor",1458792599866
executed,command,org.eclipse.ui,3.6.0.I20100603-1100,"org.eclipse.ui.edit.undo",1458792610979
activated,editor,org.eclipse.jdt.ui,3.6.0.v20100602-1600,"org.eclipse.jdt.ui.CompilationUnitEditor",1458792613593
deactivated,workbench,org.eclipse.ui.workbench,3.6.0.I20100603-1100,"",1458792619347
activated,workbench,org.eclipse.ui.workbench,3.6.0.I20100603-1100,"",1458792619486
activated,editor,org.eclipse.jdt.ui,3.6.0.v20100602-1600,"org.eclipse.jdt.ui.CompilationUnitEditor",1458792619526
deactivated,workbench,org.eclipse.ui.workbench,3.6.0.I20100603-1100,"",1458792646026
activated,workbench,org.eclipse.ui.workbench,3.6.0.I20100603-1100,"",1458792646164
deactivated,workbench,org.eclipse.ui.workbench,3.6.0.I20100603-1100,"",1458792649202
activated,workbench,org.eclipse.ui.workbench,3.6.0.I20100603-1100,"",1458792649341
executed,command,org.eclipse.ui,3.6.0.I20100603-1100,"org.eclipse.ui.file.save",1458792663516
activated,editor,org.eclipse.jdt.ui,3.6.0.v20100602-1600,"org.eclipse.jdt.ui.CompilationUnitEditor",1458792665349
executed,command,org.eclipse.ui,3.6.0.I20100603-1100,"org.eclipse.ui.file.save",1458792667715
activated,editor,org.eclipse.jdt.ui,3.6.0.v20100602-1600,"org.eclipse.jdt.ui.CompilationUnitEditor",1458792680177
activated,editor,org.eclipse.jdt.ui,3.6.0.v20100602-1600,"org.eclipse.jdt.ui.CompilationUnitEditor",1458792687557
activated,editor,org.eclipse.jdt.ui,3.6.0.v20100602-1600,"org.eclipse.jdt.ui.CompilationUnitEditor",1458792690264
activated,editor,org.eclipse.jdt.ui,3.6.0.v20100602-1600,"org.eclipse.jdt.ui.CompilationUnitEditor",1458792696192
activated,editor,org.eclipse.jdt.ui,3.6.0.v20100602-1600,"org.eclipse.jdt.ui.CompilationUnitEditor",1458792706616
activated,editor,org.eclipse.jdt.ui,3.6.0.v20100602-1600,"org.eclipse.jdt.ui.CompilationUnitEditor",1458792710039
executed,command,org.eclipse.ui,3.6.0.I20100603-1100,"org.eclipse.ui.edit.cut",1458792723365
executed,command,org.eclipse.ui,3.6.0.I20100603-1100,"org.eclipse.ui.edit.paste",1458792732686
deactivated,workbench,org.eclipse.ui.workbench,3.6.0.I20100603-1100,"",1458792738848
activated,workbench,org.eclipse.ui.workbench,3.6.0.I20100603-1100,"",1458792738987
executed,command,org.eclipse.ui,3.6.0.I20100603-1100,"org.eclipse.ui.edit.undo",1458792739779
executed,command,org.eclipse.ui,3.6.0.I20100603-1100,"org.eclipse.ui.edit.cut",1458792743515
executed,command,org.eclipse.ui,3.6.0.I20100603-1100,"org.eclipse.ui.edit.paste",1458792752946
executed,command,org.eclipse.ui,3.6.0.I20100603-1100,"org.eclipse.ui.edit.undo",1458792754334
executed,command,org.eclipse.ui,3.6.0.I20100603-1100,"org.eclipse.ui.edit.paste",1458792766000
executed,command,org.eclipse.ui,3.6.0.I20100603-1100,"org.eclipse.ui.file.save",1458792768468
executed,command,org.eclipse.ui,3.6.0.I20100603-1100,"org.eclipse.ui.edit.undo",1458792777235
executed,command,org.eclipse.ui,3.6.0.I20100603-1100,"org.eclipse.ui.edit.undo",1458792777687
executed,command,org.eclipse.ui,3.6.0.I20100603-1100,"org.eclipse.ui.edit.paste",1458792793188
executed,command,org.eclipse.ui,3.6.0.I20100603-1100,"org.eclipse.ui.edit.paste",1458792798179
executed,command,org.eclipse.ui,3.6.0.I20100603-1100,"org.eclipse.ui.edit.undo",1458792805882
executed,command,org.eclipse.ui,3.6.0.I20100603-1100,"org.eclipse.ui.edit.undo",1458792810094
executed,command,org.eclipse.ui,3.6.0.I20100603-1100,"org.eclipse.ui.edit.undo",1458792810671
executed,command,org.eclipse.ui,3.6.0.I20100603-1100,"org.eclipse.ui.file.save",1458792833757
activated,editor,org.eclipse.jdt.ui,3.6.0.v20100602-1600,"org.eclipse.jdt.ui.CompilationUnitEditor",1458792835379
deactivated,workbench,org.eclipse.ui.workbench,3.6.0.I20100603-1100,"",1458792849829
activated,workbench,org.eclipse.ui.workbench,3.6.0.I20100603-1100,"",1458792849972
activated,editor,org.eclipse.jdt.ui,3.6.0.v20100602-1600,"org.eclipse.jdt.ui.CompilationUnitEditor",1458792850012
executed,command,org.eclipse.ui,3.6.0.I20100603-1100,"org.eclipse.ui.file.save",1458792879865
deactivated,workbench,org.eclipse.ui.workbench,3.6.0.I20100603-1100,"",1458792912553
activated,workbench,org.eclipse.ui.workbench,3.6.0.I20100603-1100,"",1458792912691
deactivated,workbench,org.eclipse.ui.workbench,3.6.0.I20100603-1100,"",1458792920197
activated,workbench,org.eclipse.ui.workbench,3.6.0.I20100603-1100,"",1458792920333
executed,command,org.eclipse.ui,3.6.0.I20100603-1100,"org.eclipse.ui.file.save",1458792960530
activated,editor,org.eclipse.jdt.ui,3.6.0.v20100602-1600,"org.eclipse.jdt.ui.CompilationUnitEditor",1458792962394
deactivated,workbench,org.eclipse.ui.workbench,3.6.0.I20100603-1100,"",1458792965954
activated,workbench,org.eclipse.ui.workbench,3.6.0.I20100603-1100,"",1458792966090
activated,editor,org.eclipse.jdt.ui,3.6.0.v20100602-1600,"org.eclipse.jdt.ui.CompilationUnitEditor",1458792966132
executed,command,org.eclipse.ui,3.6.0.I20100603-1100,"org.eclipse.ui.edit.cut",1458792982160
executed,command,org.eclipse.ui,3.6.0.I20100603-1100,"org.eclipse.ui.edit.paste",1458792989624
executed,command,org.eclipse.ui,3.6.0.I20100603-1100,"org.eclipse.ui.file.save",1458792993739
activated,editor,org.eclipse.jdt.ui,3.6.0.v20100602-1600,"org.eclipse.jdt.ui.CompilationUnitEditor",1458792995924
executed,command,org.eclipse.ui,3.6.0.I20100603-1100,"org.eclipse.ui.file.save",1458792996691
activated,editor,org.eclipse.jdt.ui,3.6.0.v20100602-1600,"org.eclipse.jdt.ui.CompilationUnitEditor",1458792999061
activated,editor,org.eclipse.jdt.ui,3.6.0.v20100602-1600,"org.eclipse.jdt.ui.CompilationUnitEditor",1458793001258
executed,command,org.eclipse.ui,3.6.0.I20100603-1100,"org.eclipse.ui.file.save",1458793020329
executed,command,org.eclipse.ui,3.6.0.I20100603-1100,"org.eclipse.ui.file.save",1458793039972
executed,command,org.eclipse.ui,3.6.0.I20100603-1100,"org.eclipse.ui.file.save",1458793049864
executed,command,org.eclipse.ui,3.6.0.I20100603-1100,"org.eclipse.ui.file.save",1458793081982
executed,command,org.eclipse.ui,3.6.0.I20100603-1100,"org.eclipse.ui.file.save",1458793088127
deactivated,workbench,org.eclipse.ui.workbench,3.6.0.I20100603-1100,"",1458793094555
activated,workbench,org.eclipse.ui.workbench,3.6.0.I20100603-1100,"",1458793094696
executed,command,org.eclipse.ui,3.6.0.I20100603-1100,"org.eclipse.ui.file.save",1458793098933
deactivated,workbench,org.eclipse.ui.workbench,3.6.0.I20100603-1100,"",1458793302888
activated,workbench,org.eclipse.ui.workbench,3.6.0.I20100603-1100,"",1458793303028
executed,command,org.eclipse.ui,3.6.0.I20100603-1100,"org.eclipse.ui.file.save",1458793306086
activated,editor,org.eclipse.jdt.ui,3.6.0.v20100602-1600,"org.eclipse.jdt.ui.CompilationUnitEditor",1458793308112
deactivated,workbench,org.eclipse.ui.workbench,3.6.0.I20100603-1100,"",1458793314977
activated,workbench,org.eclipse.ui.workbench,3.6.0.I20100603-1100,"",1458793315112
executed,command,org.eclipse.ui,3.6.0.I20100603-1100,"org.eclipse.ui.file.save",1458793317909
activated,editor,org.eclipse.jdt.ui,3.6.0.v20100602-1600,"org.eclipse.jdt.ui.CompilationUnitEditor",1458793339066
executed,command,org.eclipse.ui,3.6.0.I20100603-1100,"org.eclipse.ui.edit.paste",1458793345178
executed,command,org.eclipse.ui,3.6.0.I20100603-1100,"org.eclipse.ui.edit.undo",1458793346115
activated,editor,org.eclipse.jdt.ui,3.6.0.v20100602-1600,"org.eclipse.jdt.ui.CompilationUnitEditor",1458793348245
activated,editor,org.eclipse.jdt.ui,3.6.0.v20100602-1600,"org.eclipse.jdt.ui.CompilationUnitEditor",1458793349837
activated,editor,org.eclipse.jdt.ui,3.6.0.v20100602-1600,"org.eclipse.jdt.ui.CompilationUnitEditor",1458793353707
activated,editor,org.eclipse.jdt.ui,3.6.0.v20100602-1600,"org.eclipse.jdt.ui.CompilationUnitEditor",1458793360648
activated,editor,org.eclipse.jdt.ui,3.6.0.v20100602-1600,"org.eclipse.jdt.ui.CompilationUnitEditor",1458793417134
executed,command,org.eclipse.ui,3.6.0.I20100603-1100,"org.eclipse.ui.edit.paste",1458793440102
executed,command,org.eclipse.ui,3.6.0.I20100603-1100,"org.eclipse.ui.edit.undo",1458793440832
deactivated,workbench,org.eclipse.ui.workbench,3.6.0.I20100603-1100,"",1458793460405
activated,workbench,org.eclipse.ui.workbench,3.6.0.I20100603-1100,"",1458793460547
executed,command,org.eclipse.ui,3.6.0.I20100603-1100,"org.eclipse.ui.file.save",1458793471349
activated,editor,org.eclipse.jdt.ui,3.6.0.v20100602-1600,"org.eclipse.jdt.ui.CompilationUnitEditor",1458793477060
activated,editor,org.eclipse.jdt.ui,3.6.0.v20100602-1600,"org.eclipse.jdt.ui.CompilationUnitEditor",1458793486631
activated,editor,org.eclipse.jdt.ui,3.6.0.v20100602-1600,"org.eclipse.jdt.ui.CompilationUnitEditor",1458793498056
deactivated,workbench,org.eclipse.ui.workbench,3.6.0.I20100603-1100,"",1458793523090
activated,workbench,org.eclipse.ui.workbench,3.6.0.I20100603-1100,"",1458793523229
deactivated,workbench,org.eclipse.ui.workbench,3.6.0.I20100603-1100,"",1458793531893
activated,workbench,org.eclipse.ui.workbench,3.6.0.I20100603-1100,"",1458793532031
deactivated,workbench,org.eclipse.ui.workbench,3.6.0.I20100603-1100,"",1458793535654
activated,workbench,org.eclipse.ui.workbench,3.6.0.I20100603-1100,"",1458793535790
activated,editor,org.eclipse.jdt.ui,3.6.0.v20100602-1600,"org.eclipse.jdt.ui.CompilationUnitEditor",1458793535832
deactivated,workbench,org.eclipse.ui.workbench,3.6.0.I20100603-1100,"",1458793551714
activated,workbench,org.eclipse.ui.workbench,3.6.0.I20100603-1100,"",1458793551821
executed,command,org.eclipse.ui,3.6.0.I20100603-1100,"org.eclipse.ui.file.save",1458793557543
activated,editor,org.eclipse.jdt.ui,3.6.0.v20100602-1600,"org.eclipse.jdt.ui.CompilationUnitEditor",1458793559034
executed,command,org.eclipse.ui,3.6.0.I20100603-1100,"org.eclipse.ui.file.save",1458793561693
activated,editor,org.eclipse.jdt.ui,3.6.0.v20100602-1600,"org.eclipse.jdt.ui.CompilationUnitEditor",1458793566155
activated,editor,org.eclipse.jdt.ui,3.6.0.v20100602-1600,"org.eclipse.jdt.ui.CompilationUnitEditor",1458793569088
activated,editor,org.eclipse.jdt.ui,3.6.0.v20100602-1600,"org.eclipse.jdt.ui.CompilationUnitEditor",1458793649343
activated,editor,org.eclipse.jdt.ui,3.6.0.v20100602-1600,"org.eclipse.jdt.ui.CompilationUnitEditor",1458793662534
activated,editor,org.eclipse.jdt.ui,3.6.0.v20100602-1600,"org.eclipse.jdt.ui.CompilationUnitEditor",1458793684742
activated,editor,org.eclipse.jdt.ui,3.6.0.v20100602-1600,"org.eclipse.jdt.ui.CompilationUnitEditor",1458793696461
executed,command,org.eclipse.ui,3.6.0.I20100603-1100,"org.eclipse.ui.edit.cut",1458793752257
executed,command,org.eclipse.ui,3.6.0.I20100603-1100,"org.eclipse.ui.edit.paste",1458793753993
executed,command,org.eclipse.ui,3.6.0.I20100603-1100,"org.eclipse.ui.file.save",1458793755435
deactivated,workbench,org.eclipse.ui.workbench,3.6.0.I20100603-1100,"",1458793759614
activated,workbench,org.eclipse.ui.workbench,3.6.0.I20100603-1100,"",1458793762360
deactivated,workbench,org.eclipse.ui.workbench,3.6.0.I20100603-1100,"",1458793769519
activated,workbench,org.eclipse.ui.workbench,3.6.0.I20100603-1100,"",1458793771397
activated,editor,org.eclipse.jdt.ui,3.6.0.v20100602-1600,"org.eclipse.jdt.ui.CompilationUnitEditor",1458793784669
activated,editor,org.eclipse.jdt.ui,3.6.0.v20100602-1600,"org.eclipse.jdt.ui.CompilationUnitEditor",1458793814585
executed,command,org.eclipse.ui,3.6.0.I20100603-1100,"org.eclipse.ui.edit.paste",1458793838819
executed,command,org.eclipse.ui,3.6.0.I20100603-1100,"org.eclipse.ui.file.save",1458793846904
activated,editor,org.eclipse.jdt.ui,3.6.0.v20100602-1600,"org.eclipse.jdt.ui.CompilationUnitEditor",1458793856719
activated,editor,org.eclipse.jdt.ui,3.6.0.v20100602-1600,"org.eclipse.jdt.ui.CompilationUnitEditor",1458793879039
activated,editor,org.eclipse.jdt.ui,3.6.0.v20100602-1600,"org.eclipse.jdt.ui.CompilationUnitEditor",1458793888222
executed,command,org.eclipse.ui,3.6.0.I20100603-1100,"org.eclipse.ui.file.save",1458793895212
activated,editor,org.eclipse.jdt.ui,3.6.0.v20100602-1600,"org.eclipse.jdt.ui.CompilationUnitEditor",1458793896371
activated,editor,org.eclipse.jdt.ui,3.6.0.v20100602-1600,"org.eclipse.jdt.ui.CompilationUnitEditor",1458793897176
executed,command,org.eclipse.ui,3.6.0.I20100603-1100,"org.eclipse.ui.edit.paste",1458793902668
activated,editor,org.eclipse.jdt.ui,3.6.0.v20100602-1600,"org.eclipse.jdt.ui.CompilationUnitEditor",1458793925959
activated,editor,org.eclipse.jdt.ui,3.6.0.v20100602-1600,"org.eclipse.jdt.ui.CompilationUnitEditor",1458793932372
executed,command,org.eclipse.ui,3.6.0.I20100603-1100,"org.eclipse.ui.edit.undo",1458793934023
deactivated,workbench,org.eclipse.ui.workbench,3.6.0.I20100603-1100,"",1458793944391
activated,workbench,org.eclipse.ui.workbench,3.6.0.I20100603-1100,"",1458793944526
executed,command,org.eclipse.ui,3.6.0.I20100603-1100,"org.eclipse.ui.file.save",1458793947794
deactivated,workbench,org.eclipse.ui.workbench,3.6.0.I20100603-1100,"",1458793977387
activated,workbench,org.eclipse.ui.workbench,3.6.0.I20100603-1100,"",1458793977521
activated,editor,org.eclipse.jdt.ui,3.6.0.v20100602-1600,"org.eclipse.jdt.ui.CompilationUnitEditor",1458794012456
activated,editor,org.eclipse.jdt.ui,3.6.0.v20100602-1600,"org.eclipse.jdt.ui.CompilationUnitEditor",1458794038283
activated,editor,org.eclipse.jdt.ui,3.6.0.v20100602-1600,"org.eclipse.jdt.ui.CompilationUnitEditor",1458794039309
executed,command,org.eclipse.ui,3.6.0.I20100603-1100,"org.eclipse.ui.edit.undo",1458794069483
executed,command,org.eclipse.ui,3.6.0.I20100603-1100,"org.eclipse.ui.edit.undo",1458794069705
executed,command,org.eclipse.ui,3.6.0.I20100603-1100,"org.eclipse.ui.edit.undo",1458794071386
activated,editor,org.eclipse.jdt.ui,3.6.0.v20100602-1600,"org.eclipse.jdt.ui.CompilationUnitEditor",1458794110898
activated,editor,org.eclipse.jdt.ui,3.6.0.v20100602-1600,"org.eclipse.jdt.ui.CompilationUnitEditor",1458794117157
deactivated,workbench,org.eclipse.ui.workbench,3.6.0.I20100603-1100,"",1458794121649
activated,workbench,org.eclipse.ui.workbench,3.6.0.I20100603-1100,"",1458794121786
executed,command,org.eclipse.ui,3.6.0.I20100603-1100,"org.eclipse.ui.edit.undo",1458794137734
executed,command,org.eclipse.ui,3.6.0.I20100603-1100,"org.eclipse.ui.file.save",1458794147949
deactivated,workbench,org.eclipse.ui.workbench,3.6.0.I20100603-1100,"",1458794152299
activated,workbench,org.eclipse.ui.workbench,3.6.0.I20100603-1100,"",1458794153580
deactivated,workbench,org.eclipse.ui.workbench,3.6.0.I20100603-1100,"",1458794153653
activated,workbench,org.eclipse.ui.workbench,3.6.0.I20100603-1100,"",1458794155350
activated,editor,org.eclipse.jdt.ui,3.6.0.v20100602-1600,"org.eclipse.jdt.ui.CompilationUnitEditor",1458794156624
executed,command,org.eclipse.ui,3.6.0.I20100603-1100,"org.eclipse.ui.file.save",1458794172934
activated,editor,org.eclipse.jdt.ui,3.6.0.v20100602-1600,"org.eclipse.jdt.ui.CompilationUnitEditor",1458794180078
activated,editor,org.eclipse.jdt.ui,3.6.0.v20100602-1600,"org.eclipse.jdt.ui.CompilationUnitEditor",1458794198735
activated,editor,org.eclipse.jdt.ui,3.6.0.v20100602-1600,"org.eclipse.jdt.ui.CompilationUnitEditor",1458794200176
activated,editor,org.eclipse.jdt.ui,3.6.0.v20100602-1600,"org.eclipse.jdt.ui.CompilationUnitEditor",1458794222646
activated,editor,org.eclipse.jdt.ui,3.6.0.v20100602-1600,"org.eclipse.jdt.ui.CompilationUnitEditor",1458794244574
activated,editor,org.eclipse.jdt.ui,3.6.0.v20100602-1600,"org.eclipse.jdt.ui.CompilationUnitEditor",1458794257604
executed,command,org.eclipse.ui,3.6.0.I20100603-1100,"org.eclipse.ui.file.save",1458794298377
activated,editor,org.eclipse.jdt.ui,3.6.0.v20100602-1600,"org.eclipse.jdt.ui.CompilationUnitEditor",1458794300209
activated,editor,org.eclipse.jdt.ui,3.6.0.v20100602-1600,"org.eclipse.jdt.ui.CompilationUnitEditor",1458794308287
activated,editor,org.eclipse.jdt.ui,3.6.0.v20100602-1600,"org.eclipse.jdt.ui.CompilationUnitEditor",1458794314134
activated,editor,org.eclipse.jdt.ui,3.6.0.v20100602-1600,"org.eclipse.jdt.ui.CompilationUnitEditor",1458794316181
activated,editor,org.eclipse.jdt.ui,3.6.0.v20100602-1600,"org.eclipse.jdt.ui.CompilationUnitEditor",1458794322672
activated,editor,org.eclipse.jdt.ui,3.6.0.v20100602-1600,"org.eclipse.jdt.ui.CompilationUnitEditor",1458794344214
activated,editor,org.eclipse.jdt.ui,3.6.0.v20100602-1600,"org.eclipse.jdt.ui.CompilationUnitEditor",1458794359770
activated,editor,org.eclipse.jdt.ui,3.6.0.v20100602-1600,"org.eclipse.jdt.ui.CompilationUnitEditor",1458794362811
activated,editor,org.eclipse.jdt.ui,3.6.0.v20100602-1600,"org.eclipse.jdt.ui.CompilationUnitEditor",1458794366902
activated,editor,org.eclipse.jdt.ui,3.6.0.v20100602-1600,"org.eclipse.jdt.ui.CompilationUnitEditor",1458794368348
executed,command,org.eclipse.ui,3.6.0.I20100603-1100,"org.eclipse.ui.file.save",1458794373706
activated,editor,org.eclipse.jdt.ui,3.6.0.v20100602-1600,"org.eclipse.jdt.ui.CompilationUnitEditor",1458794376668
deactivated,workbench,org.eclipse.ui.workbench,3.6.0.I20100603-1100,"",1458794385855
activated,workbench,org.eclipse.ui.workbench,3.6.0.I20100603-1100,"",1458794385993
activated,editor,org.eclipse.jdt.ui,3.6.0.v20100602-1600,"org.eclipse.jdt.ui.CompilationUnitEditor",1458794386036
error,log,,,"Could not retrieve interfaces",1458794386044
executed,command,org.eclipse.ui,3.6.0.I20100603-1100,"org.eclipse.ui.edit.undo",1458794397396
executed,command,org.eclipse.ui,3.6.0.I20100603-1100,"org.eclipse.ui.edit.undo",1458794397818
activated,editor,org.eclipse.jdt.ui,3.6.0.v20100602-1600,"org.eclipse.jdt.ui.CompilationUnitEditor",1458794402934
deactivated,workbench,org.eclipse.ui.workbench,3.6.0.I20100603-1100,"",1458794421845
activated,workbench,org.eclipse.ui.workbench,3.6.0.I20100603-1100,"",1458794421980
activated,editor,org.eclipse.jdt.ui,3.6.0.v20100602-1600,"org.eclipse.jdt.ui.CompilationUnitEditor",1458794422024
activated,editor,org.eclipse.jdt.ui,3.6.0.v20100602-1600,"org.eclipse.jdt.ui.CompilationUnitEditor",1458794429566
activated,editor,org.eclipse.jdt.ui,3.6.0.v20100602-1600,"org.eclipse.jdt.ui.CompilationUnitEditor",1458794433680
deactivated,workbench,org.eclipse.ui.workbench,3.6.0.I20100603-1100,"",1458794444626
activated,workbench,org.eclipse.ui.workbench,3.6.0.I20100603-1100,"",1458794444766
executed,command,org.eclipse.ui,3.6.0.I20100603-1100,"org.eclipse.ui.file.save",1458794473945
deactivated,workbench,org.eclipse.ui.workbench,3.6.0.I20100603-1100,"",1458794476929
activated,workbench,org.eclipse.ui.workbench,3.6.0.I20100603-1100,"",1458794477068
executed,command,org.eclipse.ui,3.6.0.I20100603-1100,"org.eclipse.ui.edit.undo",1458794479404
activated,editor,org.eclipse.jdt.ui,3.6.0.v20100602-1600,"org.eclipse.jdt.ui.CompilationUnitEditor",1458794484428
deactivated,workbench,org.eclipse.ui.workbench,3.6.0.I20100603-1100,"",1458794492176
activated,workbench,org.eclipse.ui.workbench,3.6.0.I20100603-1100,"",1458794492312
activated,editor,org.eclipse.jdt.ui,3.6.0.v20100602-1600,"org.eclipse.jdt.ui.CompilationUnitEditor",1458794492353
executed,command,org.eclipse.ui,3.6.0.I20100603-1100,"org.eclipse.ui.edit.undo",1458794500347
executed,command,org.eclipse.ui,3.6.0.I20100603-1100,"org.eclipse.ui.edit.undo",1458794501193
executed,command,org.eclipse.ui,3.6.0.I20100603-1100,"org.eclipse.ui.edit.undo",1458794501683
executed,command,org.eclipse.ui,3.6.0.I20100603-1100,"org.eclipse.ui.edit.undo",1458794502072
executed,command,org.eclipse.ui,3.6.0.I20100603-1100,"org.eclipse.ui.edit.undo",1458794502428
executed,command,org.eclipse.ui,3.6.0.I20100603-1100,"org.eclipse.ui.edit.undo",1458794503151
executed,command,org.eclipse.ui,3.6.0.I20100603-1100,"org.eclipse.ui.edit.undo",1458794503443
executed,command,org.eclipse.ui,3.6.0.I20100603-1100,"org.eclipse.ui.file.save",1458794620253
activated,editor,org.eclipse.jdt.ui,3.6.0.v20100602-1600,"org.eclipse.jdt.ui.CompilationUnitEditor",1458794622715
executed,command,org.eclipse.ui,3.6.0.I20100603-1100,"org.eclipse.ui.file.save",1458794634066
activated,editor,org.eclipse.jdt.ui,3.6.0.v20100602-1600,"org.eclipse.jdt.ui.CompilationUnitEditor",1458794651533
activated,editor,org.eclipse.jdt.ui,3.6.0.v20100602-1600,"org.eclipse.jdt.ui.CompilationUnitEditor",1458794659963
activated,editor,org.eclipse.jdt.ui,3.6.0.v20100602-1600,"org.eclipse.jdt.ui.CompilationUnitEditor",1458794681635
activated,editor,org.eclipse.jdt.ui,3.6.0.v20100602-1600,"org.eclipse.jdt.ui.CompilationUnitEditor",1458794685024
deactivated,workbench,org.eclipse.ui.workbench,3.6.0.I20100603-1100,"",1458794696047
activated,workbench,org.eclipse.ui.workbench,3.6.0.I20100603-1100,"",1458794696185
executed,command,org.eclipse.ui,3.6.0.I20100603-1100,"org.eclipse.ui.edit.undo",1458794698608
activated,editor,org.eclipse.jdt.ui,3.6.0.v20100602-1600,"org.eclipse.jdt.ui.CompilationUnitEditor",1458794700659
activated,editor,org.eclipse.jdt.ui,3.6.0.v20100602-1600,"org.eclipse.jdt.ui.CompilationUnitEditor",1458794703766
deactivated,workbench,org.eclipse.ui.workbench,3.6.0.I20100603-1100,"",1458794772991
activated,workbench,org.eclipse.ui.workbench,3.6.0.I20100603-1100,"",1458794773127
executed,command,org.eclipse.ui,3.6.0.I20100603-1100,"org.eclipse.ui.edit.undo",1458794784886
executed,command,org.eclipse.ui,3.6.0.I20100603-1100,"org.eclipse.ui.file.save",1458794787180
deactivated,workbench,org.eclipse.ui.workbench,3.6.0.I20100603-1100,"",1458794796552
activated,workbench,org.eclipse.ui.workbench,3.6.0.I20100603-1100,"",1458794796692
executed,command,org.eclipse.ui,3.6.0.I20100603-1100,"org.eclipse.ui.edit.undo",1458794801098
executed,command,org.eclipse.ui,3.6.0.I20100603-1100,"org.eclipse.ui.file.save",1458794820428
activated,editor,org.eclipse.jdt.ui,3.6.0.v20100602-1600,"org.eclipse.jdt.ui.CompilationUnitEditor",1458794824967
activated,editor,org.eclipse.jdt.ui,3.6.0.v20100602-1600,"org.eclipse.jdt.ui.CompilationUnitEditor",1458794826356
deactivated,workbench,org.eclipse.ui.workbench,3.6.0.I20100603-1100,"",1458794881288
activated,workbench,org.eclipse.ui.workbench,3.6.0.I20100603-1100,"",1458794881429
activated,editor,org.eclipse.jdt.ui,3.6.0.v20100602-1600,"org.eclipse.jdt.ui.CompilationUnitEditor",1458794881475
activated,editor,org.eclipse.jdt.ui,3.6.0.v20100602-1600,"org.eclipse.jdt.ui.CompilationUnitEditor",1458794884175
executed,command,org.eclipse.ui,3.6.0.I20100603-1100,"org.eclipse.ui.file.save",1458794884573
deactivated,workbench,org.eclipse.ui.workbench,3.6.0.I20100603-1100,"",1458794888154
activated,workbench,org.eclipse.ui.workbench,3.6.0.I20100603-1100,"",1458794888288
activated,editor,org.eclipse.jdt.ui,3.6.0.v20100602-1600,"org.eclipse.jdt.ui.CompilationUnitEditor",1458794888334
executed,command,org.eclipse.ui,3.6.0.I20100603-1100,"org.eclipse.ui.edit.undo",1458794898196
activated,editor,org.eclipse.jdt.ui,3.6.0.v20100602-1600,"org.eclipse.jdt.ui.CompilationUnitEditor",1458794900656
activated,editor,org.eclipse.jdt.ui,3.6.0.v20100602-1600,"org.eclipse.jdt.ui.CompilationUnitEditor",1458794909899
activated,editor,org.eclipse.jdt.ui,3.6.0.v20100602-1600,"org.eclipse.jdt.ui.CompilationUnitEditor",1458794916626
activated,editor,org.eclipse.jdt.ui,3.6.0.v20100602-1600,"org.eclipse.jdt.ui.CompilationUnitEditor",1458794943241
deactivated,workbench,org.eclipse.ui.workbench,3.6.0.I20100603-1100,"",1458794953900
activated,workbench,org.eclipse.ui.workbench,3.6.0.I20100603-1100,"",1458794954039
deactivated,workbench,org.eclipse.ui.workbench,3.6.0.I20100603-1100,"",1458794959356
activated,workbench,org.eclipse.ui.workbench,3.6.0.I20100603-1100,"",1458794959477
deactivated,workbench,org.eclipse.ui.workbench,3.6.0.I20100603-1100,"",1458794978290
activated,workbench,org.eclipse.ui.workbench,3.6.0.I20100603-1100,"",1458794978427
executed,command,org.eclipse.ui,3.6.0.I20100603-1100,"org.eclipse.ui.file.save",1458794985009
activated,editor,org.eclipse.jdt.ui,3.6.0.v20100602-1600,"org.eclipse.jdt.ui.CompilationUnitEditor",1458794986762
executed,command,org.eclipse.ui,3.6.0.I20100603-1100,"org.eclipse.ui.file.save",1458794993234
executed,command,org.eclipse.ui,3.6.0.I20100603-1100,"org.eclipse.ui.file.save",1458795014164
deactivated,workbench,org.eclipse.ui.workbench,3.6.0.I20100603-1100,"",1458795018353
activated,workbench,org.eclipse.ui.workbench,3.6.0.I20100603-1100,"",1458795018490
executed,command,org.eclipse.ui,3.6.0.I20100603-1100,"org.eclipse.ui.edit.undo",1458795020039
deactivated,workbench,org.eclipse.ui.workbench,3.6.0.I20100603-1100,"",1458795026541
activated,workbench,org.eclipse.ui.workbench,3.6.0.I20100603-1100,"",1458795026677
activated,editor,org.eclipse.jdt.ui,3.6.0.v20100602-1600,"org.eclipse.jdt.ui.CompilationUnitEditor",1458795026726
executed,command,org.eclipse.ui,3.6.0.I20100603-1100,"org.eclipse.ui.file.save",1458795029914
deactivated,workbench,org.eclipse.ui.workbench,3.6.0.I20100603-1100,"",1458795037709
activated,workbench,org.eclipse.ui.workbench,3.6.0.I20100603-1100,"",1458795037844
executed,command,org.eclipse.ui,3.6.0.I20100603-1100,"org.eclipse.ui.file.save",1458795039355
deactivated,workbench,org.eclipse.ui.workbench,3.6.0.I20100603-1100,"",1458795043451
activated,workbench,org.eclipse.ui.workbench,3.6.0.I20100603-1100,"",1458795043589
deactivated,workbench,org.eclipse.ui.workbench,3.6.0.I20100603-1100,"",1458795047665
activated,workbench,org.eclipse.ui.workbench,3.6.0.I20100603-1100,"",1458795047802
executed,command,org.eclipse.ui,3.6.0.I20100603-1100,"org.eclipse.ui.file.save",1458795072215
deactivated,workbench,org.eclipse.ui.workbench,3.6.0.I20100603-1100,"",1458795077125
activated,workbench,org.eclipse.ui.workbench,3.6.0.I20100603-1100,"",1458795077263
