what,kind,bundleId,bundleVersion,description,time
started,bundle,org.eclipse.jsch.core,1.1.200.I20100505-1245,"org.eclipse.jsch.core",1459713498760
started,bundle,org.eclipse.jst.ws.jaxws.utils,1.0.0.v201004171919,"org.eclipse.jst.ws.jaxws.utils",1459713498761
started,bundle,org.eclipse.ltk.core.refactoring,3.5.100.v20100526-0800,"org.eclipse.ltk.core.refactoring",1459713498762
started,bundle,org.eclipse.ltk.ui.refactoring,3.5.0.v20100526-0800,"org.eclipse.ltk.ui.refactoring",1459713498767
started,bundle,org.eclipse.mylyn.monitor.ui,3.4.0.v20100608-0100-e3x,"org.eclipse.mylyn.monitor.ui",1459713498770
started,bundle,org.eclipse.pde.launching,3.6.0.v20100601,"org.eclipse.pde.launching",1459713498772
started,bundle,org.eclipse.pde.ui,3.6.0.v20100601,"org.eclipse.pde.ui",1459713498801
started,bundle,org.eclipse.team.core,3.5.100.I20100527-0800,"org.eclipse.team.core",1459713498802
started,bundle,org.eclipse.team.cvs.core,3.3.300.I20100526-0800,"org.eclipse.team.cvs.core",1459713498805
started,bundle,org.eclipse.team.ui,3.5.100.I20100527-0800,"org.eclipse.team.ui",1459713498806
started,bundle,org.eclipse.ui,3.6.0.I20100603-1100,"org.eclipse.ui",1459713498830
started,bundle,org.eclipse.ui.console,3.5.0.v20100526,"org.eclipse.ui.console",1459713498832
started,bundle,org.eclipse.ui.editors,3.6.0.v20100520-0800,"org.eclipse.ui.editors",1459713498832
started,bundle,org.eclipse.ui.ide,3.6.0.I20100601-0800,"org.eclipse.ui.ide",1459713498932
started,bundle,org.eclipse.ui.net,1.2.100.I20100505-1245,"org.eclipse.ui.net",1459713498933
started,bundle,org.eclipse.ui.views,3.5.0.I20100527-0800,"org.eclipse.ui.views",1459713498934
started,bundle,org.eclipse.ui.views.log,1.0.100.v20100423,"org.eclipse.ui.views.log",1459713498936
started,bundle,org.eclipse.ui.workbench,3.6.0.I20100603-1100,"org.eclipse.ui.workbench",1459713498993
started,bundle,org.eclipse.ui.workbench.texteditor,3.6.0.v20100520-0800,"org.eclipse.ui.workbench.texteditor",1459713498994
started,bundle,org.eclipse.wst.common.core,1.2.0.v200908252030,"org.eclipse.wst.common.core",1459713498996
started,bundle,org.eclipse.wst.common.emf,1.2.0.v201005200700,"org.eclipse.wst.common.emf",1459713498998
started,bundle,org.eclipse.wst.common.emfworkbench.integration,1.2.0.v201004110600,"org.eclipse.wst.common.emfworkbench.integration",1459713499000
started,bundle,org.eclipse.wst.common.frameworks,1.2.0.v201003040800,"org.eclipse.wst.common.frameworks",1459713499001
started,bundle,org.eclipse.wst.common.modulecore,1.2.0.v201005200200,"org.eclipse.wst.common.modulecore",1459713499002
started,bundle,org.eclipse.wst.common.project.facet.core,1.4.100.v201005190114,"org.eclipse.wst.common.project.facet.core",1459713499004
started,bundle,org.eclipse.wst.jsdt.debug.ui,1.0.0.v201005250108,"org.eclipse.wst.jsdt.debug.ui",1459713499005
started,bundle,org.eclipse.wst.web,1.1.400.v201005270700,"org.eclipse.wst.web",1459713499006
started,bundle,org.eclipse.mylyn.commons.net,3.4.0.v20100608-0100-e3x,"org.eclipse.mylyn.commons.net",1459713499013
os,sysinfo,,,"win32",1459713499016
arch,sysinfo,,,"x86_64",1459713499016
ws,sysinfo,,,"win32",1459713499016
locale,sysinfo,,,"en_US",1459713499016
processors,sysinfo,,,"8",1459713499016
java.runtime.name,sysinfo,,,"Java(TM) SE Runtime Environment",1459713499016
java.runtime.version,sysinfo,,,"1.8.0_66-b18",1459713499016
java.specification.name,sysinfo,,,"Java Platform API Specification",1459713499016
java.specification.vendor,sysinfo,,,"Oracle Corporation",1459713499016
java.specification.version,sysinfo,,,"1.8",1459713499016
java.vendor,sysinfo,,,"Oracle Corporation",1459713499016
java.version,sysinfo,,,"1.8.0_66",1459713499016
java.vm.info,sysinfo,,,"mixed mode",1459713499016
java.vm.name,sysinfo,,,"Java HotSpot(TM) 64-Bit Server VM",1459713499016
java.vm.specification.name,sysinfo,,,"Java Virtual Machine Specification",1459713499016
java.vm.specification.vendor,sysinfo,,,"Oracle Corporation",1459713499016
java.vm.specification.version,sysinfo,,,"1.8",1459713499016
java.vm.vendor,sysinfo,,,"Oracle Corporation",1459713499016
java.vm.version,sysinfo,,,"25.66-b18",1459713499016
started,bundle,org.eclipse.jem,2.0.400.v201005110200,"org.eclipse.jem",1459713499160
started,bundle,org.eclipse.jst.common.project.facet.core,1.4.100.v201004202202,"org.eclipse.jst.common.project.facet.core",1459713499441
started,bundle,org.eclipse.jst.ws.jaxrs.core,1.0.0.v201005191955,"org.eclipse.jst.ws.jaxrs.core",1459713499467
started,bundle,org.eclipse.wst.common.frameworks.ui,1.2.0.v201004080500,"org.eclipse.wst.common.frameworks.ui",1459713499519
started,bundle,org.eclipse.wst.xml.core,1.1.500.v201005271618,"org.eclipse.wst.xml.core",1459713499591
started,bundle,org.eclipse.wst.validation,1.2.200.v201005271900,"org.eclipse.wst.validation",1459713499758
started,bundle,org.eclipse.jst.j2ee,1.1.400.v201005271900,"org.eclipse.jst.j2ee",1459713499880
started,bundle,org.eclipse.jst.common.frameworks,1.1.400.v201005130500,"org.eclipse.jst.common.frameworks",1459713499895
started,bundle,org.eclipse.epp.usagedata.ui,1.3.0.R201005261100,"org.eclipse.epp.usagedata.ui",1459713500049
started,bundle,org.eclipse.jem.workbench,2.0.300.v200910290230,"org.eclipse.jem.workbench",1459713500182
started,bundle,org.eclipse.ui.forms,3.5.0.v20100427,"org.eclipse.ui.forms",1459713500371
started,bundle,org.eclipse.mylyn.commons.ui,3.4.0.v20100608-0100-e3x,"org.eclipse.mylyn.commons.ui",1459713501100
started,bundle,org.eclipse.jpt.core,2.3.0.v201006020000,"org.eclipse.jpt.core",1459713501117
started,bundle,org.eclipse.mylyn.bugzilla.core,3.4.0.v20100608-0100-e3x,"org.eclipse.mylyn.bugzilla.core",1459713501410
started,bundle,org.eclipse.mylyn.bugzilla.ui,3.4.0.v20100608-0100-e3x,"org.eclipse.mylyn.bugzilla.ui",1459713501507
started,bundle,org.eclipse.mylyn.context.core,3.4.0.v20100608-0100-e3x,"org.eclipse.mylyn.context.core",1459713502018
started,bundle,org.eclipse.mylyn.context.ui,3.4.0.v20100608-0100-e3x,"org.eclipse.mylyn.context.ui",1459713502036
started,bundle,org.eclipse.jdt.junit.core,3.6.0.v20100526-0800,"org.eclipse.jdt.junit.core",1459713502095
started,bundle,org.eclipse.equinox.simpleconfigurator.manipulator,2.0.0.v20100503,"org.eclipse.equinox.simpleconfigurator.manipulator",1459713502121
started,bundle,org.eclipse.equinox.frameworkadmin,2.0.0.v20100503,"org.eclipse.equinox.frameworkadmin",1459713502146
started,bundle,org.eclipse.mylyn.tasks.ui,3.4.0.v20100608-0100-e3x,"org.eclipse.mylyn.tasks.ui",1459713502397
started,bundle,org.eclipse.mylyn.team.ui,3.4.0.v20100608-0100-e3x,"org.eclipse.mylyn.team.ui",1459713502508
started,bundle,org.eclipse.update.scheduler,3.2.300.v20100512,"org.eclipse.update.scheduler",1459713502557
deactivated,workbench,org.eclipse.ui.workbench,3.6.0.I20100603-1100,"",1459713503019
started,bundle,org.eclipse.wst.dtd.core,1.1.400.v201004290328,"org.eclipse.wst.dtd.core",1459713505799
started,bundle,org.eclipse.wst.sse.ui,1.2.0.v201006030742,"org.eclipse.wst.sse.ui",1459713505952
started,bundle,org.eclipse.wst.html.ui,1.0.500.v201006030742,"org.eclipse.wst.html.ui",1459713505954
started,bundle,org.eclipse.wst.sse.core,1.1.500.v201006020308,"org.eclipse.wst.sse.core",1459713506943
started,bundle,org.eclipse.jst.jsf.common,1.2.0.v20100604,"org.eclipse.jst.jsf.common",1459713507525
started,bundle,org.eclipse.jst.jsf.core,1.3.0.v20100602,"org.eclipse.jst.jsf.core",1459713507556
started,bundle,org.eclipse.jst.jsp.core,1.2.300.v201005271731,"org.eclipse.jst.jsp.core",1459713509474
started,bundle,org.eclipse.update.configurator,3.3.100.v20100512,"org.eclipse.update.configurator",1459713509739
activated,workbench,org.eclipse.ui.workbench,3.6.0.I20100603-1100,"",1459713509837
activated,view,org.eclipse.ui.console,3.5.0.v20100526,"org.eclipse.ui.console.ConsoleView",1459713509893
started,bundle,org.eclipse.update.core,3.2.400.v20100512,"org.eclipse.update.core",1459713509956
started,bundle,org.eclipse.wst.wsdl.validation,1.1.501.v201004201506,"org.eclipse.wst.wsdl.validation",1459713510468
started,bundle,org.eclipse.wst.xsd.core,1.1.501.v201004110600,"org.eclipse.wst.xsd.core",1459713510721
started,bundle,org.eclipse.wst.xsl.core,1.1.0.v201004290328,"org.eclipse.wst.xsl.core",1459713510927
deactivated,workbench,org.eclipse.ui.workbench,3.6.0.I20100603-1100,"",1459713512380
activated,workbench,org.eclipse.ui.workbench,3.6.0.I20100603-1100,"",1459713658662
deactivated,workbench,org.eclipse.ui.workbench,3.6.0.I20100603-1100,"",1459713662483
activated,workbench,org.eclipse.ui.workbench,3.6.0.I20100603-1100,"",1459713668500
opened,editor,org.eclipse.jdt.ui,3.6.0.v20100602-1600,"org.eclipse.jdt.ui.CompilationUnitEditor",1459713668809
activated,editor,org.eclipse.jdt.ui,3.6.0.v20100602-1600,"org.eclipse.jdt.ui.CompilationUnitEditor",1459713668988
deactivated,workbench,org.eclipse.ui.workbench,3.6.0.I20100603-1100,"",1459713670912
activated,workbench,org.eclipse.ui.workbench,3.6.0.I20100603-1100,"",1459713672449
opened,editor,org.eclipse.jdt.ui,3.6.0.v20100602-1600,"org.eclipse.jdt.ui.CompilationUnitEditor",1459713672577
activated,editor,org.eclipse.jdt.ui,3.6.0.v20100602-1600,"org.eclipse.jdt.ui.CompilationUnitEditor",1459713672749
activated,view,org.eclipse.jdt.ui,3.6.0.v20100602-1600,"org.eclipse.jdt.ui.PackageExplorer",1459713682384
started,bundle,org.eclipse.compare,3.5.100.I20100526-0800,"org.eclipse.compare",1459713687378
deactivated,workbench,org.eclipse.ui.workbench,3.6.0.I20100603-1100,"",1459713689907
started,bundle,org.eclipse.wst.jsdt.manipulation,1.0.200.v201004150600,"org.eclipse.wst.jsdt.manipulation",1459713691535
started,bundle,org.eclipse.wst.jsdt.core,1.1.0.v201006030738,"org.eclipse.wst.jsdt.core",1459713691848
started,bundle,org.eclipse.wst.jsdt.ui,1.1.0.v201005200157,"org.eclipse.wst.jsdt.ui",1459713692341
closed,editor,org.eclipse.jdt.ui,3.6.0.v20100602-1600,"org.eclipse.jdt.ui.CompilationUnitEditor",1459713693190
activated,workbench,org.eclipse.ui.workbench,3.6.0.I20100603-1100,"",1459713693795
executed,command,org.eclipse.ui,3.6.0.I20100603-1100,"org.eclipse.ui.edit.delete",1459713693812
deactivated,workbench,org.eclipse.ui.workbench,3.6.0.I20100603-1100,"",1459713698529
activated,workbench,org.eclipse.ui.workbench,3.6.0.I20100603-1100,"",1459713706757
deactivated,workbench,org.eclipse.ui.workbench,3.6.0.I20100603-1100,"",1459713710821
activated,workbench,org.eclipse.ui.workbench,3.6.0.I20100603-1100,"",1459713717301
opened,editor,org.eclipse.jdt.ui,3.6.0.v20100602-1600,"org.eclipse.jdt.ui.CompilationUnitEditor",1459713717742
activated,editor,org.eclipse.jdt.ui,3.6.0.v20100602-1600,"org.eclipse.jdt.ui.CompilationUnitEditor",1459713717883
deactivated,workbench,org.eclipse.ui.workbench,3.6.0.I20100603-1100,"",1459713721555
activated,workbench,org.eclipse.ui.workbench,3.6.0.I20100603-1100,"",1459713960208
started,bundle,org.eclipse.mylyn.ide.ui,3.4.0.v20100608-0100-e3x,"org.eclipse.mylyn.ide.ui",1459713967108
started,bundle,org.eclipse.jst.ws.jaxws.ui,1.0.0.v201004262257,"org.eclipse.jst.ws.jaxws.ui",1459713967124
started,bundle,org.eclipse.mylyn.java.ui,3.4.0.v20100608-0100-e3x,"org.eclipse.mylyn.java.ui",1459713967160
started,bundle,org.eclipse.pde.api.tools,1.0.201.v20100602-0930,"org.eclipse.pde.api.tools",1459713967258
started,bundle,org.eclipse.pde.api.tools.ui,1.0.200.v20100601-1815,"org.eclipse.pde.api.tools.ui",1459713967261
deactivated,workbench,org.eclipse.ui.workbench,3.6.0.I20100603-1100,"",1459714003414
activated,workbench,org.eclipse.ui.workbench,3.6.0.I20100603-1100,"",1459714003567
deactivated,workbench,org.eclipse.ui.workbench,3.6.0.I20100603-1100,"",1459714014578
activated,workbench,org.eclipse.ui.workbench,3.6.0.I20100603-1100,"",1459714042227
deactivated,workbench,org.eclipse.ui.workbench,3.6.0.I20100603-1100,"",1459714047789
activated,workbench,org.eclipse.ui.workbench,3.6.0.I20100603-1100,"",1459714049403
closed,editor,org.eclipse.jdt.ui,3.6.0.v20100602-1600,"org.eclipse.jdt.ui.CompilationUnitEditor",1459714057728
activated,editor,org.eclipse.jdt.ui,3.6.0.v20100602-1600,"org.eclipse.jdt.ui.CompilationUnitEditor",1459714058951
activated,editor,org.eclipse.jdt.ui,3.6.0.v20100602-1600,"org.eclipse.jdt.ui.CompilationUnitEditor",1459714069963
deactivated,workbench,org.eclipse.ui.workbench,3.6.0.I20100603-1100,"",1459714074360
activated,workbench,org.eclipse.ui.workbench,3.6.0.I20100603-1100,"",1459714224492
activated,editor,org.eclipse.jdt.ui,3.6.0.v20100602-1600,"org.eclipse.jdt.ui.CompilationUnitEditor",1459714226613
deactivated,workbench,org.eclipse.ui.workbench,3.6.0.I20100603-1100,"",1459714258065
activated,workbench,org.eclipse.ui.workbench,3.6.0.I20100603-1100,"",1459714274080
deactivated,workbench,org.eclipse.ui.workbench,3.6.0.I20100603-1100,"",1459714381089
activated,workbench,org.eclipse.ui.workbench,3.6.0.I20100603-1100,"",1459714382694
deactivated,workbench,org.eclipse.ui.workbench,3.6.0.I20100603-1100,"",1459714389515
activated,workbench,org.eclipse.ui.workbench,3.6.0.I20100603-1100,"",1459714399296
deactivated,workbench,org.eclipse.ui.workbench,3.6.0.I20100603-1100,"",1459714408850
activated,workbench,org.eclipse.ui.workbench,3.6.0.I20100603-1100,"",1459714454101
activated,editor,org.eclipse.jdt.ui,3.6.0.v20100602-1600,"org.eclipse.jdt.ui.CompilationUnitEditor",1459714456519
activated,editor,org.eclipse.jdt.ui,3.6.0.v20100602-1600,"org.eclipse.jdt.ui.CompilationUnitEditor",1459714457226
executed,command,org.eclipse.ui,3.6.0.I20100603-1100,"org.eclipse.ui.file.save",1459714457567
activated,editor,org.eclipse.jdt.ui,3.6.0.v20100602-1600,"org.eclipse.jdt.ui.CompilationUnitEditor",1459714458751
executed,command,org.eclipse.ui,3.6.0.I20100603-1100,"org.eclipse.ui.file.save",1459714463670
deactivated,workbench,org.eclipse.ui.workbench,3.6.0.I20100603-1100,"",1459714467581
activated,workbench,org.eclipse.ui.workbench,3.6.0.I20100603-1100,"",1459714472304
deactivated,workbench,org.eclipse.ui.workbench,3.6.0.I20100603-1100,"",1459714475496
activated,workbench,org.eclipse.ui.workbench,3.6.0.I20100603-1100,"",1459714479422
started,bundle,org.eclipse.jst.ws.annotations.core,1.0.0.v201004262257,"org.eclipse.jst.ws.annotations.core",1459714526955
deactivated,workbench,org.eclipse.ui.workbench,3.6.0.I20100603-1100,"",1459714535747
activated,workbench,org.eclipse.ui.workbench,3.6.0.I20100603-1100,"",1459714535893
deactivated,workbench,org.eclipse.ui.workbench,3.6.0.I20100603-1100,"",1459714604139
activated,workbench,org.eclipse.ui.workbench,3.6.0.I20100603-1100,"",1459714607155
deactivated,workbench,org.eclipse.ui.workbench,3.6.0.I20100603-1100,"",1459714610115
activated,workbench,org.eclipse.ui.workbench,3.6.0.I20100603-1100,"",1459714657634
executed,command,org.eclipse.ui.workbench.texteditor,3.6.0.v20100520-0800,"org.eclipse.ui.edit.text.goto.lineEnd",1459714658105
deactivated,workbench,org.eclipse.ui.workbench,3.6.0.I20100603-1100,"",1459714735757
activated,workbench,org.eclipse.ui.workbench,3.6.0.I20100603-1100,"",1459714762781
activated,editor,org.eclipse.jdt.ui,3.6.0.v20100602-1600,"org.eclipse.jdt.ui.CompilationUnitEditor",1459714806817
deactivated,workbench,org.eclipse.ui.workbench,3.6.0.I20100603-1100,"",1459714842129
activated,workbench,org.eclipse.ui.workbench,3.6.0.I20100603-1100,"",1459714842247
executed,command,org.eclipse.ui,3.6.0.I20100603-1100,"org.eclipse.ui.edit.undo",1459714848814
executed,command,org.eclipse.ui,3.6.0.I20100603-1100,"org.eclipse.ui.edit.undo",1459714848985
executed,command,org.eclipse.ui,3.6.0.I20100603-1100,"org.eclipse.ui.edit.undo",1459714849188
executed,command,org.eclipse.ui,3.6.0.I20100603-1100,"org.eclipse.ui.edit.undo",1459714849496
executed,command,org.eclipse.ui,3.6.0.I20100603-1100,"org.eclipse.ui.edit.undo",1459714849940
executed,command,org.eclipse.ui,3.6.0.I20100603-1100,"org.eclipse.ui.edit.undo",1459714850350
executed,command,org.eclipse.ui,3.6.0.I20100603-1100,"org.eclipse.ui.edit.undo",1459714850773
executed,command,org.eclipse.ui,3.6.0.I20100603-1100,"org.eclipse.ui.edit.undo",1459714851087
executed,command,org.eclipse.ui,3.6.0.I20100603-1100,"org.eclipse.ui.edit.undo",1459714851465
executed,command,org.eclipse.ui,3.6.0.I20100603-1100,"org.eclipse.ui.edit.undo",1459714851722
executed,command,org.eclipse.ui,3.6.0.I20100603-1100,"org.eclipse.ui.edit.undo",1459714851913
executed,command,org.eclipse.ui,3.6.0.I20100603-1100,"org.eclipse.ui.edit.undo",1459714852163
executed,command,org.eclipse.ui,3.6.0.I20100603-1100,"org.eclipse.ui.edit.undo",1459714852391
executed,command,org.eclipse.ui,3.6.0.I20100603-1100,"org.eclipse.ui.edit.undo",1459714852626
executed,command,org.eclipse.ui,3.6.0.I20100603-1100,"org.eclipse.ui.edit.undo",1459714852979
executed,command,org.eclipse.ui,3.6.0.I20100603-1100,"org.eclipse.ui.edit.undo",1459714853237
executed,command,org.eclipse.ui,3.6.0.I20100603-1100,"org.eclipse.ui.edit.undo",1459714853525
executed,command,org.eclipse.ui,3.6.0.I20100603-1100,"org.eclipse.ui.edit.undo",1459714853976
executed,command,org.eclipse.ui,3.6.0.I20100603-1100,"org.eclipse.ui.edit.undo",1459714854352
executed,command,org.eclipse.ui,3.6.0.I20100603-1100,"org.eclipse.ui.edit.undo",1459714854692
executed,command,org.eclipse.ui,3.6.0.I20100603-1100,"org.eclipse.ui.edit.undo",1459714855203
deactivated,workbench,org.eclipse.ui.workbench,3.6.0.I20100603-1100,"",1459714861980
activated,workbench,org.eclipse.ui.workbench,3.6.0.I20100603-1100,"",1459714863839
executed,command,org.eclipse.ui,3.6.0.I20100603-1100,"org.eclipse.ui.file.save",1459714895035
activated,editor,org.eclipse.jdt.ui,3.6.0.v20100602-1600,"org.eclipse.jdt.ui.CompilationUnitEditor",1459714898669
deactivated,workbench,org.eclipse.ui.workbench,3.6.0.I20100603-1100,"",1459714901131
activated,workbench,org.eclipse.ui.workbench,3.6.0.I20100603-1100,"",1459714901278
deactivated,workbench,org.eclipse.ui.workbench,3.6.0.I20100603-1100,"",1459714904797
activated,workbench,org.eclipse.ui.workbench,3.6.0.I20100603-1100,"",1459714904913
deactivated,workbench,org.eclipse.ui.workbench,3.6.0.I20100603-1100,"",1459714914749
activated,workbench,org.eclipse.ui.workbench,3.6.0.I20100603-1100,"",1459714914891
deactivated,workbench,org.eclipse.ui.workbench,3.6.0.I20100603-1100,"",1459714917995
activated,workbench,org.eclipse.ui.workbench,3.6.0.I20100603-1100,"",1459714918138
deactivated,workbench,org.eclipse.ui.workbench,3.6.0.I20100603-1100,"",1459714921159
activated,workbench,org.eclipse.ui.workbench,3.6.0.I20100603-1100,"",1459714921303
deactivated,workbench,org.eclipse.ui.workbench,3.6.0.I20100603-1100,"",1459714923740
activated,workbench,org.eclipse.ui.workbench,3.6.0.I20100603-1100,"",1459714923882
deactivated,workbench,org.eclipse.ui.workbench,3.6.0.I20100603-1100,"",1459714927367
activated,workbench,org.eclipse.ui.workbench,3.6.0.I20100603-1100,"",1459715068202
deactivated,workbench,org.eclipse.ui.workbench,3.6.0.I20100603-1100,"",1459715091559
activated,workbench,org.eclipse.ui.workbench,3.6.0.I20100603-1100,"",1459715196921
deactivated,workbench,org.eclipse.ui.workbench,3.6.0.I20100603-1100,"",1459715210777
activated,workbench,org.eclipse.ui.workbench,3.6.0.I20100603-1100,"",1459715534281
deactivated,workbench,org.eclipse.ui.workbench,3.6.0.I20100603-1100,"",1459715542158
activated,workbench,org.eclipse.ui.workbench,3.6.0.I20100603-1100,"",1459715545524
deactivated,workbench,org.eclipse.ui.workbench,3.6.0.I20100603-1100,"",1459715564084
activated,workbench,org.eclipse.ui.workbench,3.6.0.I20100603-1100,"",1459715569224
activated,view,org.eclipse.jdt.ui,3.6.0.v20100602-1600,"org.eclipse.jdt.ui.PackageExplorer",1459715582715
deactivated,workbench,org.eclipse.ui.workbench,3.6.0.I20100603-1100,"",1459715583190
activated,workbench,org.eclipse.ui.workbench,3.6.0.I20100603-1100,"",1459715594692
activated,editor,org.eclipse.jdt.ui,3.6.0.v20100602-1600,"org.eclipse.jdt.ui.CompilationUnitEditor",1459715594739
deactivated,workbench,org.eclipse.ui.workbench,3.6.0.I20100603-1100,"",1459715607100
activated,workbench,org.eclipse.ui.workbench,3.6.0.I20100603-1100,"",1459715614066
deactivated,workbench,org.eclipse.ui.workbench,3.6.0.I20100603-1100,"",1459715631726
activated,workbench,org.eclipse.ui.workbench,3.6.0.I20100603-1100,"",1459715636566
deactivated,workbench,org.eclipse.ui.workbench,3.6.0.I20100603-1100,"",1459715650986
activated,workbench,org.eclipse.ui.workbench,3.6.0.I20100603-1100,"",1459715653737
deactivated,workbench,org.eclipse.ui.workbench,3.6.0.I20100603-1100,"",1459715673738
activated,workbench,org.eclipse.ui.workbench,3.6.0.I20100603-1100,"",1459715688192
deactivated,workbench,org.eclipse.ui.workbench,3.6.0.I20100603-1100,"",1459715696031
activated,workbench,org.eclipse.ui.workbench,3.6.0.I20100603-1100,"",1459715704957
deactivated,workbench,org.eclipse.ui.workbench,3.6.0.I20100603-1100,"",1459715707171
activated,workbench,org.eclipse.ui.workbench,3.6.0.I20100603-1100,"",1459715728810
deactivated,workbench,org.eclipse.ui.workbench,3.6.0.I20100603-1100,"",1459715737275
activated,workbench,org.eclipse.ui.workbench,3.6.0.I20100603-1100,"",1459715748315
opened,editor,org.eclipse.jdt.ui,3.6.0.v20100602-1600,"org.eclipse.jdt.ui.CompilationUnitEditor",1459715748451
activated,editor,org.eclipse.jdt.ui,3.6.0.v20100602-1600,"org.eclipse.jdt.ui.CompilationUnitEditor",1459715748609
deactivated,workbench,org.eclipse.ui.workbench,3.6.0.I20100603-1100,"",1459715755017
activated,workbench,org.eclipse.ui.workbench,3.6.0.I20100603-1100,"",1459715761479
deactivated,workbench,org.eclipse.ui.workbench,3.6.0.I20100603-1100,"",1459715762652
activated,workbench,org.eclipse.ui.workbench,3.6.0.I20100603-1100,"",1459715766273
deactivated,workbench,org.eclipse.ui.workbench,3.6.0.I20100603-1100,"",1459715777164
activated,workbench,org.eclipse.ui.workbench,3.6.0.I20100603-1100,"",1459715779234
deactivated,workbench,org.eclipse.ui.workbench,3.6.0.I20100603-1100,"",1459715788858
activated,workbench,org.eclipse.ui.workbench,3.6.0.I20100603-1100,"",1459715847525
activated,editor,org.eclipse.jdt.ui,3.6.0.v20100602-1600,"org.eclipse.jdt.ui.CompilationUnitEditor",1459715848575
activated,editor,org.eclipse.jdt.ui,3.6.0.v20100602-1600,"org.eclipse.jdt.ui.CompilationUnitEditor",1459715862936
executed,command,org.eclipse.ui,3.6.0.I20100603-1100,"org.eclipse.ui.file.save",1459715865880
activated,editor,org.eclipse.jdt.ui,3.6.0.v20100602-1600,"org.eclipse.jdt.ui.CompilationUnitEditor",1459715867557
executed,command,org.eclipse.ui,3.6.0.I20100603-1100,"org.eclipse.ui.file.save",1459715868247
deactivated,workbench,org.eclipse.ui.workbench,3.6.0.I20100603-1100,"",1459715888698
activated,workbench,org.eclipse.ui.workbench,3.6.0.I20100603-1100,"",1459715939022
deactivated,workbench,org.eclipse.ui.workbench,3.6.0.I20100603-1100,"",1459715940067
activated,workbench,org.eclipse.ui.workbench,3.6.0.I20100603-1100,"",1459715947713
activated,editor,org.eclipse.jdt.ui,3.6.0.v20100602-1600,"org.eclipse.jdt.ui.CompilationUnitEditor",1459715949685
activated,editor,org.eclipse.jdt.ui,3.6.0.v20100602-1600,"org.eclipse.jdt.ui.CompilationUnitEditor",1459715985825
deactivated,workbench,org.eclipse.ui.workbench,3.6.0.I20100603-1100,"",1459715988505
activated,workbench,org.eclipse.ui.workbench,3.6.0.I20100603-1100,"",1459716000971
deactivated,workbench,org.eclipse.ui.workbench,3.6.0.I20100603-1100,"",1459716002393
activated,workbench,org.eclipse.ui.workbench,3.6.0.I20100603-1100,"",1459716015452
deactivated,workbench,org.eclipse.ui.workbench,3.6.0.I20100603-1100,"",1459716037427
activated,workbench,org.eclipse.ui.workbench,3.6.0.I20100603-1100,"",1459716043833
deactivated,workbench,org.eclipse.ui.workbench,3.6.0.I20100603-1100,"",1459716060948
activated,workbench,org.eclipse.ui.workbench,3.6.0.I20100603-1100,"",1459716082463
deactivated,workbench,org.eclipse.ui.workbench,3.6.0.I20100603-1100,"",1459716087367
activated,workbench,org.eclipse.ui.workbench,3.6.0.I20100603-1100,"",1459716093334
deactivated,workbench,org.eclipse.ui.workbench,3.6.0.I20100603-1100,"",1459716109453
activated,workbench,org.eclipse.ui.workbench,3.6.0.I20100603-1100,"",1459716111503
deactivated,workbench,org.eclipse.ui.workbench,3.6.0.I20100603-1100,"",1459716112205
activated,workbench,org.eclipse.ui.workbench,3.6.0.I20100603-1100,"",1459716125506
deactivated,workbench,org.eclipse.ui.workbench,3.6.0.I20100603-1100,"",1459716139136
activated,workbench,org.eclipse.ui.workbench,3.6.0.I20100603-1100,"",1459716301372
activated,editor,org.eclipse.jdt.ui,3.6.0.v20100602-1600,"org.eclipse.jdt.ui.CompilationUnitEditor",1459716310136
executed,command,org.eclipse.ui,3.6.0.I20100603-1100,"org.eclipse.ui.file.save",1459716311128
activated,editor,org.eclipse.jdt.ui,3.6.0.v20100602-1600,"org.eclipse.jdt.ui.CompilationUnitEditor",1459716313149
activated,editor,org.eclipse.jdt.ui,3.6.0.v20100602-1600,"org.eclipse.jdt.ui.CompilationUnitEditor",1459716324562
activated,editor,org.eclipse.jdt.ui,3.6.0.v20100602-1600,"org.eclipse.jdt.ui.CompilationUnitEditor",1459716325539
executed,command,org.eclipse.ui,3.6.0.I20100603-1100,"org.eclipse.ui.file.save",1459716327542
deactivated,workbench,org.eclipse.ui.workbench,3.6.0.I20100603-1100,"",1459716333260
activated,workbench,org.eclipse.ui.workbench,3.6.0.I20100603-1100,"",1459716603801
deactivated,workbench,org.eclipse.ui.workbench,3.6.0.I20100603-1100,"",1459716606529
activated,workbench,org.eclipse.ui.workbench,3.6.0.I20100603-1100,"",1459716823896
deactivated,workbench,org.eclipse.ui.workbench,3.6.0.I20100603-1100,"",1459716824702
activated,workbench,org.eclipse.ui.workbench,3.6.0.I20100603-1100,"",1459717242702
deactivated,workbench,org.eclipse.ui.workbench,3.6.0.I20100603-1100,"",1459717251717
activated,workbench,org.eclipse.ui.workbench,3.6.0.I20100603-1100,"",1459717597302
