what,kind,bundleId,bundleVersion,description,time
deactivated,workbench,org.eclipse.ui.workbench,3.6.0.I20100603-1100,"",1457217645163
activated,workbench,org.eclipse.ui.workbench,3.6.0.I20100603-1100,"",1457217660162
activated,editor,org.eclipse.jdt.ui,3.6.0.v20100602-1600,"org.eclipse.jdt.ui.CompilationUnitEditor",1457217663278
activated,view,org.eclipse.jdt.ui,3.6.0.v20100602-1600,"org.eclipse.jdt.ui.PackageExplorer",1457217667196
deactivated,workbench,org.eclipse.ui.workbench,3.6.0.I20100603-1100,"",1457217671223
activated,workbench,org.eclipse.ui.workbench,3.6.0.I20100603-1100,"",1457217674962
deactivated,workbench,org.eclipse.ui.workbench,3.6.0.I20100603-1100,"",1457217686618
activated,workbench,org.eclipse.ui.workbench,3.6.0.I20100603-1100,"",1457217686750
activated,editor,org.eclipse.jdt.ui,3.6.0.v20100602-1600,"org.eclipse.jdt.ui.CompilationUnitEditor",1457217686771
activated,editor,org.eclipse.jdt.ui,3.6.0.v20100602-1600,"org.eclipse.jdt.ui.CompilationUnitEditor",1457217689151
activated,editor,org.eclipse.jdt.ui,3.6.0.v20100602-1600,"org.eclipse.jdt.ui.CompilationUnitEditor",1457217690014
deactivated,workbench,org.eclipse.ui.workbench,3.6.0.I20100603-1100,"",1457217691931
activated,workbench,org.eclipse.ui.workbench,3.6.0.I20100603-1100,"",1457217692019
activated,view,org.eclipse.jdt.ui,3.6.0.v20100602-1600,"org.eclipse.jdt.ui.PackageExplorer",1457217699194
deactivated,workbench,org.eclipse.ui.workbench,3.6.0.I20100603-1100,"",1457217706396
activated,workbench,org.eclipse.ui.workbench,3.6.0.I20100603-1100,"",1457217709643
activated,editor,org.eclipse.jdt.ui,3.6.0.v20100602-1600,"org.eclipse.jdt.ui.CompilationUnitEditor",1457217711794
activated,view,org.eclipse.jdt.ui,3.6.0.v20100602-1600,"org.eclipse.jdt.ui.PackageExplorer",1457217715009
activated,editor,org.eclipse.jdt.ui,3.6.0.v20100602-1600,"org.eclipse.jdt.ui.CompilationUnitEditor",1457217717022
activated,view,org.eclipse.jdt.ui,3.6.0.v20100602-1600,"org.eclipse.jdt.ui.PackageExplorer",1457217719755
deactivated,workbench,org.eclipse.ui.workbench,3.6.0.I20100603-1100,"",1457217722780
activated,workbench,org.eclipse.ui.workbench,3.6.0.I20100603-1100,"",1457217732112
started,bundle,org.eclipse.wst.server.core,1.1.202.v20100518,"org.eclipse.wst.server.core",1457217751015
started,bundle,org.eclipse.wst.server.ui,1.1.203.v20100601,"org.eclipse.wst.server.ui",1457217751028
started,bundle,org.eclipse.jst.server.core,1.2.101.v20100421,"org.eclipse.jst.server.core",1457217751109
started,bundle,org.eclipse.jst.jee,1.0.300.v201005191301,"org.eclipse.jst.jee",1457217751123
deactivated,workbench,org.eclipse.ui.workbench,3.6.0.I20100603-1100,"",1457217758820
activated,workbench,org.eclipse.ui.workbench,3.6.0.I20100603-1100,"",1457217781662
opened,editor,org.eclipse.jdt.ui,3.6.0.v20100602-1600,"org.eclipse.jdt.ui.CompilationUnitEditor",1457217782024
activated,editor,org.eclipse.jdt.ui,3.6.0.v20100602-1600,"org.eclipse.jdt.ui.CompilationUnitEditor",1457217782096
activated,editor,org.eclipse.jdt.ui,3.6.0.v20100602-1600,"org.eclipse.jdt.ui.CompilationUnitEditor",1457217785503
activated,view,org.eclipse.jdt.ui,3.6.0.v20100602-1600,"org.eclipse.jdt.ui.PackageExplorer",1457217797694
deactivated,workbench,org.eclipse.ui.workbench,3.6.0.I20100603-1100,"",1457217802826
activated,workbench,org.eclipse.ui.workbench,3.6.0.I20100603-1100,"",1457217802957
activated,editor,org.eclipse.jdt.ui,3.6.0.v20100602-1600,"org.eclipse.jdt.ui.CompilationUnitEditor",1457217802976
executed,command,org.eclipse.ui,3.6.0.I20100603-1100,"org.eclipse.ui.file.save",1457217810044
activated,editor,org.eclipse.jdt.ui,3.6.0.v20100602-1600,"org.eclipse.jdt.ui.CompilationUnitEditor",1457217810882
activated,editor,org.eclipse.jdt.ui,3.6.0.v20100602-1600,"org.eclipse.jdt.ui.CompilationUnitEditor",1457217813436
activated,editor,org.eclipse.jdt.ui,3.6.0.v20100602-1600,"org.eclipse.jdt.ui.CompilationUnitEditor",1457217814699
deactivated,workbench,org.eclipse.ui.workbench,3.6.0.I20100603-1100,"",1457217817012
activated,workbench,org.eclipse.ui.workbench,3.6.0.I20100603-1100,"",1457217817136
started,bundle,org.eclipse.mylyn.ide.ui,3.4.0.v20100608-0100-e3x,"org.eclipse.mylyn.ide.ui",1457217832237
started,bundle,org.eclipse.jst.ws.jaxws.ui,1.0.0.v201004262257,"org.eclipse.jst.ws.jaxws.ui",1457217832259
started,bundle,org.eclipse.mylyn.java.ui,3.4.0.v20100608-0100-e3x,"org.eclipse.mylyn.java.ui",1457217832300
started,bundle,org.eclipse.pde.api.tools,1.0.201.v20100602-0930,"org.eclipse.pde.api.tools",1457217832374
started,bundle,org.eclipse.pde.api.tools.ui,1.0.200.v20100601-1815,"org.eclipse.pde.api.tools.ui",1457217832375
executed,command,org.eclipse.ui,3.6.0.I20100603-1100,"org.eclipse.ui.edit.undo",1457217845405
executed,command,org.eclipse.ui,3.6.0.I20100603-1100,"org.eclipse.ui.edit.undo",1457217845689
executed,command,org.eclipse.ui,3.6.0.I20100603-1100,"org.eclipse.ui.edit.undo",1457217845996
executed,command,org.eclipse.ui,3.6.0.I20100603-1100,"org.eclipse.ui.edit.undo",1457217846270
executed,command,org.eclipse.ui,3.6.0.I20100603-1100,"org.eclipse.ui.edit.undo",1457217846507
executed,command,org.eclipse.ui,3.6.0.I20100603-1100,"org.eclipse.ui.edit.undo",1457217846801
executed,command,org.eclipse.ui,3.6.0.I20100603-1100,"org.eclipse.ui.edit.undo",1457217847063
executed,command,org.eclipse.ui,3.6.0.I20100603-1100,"org.eclipse.ui.edit.undo",1457217847291
executed,command,org.eclipse.ui,3.6.0.I20100603-1100,"org.eclipse.ui.edit.undo",1457217847516
executed,command,org.eclipse.ui,3.6.0.I20100603-1100,"org.eclipse.ui.edit.undo",1457217847899
executed,command,org.eclipse.ui,3.6.0.I20100603-1100,"org.eclipse.ui.file.save",1457217854273
activated,editor,org.eclipse.jdt.ui,3.6.0.v20100602-1600,"org.eclipse.jdt.ui.CompilationUnitEditor",1457217855340
activated,editor,org.eclipse.jdt.ui,3.6.0.v20100602-1600,"org.eclipse.jdt.ui.CompilationUnitEditor",1457217857479
activated,editor,org.eclipse.jdt.ui,3.6.0.v20100602-1600,"org.eclipse.jdt.ui.CompilationUnitEditor",1457217858147
activated,editor,org.eclipse.jdt.ui,3.6.0.v20100602-1600,"org.eclipse.jdt.ui.CompilationUnitEditor",1457217862884
activated,editor,org.eclipse.jdt.ui,3.6.0.v20100602-1600,"org.eclipse.jdt.ui.CompilationUnitEditor",1457217863884
activated,editor,org.eclipse.jdt.ui,3.6.0.v20100602-1600,"org.eclipse.jdt.ui.CompilationUnitEditor",1457217866462
deactivated,workbench,org.eclipse.ui.workbench,3.6.0.I20100603-1100,"",1457217868743
activated,workbench,org.eclipse.ui.workbench,3.6.0.I20100603-1100,"",1457217918254
deactivated,workbench,org.eclipse.ui.workbench,3.6.0.I20100603-1100,"",1457217920114
activated,workbench,org.eclipse.ui.workbench,3.6.0.I20100603-1100,"",1457217952551
activated,view,org.eclipse.jdt.ui,3.6.0.v20100602-1600,"org.eclipse.jdt.ui.PackageExplorer",1457217964211
opened,editor,org.eclipse.jdt.ui,3.6.0.v20100602-1600,"org.eclipse.jdt.ui.CompilationUnitEditor",1457217970858
activated,editor,org.eclipse.jdt.ui,3.6.0.v20100602-1600,"org.eclipse.jdt.ui.CompilationUnitEditor",1457217970915
activated,view,org.eclipse.jdt.ui,3.6.0.v20100602-1600,"org.eclipse.jdt.ui.PackageExplorer",1457217972858
opened,editor,org.eclipse.jdt.ui,3.6.0.v20100602-1600,"org.eclipse.jdt.ui.CompilationUnitEditor",1457217973073
activated,editor,org.eclipse.jdt.ui,3.6.0.v20100602-1600,"org.eclipse.jdt.ui.CompilationUnitEditor",1457217973128
activated,view,org.eclipse.jdt.ui,3.6.0.v20100602-1600,"org.eclipse.jdt.ui.PackageExplorer",1457217974014
opened,editor,org.eclipse.jdt.ui,3.6.0.v20100602-1600,"org.eclipse.jdt.ui.CompilationUnitEditor",1457217974210
activated,editor,org.eclipse.jdt.ui,3.6.0.v20100602-1600,"org.eclipse.jdt.ui.CompilationUnitEditor",1457217974285
activated,editor,org.eclipse.jdt.ui,3.6.0.v20100602-1600,"org.eclipse.jdt.ui.CompilationUnitEditor",1457217975698
closed,editor,org.eclipse.jdt.ui,3.6.0.v20100602-1600,"org.eclipse.jdt.ui.CompilationUnitEditor",1457217975698
closed,editor,org.eclipse.jdt.ui,3.6.0.v20100602-1600,"org.eclipse.jdt.ui.CompilationUnitEditor",1457217977388
activated,editor,org.eclipse.jdt.ui,3.6.0.v20100602-1600,"org.eclipse.jdt.ui.CompilationUnitEditor",1457217977981
closed,editor,org.eclipse.jdt.ui,3.6.0.v20100602-1600,"org.eclipse.jdt.ui.CompilationUnitEditor",1457217977981
activated,view,org.eclipse.jdt.ui,3.6.0.v20100602-1600,"org.eclipse.jdt.ui.PackageExplorer",1457217979442
activated,editor,org.eclipse.jdt.ui,3.6.0.v20100602-1600,"org.eclipse.jdt.ui.CompilationUnitEditor",1457217982454
deactivated,workbench,org.eclipse.ui.workbench,3.6.0.I20100603-1100,"",1457217983939
activated,workbench,org.eclipse.ui.workbench,3.6.0.I20100603-1100,"",1457218006581
executed,command,org.eclipse.ui,3.6.0.I20100603-1100,"org.eclipse.ui.edit.paste",1457218007923
activated,view,org.eclipse.jdt.ui,3.6.0.v20100602-1600,"org.eclipse.jdt.ui.PackageExplorer",1457218028038
opened,editor,org.eclipse.jdt.ui,3.6.0.v20100602-1600,"org.eclipse.jdt.ui.CompilationUnitEditor",1457218031645
activated,editor,org.eclipse.jdt.ui,3.6.0.v20100602-1600,"org.eclipse.jdt.ui.CompilationUnitEditor",1457218031699
activated,editor,org.eclipse.jdt.ui,3.6.0.v20100602-1600,"org.eclipse.jdt.ui.CompilationUnitEditor",1457218039107
activated,editor,org.eclipse.jdt.ui,3.6.0.v20100602-1600,"org.eclipse.jdt.ui.CompilationUnitEditor",1457218040660
activated,editor,org.eclipse.jdt.ui,3.6.0.v20100602-1600,"org.eclipse.jdt.ui.CompilationUnitEditor",1457218041737
activated,editor,org.eclipse.jdt.ui,3.6.0.v20100602-1600,"org.eclipse.jdt.ui.CompilationUnitEditor",1457218056170
activated,editor,org.eclipse.jdt.ui,3.6.0.v20100602-1600,"org.eclipse.jdt.ui.CompilationUnitEditor",1457218058148
activated,editor,org.eclipse.jdt.ui,3.6.0.v20100602-1600,"org.eclipse.jdt.ui.CompilationUnitEditor",1457218059132
activated,editor,org.eclipse.jdt.ui,3.6.0.v20100602-1600,"org.eclipse.jdt.ui.CompilationUnitEditor",1457218060272
activated,view,org.eclipse.jdt.ui,3.6.0.v20100602-1600,"org.eclipse.jdt.ui.PackageExplorer",1457218072539
activated,editor,org.eclipse.jdt.ui,3.6.0.v20100602-1600,"org.eclipse.jdt.ui.CompilationUnitEditor",1457218081230
activated,view,org.eclipse.jdt.ui,3.6.0.v20100602-1600,"org.eclipse.jdt.ui.PackageExplorer",1457218093156
activated,editor,org.eclipse.jdt.ui,3.6.0.v20100602-1600,"org.eclipse.jdt.ui.CompilationUnitEditor",1457218107237
activated,view,org.eclipse.jdt.ui,3.6.0.v20100602-1600,"org.eclipse.jdt.ui.PackageExplorer",1457218110357
activated,editor,org.eclipse.jdt.ui,3.6.0.v20100602-1600,"org.eclipse.jdt.ui.CompilationUnitEditor",1457218110603
deactivated,workbench,org.eclipse.ui.workbench,3.6.0.I20100603-1100,"",1457218129515
activated,workbench,org.eclipse.ui.workbench,3.6.0.I20100603-1100,"",1457218129646
deactivated,workbench,org.eclipse.ui.workbench,3.6.0.I20100603-1100,"",1457218200645
activated,workbench,org.eclipse.ui.workbench,3.6.0.I20100603-1100,"",1457218219694
activated,editor,org.eclipse.jdt.ui,3.6.0.v20100602-1600,"org.eclipse.jdt.ui.CompilationUnitEditor",1457218221032
activated,editor,org.eclipse.jdt.ui,3.6.0.v20100602-1600,"org.eclipse.jdt.ui.CompilationUnitEditor",1457218222932
activated,editor,org.eclipse.jdt.ui,3.6.0.v20100602-1600,"org.eclipse.jdt.ui.CompilationUnitEditor",1457218229113
activated,editor,org.eclipse.jdt.ui,3.6.0.v20100602-1600,"org.eclipse.jdt.ui.CompilationUnitEditor",1457218231571
activated,editor,org.eclipse.jdt.ui,3.6.0.v20100602-1600,"org.eclipse.jdt.ui.CompilationUnitEditor",1457218232525
deactivated,workbench,org.eclipse.ui.workbench,3.6.0.I20100603-1100,"",1457218234778
activated,workbench,org.eclipse.ui.workbench,3.6.0.I20100603-1100,"",1457218235811
started,bundle,org.eclipse.jst.ws.annotations.core,1.0.0.v201004262257,"org.eclipse.jst.ws.annotations.core",1457218238516
deactivated,workbench,org.eclipse.ui.workbench,3.6.0.I20100603-1100,"",1457218242774
activated,workbench,org.eclipse.ui.workbench,3.6.0.I20100603-1100,"",1457218247626
activated,editor,org.eclipse.jdt.ui,3.6.0.v20100602-1600,"org.eclipse.jdt.ui.CompilationUnitEditor",1457218294691
activated,editor,org.eclipse.jdt.ui,3.6.0.v20100602-1600,"org.eclipse.jdt.ui.CompilationUnitEditor",1457218297588
activated,editor,org.eclipse.jdt.ui,3.6.0.v20100602-1600,"org.eclipse.jdt.ui.CompilationUnitEditor",1457218298473
activated,editor,org.eclipse.jdt.ui,3.6.0.v20100602-1600,"org.eclipse.jdt.ui.CompilationUnitEditor",1457218299102
activated,editor,org.eclipse.jdt.ui,3.6.0.v20100602-1600,"org.eclipse.jdt.ui.CompilationUnitEditor",1457218300575
activated,editor,org.eclipse.jdt.ui,3.6.0.v20100602-1600,"org.eclipse.jdt.ui.CompilationUnitEditor",1457218306159
activated,editor,org.eclipse.jdt.ui,3.6.0.v20100602-1600,"org.eclipse.jdt.ui.CompilationUnitEditor",1457218332548
executed,command,org.eclipse.ui,3.6.0.I20100603-1100,"org.eclipse.ui.edit.copy",1457218351501
activated,editor,org.eclipse.jdt.ui,3.6.0.v20100602-1600,"org.eclipse.jdt.ui.CompilationUnitEditor",1457218352818
executed,command,org.eclipse.ui,3.6.0.I20100603-1100,"org.eclipse.ui.edit.paste",1457218355268
activated,editor,org.eclipse.jdt.ui,3.6.0.v20100602-1600,"org.eclipse.jdt.ui.CompilationUnitEditor",1457218366813
activated,editor,org.eclipse.jdt.ui,3.6.0.v20100602-1600,"org.eclipse.jdt.ui.CompilationUnitEditor",1457218369803
activated,editor,org.eclipse.jdt.ui,3.6.0.v20100602-1600,"org.eclipse.jdt.ui.CompilationUnitEditor",1457218370903
activated,editor,org.eclipse.jdt.ui,3.6.0.v20100602-1600,"org.eclipse.jdt.ui.CompilationUnitEditor",1457218372757
activated,editor,org.eclipse.jdt.ui,3.6.0.v20100602-1600,"org.eclipse.jdt.ui.CompilationUnitEditor",1457218373643
activated,editor,org.eclipse.jdt.ui,3.6.0.v20100602-1600,"org.eclipse.jdt.ui.CompilationUnitEditor",1457218384429
activated,editor,org.eclipse.jdt.ui,3.6.0.v20100602-1600,"org.eclipse.jdt.ui.CompilationUnitEditor",1457218386967
deactivated,workbench,org.eclipse.ui.workbench,3.6.0.I20100603-1100,"",1457218391626
activated,workbench,org.eclipse.ui.workbench,3.6.0.I20100603-1100,"",1457218392940
activated,editor,org.eclipse.jdt.ui,3.6.0.v20100602-1600,"org.eclipse.jdt.ui.CompilationUnitEditor",1457218393661
executed,command,org.eclipse.ui,3.6.0.I20100603-1100,"org.eclipse.ui.edit.copy",1457218396352
activated,editor,org.eclipse.jdt.ui,3.6.0.v20100602-1600,"org.eclipse.jdt.ui.CompilationUnitEditor",1457218398064
activated,editor,org.eclipse.jdt.ui,3.6.0.v20100602-1600,"org.eclipse.jdt.ui.CompilationUnitEditor",1457218398695
activated,editor,org.eclipse.jdt.ui,3.6.0.v20100602-1600,"org.eclipse.jdt.ui.CompilationUnitEditor",1457218399713
executed,command,org.eclipse.ui,3.6.0.I20100603-1100,"org.eclipse.ui.edit.paste",1457218401907
deactivated,workbench,org.eclipse.ui.workbench,3.6.0.I20100603-1100,"",1457218433200
activated,workbench,org.eclipse.ui.workbench,3.6.0.I20100603-1100,"",1457218448034
deactivated,workbench,org.eclipse.ui.workbench,3.6.0.I20100603-1100,"",1457218450110
activated,workbench,org.eclipse.ui.workbench,3.6.0.I20100603-1100,"",1457218455502
deactivated,workbench,org.eclipse.ui.workbench,3.6.0.I20100603-1100,"",1457218478089
activated,workbench,org.eclipse.ui.workbench,3.6.0.I20100603-1100,"",1457218480132
deactivated,workbench,org.eclipse.ui.workbench,3.6.0.I20100603-1100,"",1457218484736
activated,workbench,org.eclipse.ui.workbench,3.6.0.I20100603-1100,"",1457218488027
deactivated,workbench,org.eclipse.ui.workbench,3.6.0.I20100603-1100,"",1457218522819
activated,workbench,org.eclipse.ui.workbench,3.6.0.I20100603-1100,"",1457218530522
deactivated,workbench,org.eclipse.ui.workbench,3.6.0.I20100603-1100,"",1457218551995
activated,workbench,org.eclipse.ui.workbench,3.6.0.I20100603-1100,"",1457218553471
deactivated,workbench,org.eclipse.ui.workbench,3.6.0.I20100603-1100,"",1457218559705
activated,workbench,org.eclipse.ui.workbench,3.6.0.I20100603-1100,"",1457218560788
deactivated,workbench,org.eclipse.ui.workbench,3.6.0.I20100603-1100,"",1457218566103
activated,workbench,org.eclipse.ui.workbench,3.6.0.I20100603-1100,"",1457218567107
deactivated,workbench,org.eclipse.ui.workbench,3.6.0.I20100603-1100,"",1457218626944
activated,workbench,org.eclipse.ui.workbench,3.6.0.I20100603-1100,"",1457218715158
deactivated,workbench,org.eclipse.ui.workbench,3.6.0.I20100603-1100,"",1457218721054
activated,workbench,org.eclipse.ui.workbench,3.6.0.I20100603-1100,"",1457218726114
deactivated,workbench,org.eclipse.ui.workbench,3.6.0.I20100603-1100,"",1457218738904
activated,workbench,org.eclipse.ui.workbench,3.6.0.I20100603-1100,"",1457218746281
executed,command,org.eclipse.ui,3.6.0.I20100603-1100,"org.eclipse.ui.edit.undo",1457218759350
executed,command,org.eclipse.ui,3.6.0.I20100603-1100,"org.eclipse.ui.edit.undo",1457218759670
deactivated,workbench,org.eclipse.ui.workbench,3.6.0.I20100603-1100,"",1457218766658
activated,workbench,org.eclipse.ui.workbench,3.6.0.I20100603-1100,"",1457218768684
deactivated,workbench,org.eclipse.ui.workbench,3.6.0.I20100603-1100,"",1457218785528
activated,workbench,org.eclipse.ui.workbench,3.6.0.I20100603-1100,"",1457218789171
executed,command,org.eclipse.ui,3.6.0.I20100603-1100,"org.eclipse.ui.file.save",1457218794915
deactivated,workbench,org.eclipse.ui.workbench,3.6.0.I20100603-1100,"",1457218798501
activated,workbench,org.eclipse.ui.workbench,3.6.0.I20100603-1100,"",1457218799614
activated,view,org.eclipse.jdt.ui,3.6.0.v20100602-1600,"org.eclipse.jdt.ui.PackageExplorer",1457218806529
activated,editor,org.eclipse.jdt.ui,3.6.0.v20100602-1600,"org.eclipse.jdt.ui.CompilationUnitEditor",1457218810107
deactivated,workbench,org.eclipse.ui.workbench,3.6.0.I20100603-1100,"",1457218812777
activated,workbench,org.eclipse.ui.workbench,3.6.0.I20100603-1100,"",1457218813791
executed,command,org.eclipse.ui,3.6.0.I20100603-1100,"org.eclipse.ui.file.save",1457218815137
activated,view,org.eclipse.jdt.ui,3.6.0.v20100602-1600,"org.eclipse.jdt.ui.PackageExplorer",1457218816928
activated,editor,org.eclipse.jdt.ui,3.6.0.v20100602-1600,"org.eclipse.jdt.ui.CompilationUnitEditor",1457218817708
deactivated,workbench,org.eclipse.ui.workbench,3.6.0.I20100603-1100,"",1457218821151
activated,workbench,org.eclipse.ui.workbench,3.6.0.I20100603-1100,"",1457218823090
deactivated,workbench,org.eclipse.ui.workbench,3.6.0.I20100603-1100,"",1457218823172
activated,workbench,org.eclipse.ui.workbench,3.6.0.I20100603-1100,"",1457218826207
activated,editor,org.eclipse.jdt.ui,3.6.0.v20100602-1600,"org.eclipse.jdt.ui.CompilationUnitEditor",1457218827466
activated,view,org.eclipse.jdt.ui,3.6.0.v20100602-1600,"org.eclipse.jdt.ui.PackageExplorer",1457218831605
deactivated,workbench,org.eclipse.ui.workbench,3.6.0.I20100603-1100,"",1457218834921
activated,workbench,org.eclipse.ui.workbench,3.6.0.I20100603-1100,"",1457218836531
executed,command,org.eclipse.ui,3.6.0.I20100603-1100,"org.eclipse.ui.edit.delete",1457218836539
activated,editor,org.eclipse.jdt.ui,3.6.0.v20100602-1600,"org.eclipse.jdt.ui.CompilationUnitEditor",1457218848254
deactivated,workbench,org.eclipse.ui.workbench,3.6.0.I20100603-1100,"",1457218855027
activated,workbench,org.eclipse.ui.workbench,3.6.0.I20100603-1100,"",1457218855735
executed,command,org.eclipse.ui,3.6.0.I20100603-1100,"org.eclipse.ui.file.save",1457218858831
deactivated,workbench,org.eclipse.ui.workbench,3.6.0.I20100603-1100,"",1457218861036
activated,workbench,org.eclipse.ui.workbench,3.6.0.I20100603-1100,"",1457218862651
activated,view,org.eclipse.jdt.ui,3.6.0.v20100602-1600,"org.eclipse.jdt.ui.PackageExplorer",1457218867766
activated,view,org.eclipse.ui.ide,3.6.0.I20100601-0800,"org.eclipse.ui.views.ProblemView",1457218872168
opened,view,org.eclipse.jdt.ui,3.6.0.v20100602-1600,"org.eclipse.jdt.ui.JavadocView",1457218874656
activated,view,org.eclipse.jdt.ui,3.6.0.v20100602-1600,"org.eclipse.jdt.ui.JavadocView",1457218874674
opened,view,org.eclipse.jdt.ui,3.6.0.v20100602-1600,"org.eclipse.jdt.ui.SourceView",1457218875586
activated,view,org.eclipse.jdt.ui,3.6.0.v20100602-1600,"org.eclipse.jdt.ui.SourceView",1457218875594
activated,view,org.eclipse.ui.console,3.5.0.v20100526,"org.eclipse.ui.console.ConsoleView",1457218876151
activated,view,org.eclipse.jdt.ui,3.6.0.v20100602-1600,"org.eclipse.jdt.ui.PackageExplorer",1457218879603
activated,editor,org.eclipse.jdt.ui,3.6.0.v20100602-1600,"org.eclipse.jdt.ui.CompilationUnitEditor",1457218894018
activated,view,org.eclipse.jdt.ui,3.6.0.v20100602-1600,"org.eclipse.jdt.ui.PackageExplorer",1457218896727
executed,command,org.eclipse.jdt.debug.ui,3.5.0.v20100602-0830,"org.eclipse.jdt.debug.ui.localJavaShortcut.run",1457218899778
activated,view,org.eclipse.ui.console,3.5.0.v20100526,"org.eclipse.ui.console.ConsoleView",1457218900879
activated,editor,org.eclipse.jdt.ui,3.6.0.v20100602-1600,"org.eclipse.jdt.ui.CompilationUnitEditor",1457218908511
executed,command,org.eclipse.ui,3.6.0.I20100603-1100,"org.eclipse.ui.file.save",1457218912824
activated,view,org.eclipse.ui.console,3.5.0.v20100526,"org.eclipse.ui.console.ConsoleView",1457218915646
activated,editor,org.eclipse.jdt.ui,3.6.0.v20100602-1600,"org.eclipse.jdt.ui.CompilationUnitEditor",1457218927276
deactivated,workbench,org.eclipse.ui.workbench,3.6.0.I20100603-1100,"",1457218973126
activated,workbench,org.eclipse.ui.workbench,3.6.0.I20100603-1100,"",1457218976300
deactivated,workbench,org.eclipse.ui.workbench,3.6.0.I20100603-1100,"",1457218983544
activated,workbench,org.eclipse.ui.workbench,3.6.0.I20100603-1100,"",1457219044432
deactivated,workbench,org.eclipse.ui.workbench,3.6.0.I20100603-1100,"",1457219047447
activated,workbench,org.eclipse.ui.workbench,3.6.0.I20100603-1100,"",1457219049289
deactivated,workbench,org.eclipse.ui.workbench,3.6.0.I20100603-1100,"",1457219117532
activated,workbench,org.eclipse.ui.workbench,3.6.0.I20100603-1100,"",1457219123958
deactivated,workbench,org.eclipse.ui.workbench,3.6.0.I20100603-1100,"",1457219132765
activated,workbench,org.eclipse.ui.workbench,3.6.0.I20100603-1100,"",1457219132861
executed,command,org.eclipse.ui,3.6.0.I20100603-1100,"org.eclipse.ui.file.save",1457219234107
deactivated,workbench,org.eclipse.ui.workbench,3.6.0.I20100603-1100,"",1457219242940
activated,workbench,org.eclipse.ui.workbench,3.6.0.I20100603-1100,"",1457219262505
deactivated,workbench,org.eclipse.ui.workbench,3.6.0.I20100603-1100,"",1457219281110
activated,workbench,org.eclipse.ui.workbench,3.6.0.I20100603-1100,"",1457219294034
activated,editor,org.eclipse.jdt.ui,3.6.0.v20100602-1600,"org.eclipse.jdt.ui.CompilationUnitEditor",1457219297509
deactivated,workbench,org.eclipse.ui.workbench,3.6.0.I20100603-1100,"",1457219327229
activated,workbench,org.eclipse.ui.workbench,3.6.0.I20100603-1100,"",1457219329379
deactivated,workbench,org.eclipse.ui.workbench,3.6.0.I20100603-1100,"",1457219332859
activated,workbench,org.eclipse.ui.workbench,3.6.0.I20100603-1100,"",1457219343806
activated,editor,org.eclipse.jdt.ui,3.6.0.v20100602-1600,"org.eclipse.jdt.ui.CompilationUnitEditor",1457219354301
deactivated,workbench,org.eclipse.ui.workbench,3.6.0.I20100603-1100,"",1457219368097
activated,workbench,org.eclipse.ui.workbench,3.6.0.I20100603-1100,"",1457219483595
activated,editor,org.eclipse.jdt.ui,3.6.0.v20100602-1600,"org.eclipse.jdt.ui.CompilationUnitEditor",1457219484467
deactivated,workbench,org.eclipse.ui.workbench,3.6.0.I20100603-1100,"",1457219492039
activated,workbench,org.eclipse.ui.workbench,3.6.0.I20100603-1100,"",1457219514176
activated,editor,org.eclipse.jdt.ui,3.6.0.v20100602-1600,"org.eclipse.jdt.ui.CompilationUnitEditor",1457219521074
activated,editor,org.eclipse.jdt.ui,3.6.0.v20100602-1600,"org.eclipse.jdt.ui.CompilationUnitEditor",1457219523522
activated,editor,org.eclipse.jdt.ui,3.6.0.v20100602-1600,"org.eclipse.jdt.ui.CompilationUnitEditor",1457219535325
activated,editor,org.eclipse.jdt.ui,3.6.0.v20100602-1600,"org.eclipse.jdt.ui.CompilationUnitEditor",1457219553437
deactivated,workbench,org.eclipse.ui.workbench,3.6.0.I20100603-1100,"",1457219572283
activated,workbench,org.eclipse.ui.workbench,3.6.0.I20100603-1100,"",1457219683057
deactivated,workbench,org.eclipse.ui.workbench,3.6.0.I20100603-1100,"",1457219688173
activated,workbench,org.eclipse.ui.workbench,3.6.0.I20100603-1100,"",1457219956255
activated,editor,org.eclipse.jdt.ui,3.6.0.v20100602-1600,"org.eclipse.jdt.ui.CompilationUnitEditor",1457219961933
deactivated,workbench,org.eclipse.ui.workbench,3.6.0.I20100603-1100,"",1457219972493
activated,workbench,org.eclipse.ui.workbench,3.6.0.I20100603-1100,"",1457219987905
activated,view,org.eclipse.jdt.ui,3.6.0.v20100602-1600,"org.eclipse.jdt.ui.PackageExplorer",1457220010892
activated,view,org.eclipse.ui.console,3.5.0.v20100526,"org.eclipse.ui.console.ConsoleView",1457220016534
activated,view,org.eclipse.jdt.ui,3.6.0.v20100602-1600,"org.eclipse.jdt.ui.PackageExplorer",1457220021690
activated,editor,org.eclipse.jdt.ui,3.6.0.v20100602-1600,"org.eclipse.jdt.ui.CompilationUnitEditor",1457220022403
activated,view,org.eclipse.jdt.ui,3.6.0.v20100602-1600,"org.eclipse.jdt.ui.PackageExplorer",1457220028085
activated,editor,org.eclipse.jdt.ui,3.6.0.v20100602-1600,"org.eclipse.jdt.ui.CompilationUnitEditor",1457220034239
deactivated,workbench,org.eclipse.ui.workbench,3.6.0.I20100603-1100,"",1457220036067
activated,workbench,org.eclipse.ui.workbench,3.6.0.I20100603-1100,"",1457221491381
deactivated,workbench,org.eclipse.ui.workbench,3.6.0.I20100603-1100,"",1457221495440
activated,workbench,org.eclipse.ui.workbench,3.6.0.I20100603-1100,"",1457221540896
activated,editor,org.eclipse.jdt.ui,3.6.0.v20100602-1600,"org.eclipse.jdt.ui.CompilationUnitEditor",1457221541789
executed,command,org.eclipse.ui,3.6.0.I20100603-1100,"org.eclipse.ui.edit.paste",1457221548771
executed,command,org.eclipse.ui,3.6.0.I20100603-1100,"org.eclipse.ui.edit.paste",1457221550464
executed,command,org.eclipse.ui,3.6.0.I20100603-1100,"org.eclipse.ui.edit.undo",1457221551401
deactivated,workbench,org.eclipse.ui.workbench,3.6.0.I20100603-1100,"",1457221552852
activated,workbench,org.eclipse.ui.workbench,3.6.0.I20100603-1100,"",1457221555296
executed,command,org.eclipse.ui,3.6.0.I20100603-1100,"org.eclipse.ui.edit.paste",1457221556578
executed,command,org.eclipse.ui,3.6.0.I20100603-1100,"org.eclipse.ui.file.save",1457221562164
activated,editor,org.eclipse.jdt.ui,3.6.0.v20100602-1600,"org.eclipse.jdt.ui.CompilationUnitEditor",1457221562892
deactivated,workbench,org.eclipse.ui.workbench,3.6.0.I20100603-1100,"",1457221572955
activated,workbench,org.eclipse.ui.workbench,3.6.0.I20100603-1100,"",1457221586059
executed,command,org.eclipse.ui,3.6.0.I20100603-1100,"org.eclipse.ui.edit.paste",1457221587520
executed,command,org.eclipse.ui,3.6.0.I20100603-1100,"org.eclipse.ui.file.save",1457221623783
activated,view,org.eclipse.jdt.ui,3.6.0.v20100602-1600,"org.eclipse.jdt.ui.PackageExplorer",1457221627361
activated,editor,org.eclipse.jdt.ui,3.6.0.v20100602-1600,"org.eclipse.jdt.ui.CompilationUnitEditor",1457221629603
deactivated,workbench,org.eclipse.ui.workbench,3.6.0.I20100603-1100,"",1457221630835
activated,workbench,org.eclipse.ui.workbench,3.6.0.I20100603-1100,"",1457221640660
deactivated,workbench,org.eclipse.ui.workbench,3.6.0.I20100603-1100,"",1457221646943
