what,kind,bundleId,bundleVersion,description,time
started,bundle,org.eclipse.ltk.core.refactoring,3.5.100.v20100526-0800,"org.eclipse.ltk.core.refactoring",1460653342545
started,bundle,org.eclipse.ltk.ui.refactoring,3.5.0.v20100526-0800,"org.eclipse.ltk.ui.refactoring",1460653342545
started,bundle,org.eclipse.pde.launching,3.6.0.v20100601,"org.eclipse.pde.launching",1460653342545
started,bundle,org.eclipse.pde.ui,3.6.0.v20100601,"org.eclipse.pde.ui",1460653342584
started,bundle,org.eclipse.team.core,3.5.100.I20100527-0800,"org.eclipse.team.core",1460653342585
started,bundle,org.eclipse.team.cvs.core,3.3.300.I20100526-0800,"org.eclipse.team.cvs.core",1460653342587
started,bundle,org.eclipse.team.ui,3.5.100.I20100527-0800,"org.eclipse.team.ui",1460653342590
started,bundle,org.eclipse.ui,3.6.0.I20100603-1100,"org.eclipse.ui",1460653342726
started,bundle,org.eclipse.ui.console,3.5.0.v20100526,"org.eclipse.ui.console",1460653342728
started,bundle,org.eclipse.ui.editors,3.6.0.v20100520-0800,"org.eclipse.ui.editors",1460653342728
started,bundle,org.eclipse.ui.ide,3.6.0.I20100601-0800,"org.eclipse.ui.ide",1460653342843
started,bundle,org.eclipse.ui.net,1.2.100.I20100505-1245,"org.eclipse.ui.net",1460653342846
started,bundle,org.eclipse.ui.views,3.5.0.I20100527-0800,"org.eclipse.ui.views",1460653342848
started,bundle,org.eclipse.ui.views.log,1.0.100.v20100423,"org.eclipse.ui.views.log",1460653342849
started,bundle,org.eclipse.ui.workbench,3.6.0.I20100603-1100,"org.eclipse.ui.workbench",1460653342881
started,bundle,org.eclipse.ui.workbench.texteditor,3.6.0.v20100520-0800,"org.eclipse.ui.workbench.texteditor",1460653342881
started,bundle,org.eclipse.wst.common.emf,1.2.0.v201005200700,"org.eclipse.wst.common.emf",1460653342881
started,bundle,org.eclipse.wst.common.emfworkbench.integration,1.2.0.v201004110600,"org.eclipse.wst.common.emfworkbench.integration",1460653342881
started,bundle,org.eclipse.wst.common.frameworks,1.2.0.v201003040800,"org.eclipse.wst.common.frameworks",1460653342881
started,bundle,org.eclipse.wst.common.project.facet.core,1.4.100.v201005190114,"org.eclipse.wst.common.project.facet.core",1460653342881
started,bundle,org.eclipse.wst.jsdt.debug.ui,1.0.0.v201005250108,"org.eclipse.wst.jsdt.debug.ui",1460653342881
started,bundle,org.eclipse.wst.web,1.1.400.v201005270700,"org.eclipse.wst.web",1460653342881
os,sysinfo,,,"win32",1460653342898
arch,sysinfo,,,"x86_64",1460653342898
ws,sysinfo,,,"win32",1460653342898
locale,sysinfo,,,"en_US",1460653342898
processors,sysinfo,,,"8",1460653342898
java.runtime.name,sysinfo,,,"Java(TM) SE Runtime Environment",1460653342898
java.runtime.version,sysinfo,,,"1.8.0_66-b18",1460653342898
java.specification.name,sysinfo,,,"Java Platform API Specification",1460653342898
java.specification.vendor,sysinfo,,,"Oracle Corporation",1460653342898
java.specification.version,sysinfo,,,"1.8",1460653342898
java.vendor,sysinfo,,,"Oracle Corporation",1460653342898
java.version,sysinfo,,,"1.8.0_66",1460653342898
java.vm.info,sysinfo,,,"mixed mode",1460653342898
java.vm.name,sysinfo,,,"Java HotSpot(TM) 64-Bit Server VM",1460653342898
java.vm.specification.name,sysinfo,,,"Java Virtual Machine Specification",1460653342898
java.vm.specification.vendor,sysinfo,,,"Oracle Corporation",1460653342898
java.vm.specification.version,sysinfo,,,"1.8",1460653342898
java.vm.vendor,sysinfo,,,"Oracle Corporation",1460653342898
java.vm.version,sysinfo,,,"25.66-b18",1460653342898
started,bundle,org.eclipse.wst.common.core,1.2.0.v200908252030,"org.eclipse.wst.common.core",1460653342921
started,bundle,org.eclipse.wst.common.modulecore,1.2.0.v201005200200,"org.eclipse.wst.common.modulecore",1460653342921
started,bundle,org.eclipse.team.cvs.ui,3.3.300.I20100526-0800,"org.eclipse.team.cvs.ui",1460653343025
started,bundle,org.eclipse.mylyn.commons.net,3.4.0.v20100608-0100-e3x,"org.eclipse.mylyn.commons.net",1460653343195
started,bundle,org.eclipse.jst.j2ee.core,1.2.0.v201005200200,"org.eclipse.jst.j2ee.core",1460653343195
started,bundle,org.eclipse.jem,2.0.400.v201005110200,"org.eclipse.jem",1460653343318
started,bundle,org.eclipse.jst.common.project.facet.core,1.4.100.v201004202202,"org.eclipse.jst.common.project.facet.core",1460653343575
started,bundle,org.eclipse.jst.ws.jaxrs.core,1.0.0.v201005191955,"org.eclipse.jst.ws.jaxrs.core",1460653343631
started,bundle,org.eclipse.wst.common.frameworks.ui,1.2.0.v201004080500,"org.eclipse.wst.common.frameworks.ui",1460653343676
started,bundle,org.eclipse.wst.xml.core,1.1.500.v201005271618,"org.eclipse.wst.xml.core",1460653343734
started,bundle,org.eclipse.wst.validation,1.2.200.v201005271900,"org.eclipse.wst.validation",1460653343879
started,bundle,org.eclipse.epp.usagedata.ui,1.3.0.R201005261100,"org.eclipse.epp.usagedata.ui",1460653343994
started,bundle,org.eclipse.jst.j2ee,1.1.400.v201005271900,"org.eclipse.jst.j2ee",1460653344101
started,bundle,org.eclipse.jst.common.frameworks,1.1.400.v201005130500,"org.eclipse.jst.common.frameworks",1460653344123
started,bundle,org.eclipse.ui.forms,3.5.0.v20100427,"org.eclipse.ui.forms",1460653344275
started,bundle,org.eclipse.jem.workbench,2.0.300.v200910290230,"org.eclipse.jem.workbench",1460653344493
started,bundle,org.eclipse.jpt.core,2.3.0.v201006020000,"org.eclipse.jpt.core",1460653345015
started,bundle,org.eclipse.mylyn.commons.ui,3.4.0.v20100608-0100-e3x,"org.eclipse.mylyn.commons.ui",1460653345075
started,bundle,org.eclipse.mylyn.bugzilla.core,3.4.0.v20100608-0100-e3x,"org.eclipse.mylyn.bugzilla.core",1460653345883
started,bundle,org.eclipse.mylyn.bugzilla.ui,3.4.0.v20100608-0100-e3x,"org.eclipse.mylyn.bugzilla.ui",1460653346081
started,bundle,org.eclipse.jdt.junit.core,3.6.0.v20100526-0800,"org.eclipse.jdt.junit.core",1460653346083
started,bundle,org.eclipse.equinox.simpleconfigurator.manipulator,2.0.0.v20100503,"org.eclipse.equinox.simpleconfigurator.manipulator",1460653346100
started,bundle,org.eclipse.equinox.frameworkadmin,2.0.0.v20100503,"org.eclipse.equinox.frameworkadmin",1460653346231
started,bundle,org.eclipse.mylyn.context.core,3.4.0.v20100608-0100-e3x,"org.eclipse.mylyn.context.core",1460653346601
started,bundle,org.eclipse.mylyn.context.ui,3.4.0.v20100608-0100-e3x,"org.eclipse.mylyn.context.ui",1460653346635
started,bundle,org.eclipse.mylyn.tasks.ui,3.4.0.v20100608-0100-e3x,"org.eclipse.mylyn.tasks.ui",1460653347258
started,bundle,org.eclipse.mylyn.team.ui,3.4.0.v20100608-0100-e3x,"org.eclipse.mylyn.team.ui",1460653347296
started,bundle,org.eclipse.update.scheduler,3.2.300.v20100512,"org.eclipse.update.scheduler",1460653347317
started,bundle,org.eclipse.wst.dtd.core,1.1.400.v201004290328,"org.eclipse.wst.dtd.core",1460653349494
started,bundle,org.eclipse.wst.sse.ui,1.2.0.v201006030742,"org.eclipse.wst.sse.ui",1460653350062
started,bundle,org.eclipse.wst.html.ui,1.0.500.v201006030742,"org.eclipse.wst.html.ui",1460653350062
started,bundle,org.eclipse.wst.sse.core,1.1.500.v201006020308,"org.eclipse.wst.sse.core",1460653350310
started,bundle,org.eclipse.jst.jsf.common,1.2.0.v20100604,"org.eclipse.jst.jsf.common",1460653350784
started,bundle,org.eclipse.jst.jsf.core,1.3.0.v20100602,"org.eclipse.jst.jsf.core",1460653350814
deactivated,workbench,org.eclipse.ui.workbench,3.6.0.I20100603-1100,"",1460653351655
started,bundle,org.eclipse.jst.jsp.core,1.2.300.v201005271731,"org.eclipse.jst.jsp.core",1460653351874
started,bundle,org.eclipse.update.configurator,3.3.100.v20100512,"org.eclipse.update.configurator",1460653352986
started,bundle,org.eclipse.update.core,3.2.400.v20100512,"org.eclipse.update.core",1460653353061
started,bundle,org.eclipse.wst.wsdl.validation,1.1.501.v201004201506,"org.eclipse.wst.wsdl.validation",1460653353131
started,bundle,org.eclipse.wst.xsd.core,1.1.501.v201004110600,"org.eclipse.wst.xsd.core",1460653353319
started,bundle,org.eclipse.wst.xsl.core,1.1.0.v201004290328,"org.eclipse.wst.xsl.core",1460653353507
activated,workbench,org.eclipse.ui.workbench,3.6.0.I20100603-1100,"",1460653357602
activated,view,org.eclipse.ui.console,3.5.0.v20100526,"org.eclipse.ui.console.ConsoleView",1460653357672
deactivated,workbench,org.eclipse.ui.workbench,3.6.0.I20100603-1100,"",1460653370000
activated,workbench,org.eclipse.ui.workbench,3.6.0.I20100603-1100,"",1460653574831
activated,editor,org.eclipse.jdt.ui,3.6.0.v20100602-1600,"org.eclipse.jdt.ui.CompilationUnitEditor",1460653578388
activated,view,org.eclipse.ui.console,3.5.0.v20100526,"org.eclipse.ui.console.ConsoleView",1460653578517
closed,editor,org.eclipse.jdt.ui,3.6.0.v20100602-1600,"org.eclipse.jdt.ui.CompilationUnitEditor",1460653578566
activated,view,org.eclipse.jdt.ui,3.6.0.v20100602-1600,"org.eclipse.jdt.ui.PackageExplorer",1460653580003
executed,command,org.eclipse.ui.ide,3.6.0.I20100601-0800,"org.eclipse.ui.file.newQuickMenu",1460653589671
deactivated,workbench,org.eclipse.ui.workbench,3.6.0.I20100603-1100,"",1460653594731
activated,workbench,org.eclipse.ui.workbench,3.6.0.I20100603-1100,"",1460653606007
started,bundle,org.eclipse.compare,3.5.100.I20100526-0800,"org.eclipse.compare",1460653608732
deactivated,workbench,org.eclipse.ui.workbench,3.6.0.I20100603-1100,"",1460653612440
activated,workbench,org.eclipse.ui.workbench,3.6.0.I20100603-1100,"",1460653624528
opened,editor,org.eclipse.jdt.ui,3.6.0.v20100602-1600,"org.eclipse.jdt.ui.CompilationUnitEditor",1460653625022
activated,editor,org.eclipse.jdt.ui,3.6.0.v20100602-1600,"org.eclipse.jdt.ui.CompilationUnitEditor",1460653625098
deactivated,workbench,org.eclipse.ui.workbench,3.6.0.I20100603-1100,"",1460653628131
activated,workbench,org.eclipse.ui.workbench,3.6.0.I20100603-1100,"",1460653629724
deactivated,workbench,org.eclipse.ui.workbench,3.6.0.I20100603-1100,"",1460653630550
activated,workbench,org.eclipse.ui.workbench,3.6.0.I20100603-1100,"",1460653632246
deactivated,workbench,org.eclipse.ui.workbench,3.6.0.I20100603-1100,"",1460653632817
activated,workbench,org.eclipse.ui.workbench,3.6.0.I20100603-1100,"",1460653695760
activated,view,org.eclipse.jdt.ui,3.6.0.v20100602-1600,"org.eclipse.jdt.ui.PackageExplorer",1460653697239
deactivated,workbench,org.eclipse.ui.workbench,3.6.0.I20100603-1100,"",1460653699564
started,bundle,org.eclipse.wst.jsdt.manipulation,1.0.200.v201004150600,"org.eclipse.wst.jsdt.manipulation",1460653700900
started,bundle,org.eclipse.wst.jsdt.core,1.1.0.v201006030738,"org.eclipse.wst.jsdt.core",1460653701232
started,bundle,org.eclipse.wst.jsdt.ui,1.1.0.v201005200157,"org.eclipse.wst.jsdt.ui",1460653701486
closed,editor,org.eclipse.jdt.ui,3.6.0.v20100602-1600,"org.eclipse.jdt.ui.CompilationUnitEditor",1460653702353
activated,workbench,org.eclipse.ui.workbench,3.6.0.I20100603-1100,"",1460653702464
executed,command,org.eclipse.ui,3.6.0.I20100603-1100,"org.eclipse.ui.edit.delete",1460653702722
deactivated,workbench,org.eclipse.ui.workbench,3.6.0.I20100603-1100,"",1460653708767
activated,workbench,org.eclipse.ui.workbench,3.6.0.I20100603-1100,"",1460653718964
opened,editor,org.eclipse.jdt.ui,3.6.0.v20100602-1600,"org.eclipse.jdt.ui.CompilationUnitEditor",1460653719446
activated,editor,org.eclipse.jdt.ui,3.6.0.v20100602-1600,"org.eclipse.jdt.ui.CompilationUnitEditor",1460653719515
deactivated,workbench,org.eclipse.ui.workbench,3.6.0.I20100603-1100,"",1460653721187
activated,workbench,org.eclipse.ui.workbench,3.6.0.I20100603-1100,"",1460653757511
deactivated,workbench,org.eclipse.ui.workbench,3.6.0.I20100603-1100,"",1460653760854
activated,workbench,org.eclipse.ui.workbench,3.6.0.I20100603-1100,"",1460653823729
deactivated,workbench,org.eclipse.ui.workbench,3.6.0.I20100603-1100,"",1460653826651
activated,workbench,org.eclipse.ui.workbench,3.6.0.I20100603-1100,"",1460653829138
started,bundle,org.eclipse.mylyn.ide.ui,3.4.0.v20100608-0100-e3x,"org.eclipse.mylyn.ide.ui",1460653832993
started,bundle,org.eclipse.jst.ws.jaxws.ui,1.0.0.v201004262257,"org.eclipse.jst.ws.jaxws.ui",1460653833021
started,bundle,org.eclipse.mylyn.java.ui,3.4.0.v20100608-0100-e3x,"org.eclipse.mylyn.java.ui",1460653833060
started,bundle,org.eclipse.pde.api.tools,1.0.201.v20100602-0930,"org.eclipse.pde.api.tools",1460653833315
started,bundle,org.eclipse.pde.api.tools.ui,1.0.200.v20100601-1815,"org.eclipse.pde.api.tools.ui",1460653833318
started,bundle,org.eclipse.jdt.junit,3.6.0.v20100526-0800,"org.eclipse.jdt.junit",1460653834239
deactivated,workbench,org.eclipse.ui.workbench,3.6.0.I20100603-1100,"",1460653837623
activated,workbench,org.eclipse.ui.workbench,3.6.0.I20100603-1100,"",1460654105072
deactivated,workbench,org.eclipse.ui.workbench,3.6.0.I20100603-1100,"",1460654131819
activated,workbench,org.eclipse.ui.workbench,3.6.0.I20100603-1100,"",1460654132748
deactivated,workbench,org.eclipse.ui.workbench,3.6.0.I20100603-1100,"",1460654133171
activated,workbench,org.eclipse.ui.workbench,3.6.0.I20100603-1100,"",1460654197065
deactivated,workbench,org.eclipse.ui.workbench,3.6.0.I20100603-1100,"",1460654204044
activated,workbench,org.eclipse.ui.workbench,3.6.0.I20100603-1100,"",1460654204838
deactivated,workbench,org.eclipse.ui.workbench,3.6.0.I20100603-1100,"",1460654205388
activated,workbench,org.eclipse.ui.workbench,3.6.0.I20100603-1100,"",1460654281212
deactivated,workbench,org.eclipse.ui.workbench,3.6.0.I20100603-1100,"",1460654283741
activated,workbench,org.eclipse.ui.workbench,3.6.0.I20100603-1100,"",1460654317495
deactivated,workbench,org.eclipse.ui.workbench,3.6.0.I20100603-1100,"",1460654318105
activated,workbench,org.eclipse.ui.workbench,3.6.0.I20100603-1100,"",1460654401512
activated,view,org.eclipse.ui.console,3.5.0.v20100526,"org.eclipse.ui.console.ConsoleView",1460654401565
activated,editor,org.eclipse.jdt.ui,3.6.0.v20100602-1600,"org.eclipse.jdt.ui.CompilationUnitEditor",1460654402269
deactivated,workbench,org.eclipse.ui.workbench,3.6.0.I20100603-1100,"",1460654403683
activated,workbench,org.eclipse.ui.workbench,3.6.0.I20100603-1100,"",1460654560533
deactivated,workbench,org.eclipse.ui.workbench,3.6.0.I20100603-1100,"",1460654567716
activated,workbench,org.eclipse.ui.workbench,3.6.0.I20100603-1100,"",1460654570308
deactivated,workbench,org.eclipse.ui.workbench,3.6.0.I20100603-1100,"",1460654575595
activated,workbench,org.eclipse.ui.workbench,3.6.0.I20100603-1100,"",1460654577173
deactivated,workbench,org.eclipse.ui.workbench,3.6.0.I20100603-1100,"",1460654593681
activated,workbench,org.eclipse.ui.workbench,3.6.0.I20100603-1100,"",1460654595580
deactivated,workbench,org.eclipse.ui.workbench,3.6.0.I20100603-1100,"",1460654608273
activated,workbench,org.eclipse.ui.workbench,3.6.0.I20100603-1100,"",1460654610269
deactivated,workbench,org.eclipse.ui.workbench,3.6.0.I20100603-1100,"",1460654628394
activated,workbench,org.eclipse.ui.workbench,3.6.0.I20100603-1100,"",1460654633319
deactivated,workbench,org.eclipse.ui.workbench,3.6.0.I20100603-1100,"",1460654691684
activated,workbench,org.eclipse.ui.workbench,3.6.0.I20100603-1100,"",1460654699150
deactivated,workbench,org.eclipse.ui.workbench,3.6.0.I20100603-1100,"",1460654712699
activated,workbench,org.eclipse.ui.workbench,3.6.0.I20100603-1100,"",1460654757323
deactivated,workbench,org.eclipse.ui.workbench,3.6.0.I20100603-1100,"",1460654777648
activated,workbench,org.eclipse.ui.workbench,3.6.0.I20100603-1100,"",1460654782967
activated,view,org.eclipse.jdt.ui,3.6.0.v20100602-1600,"org.eclipse.jdt.ui.PackageExplorer",1460654786649
activated,editor,org.eclipse.jdt.ui,3.6.0.v20100602-1600,"org.eclipse.jdt.ui.CompilationUnitEditor",1460654786702
deactivated,workbench,org.eclipse.ui.workbench,3.6.0.I20100603-1100,"",1460654820753
activated,workbench,org.eclipse.ui.workbench,3.6.0.I20100603-1100,"",1460654820818
deactivated,workbench,org.eclipse.ui.workbench,3.6.0.I20100603-1100,"",1460654833084
activated,workbench,org.eclipse.ui.workbench,3.6.0.I20100603-1100,"",1460654835445
deactivated,workbench,org.eclipse.ui.workbench,3.6.0.I20100603-1100,"",1460654844911
activated,workbench,org.eclipse.ui.workbench,3.6.0.I20100603-1100,"",1460654865543
activated,view,org.eclipse.jdt.ui,3.6.0.v20100602-1600,"org.eclipse.jdt.ui.PackageExplorer",1460654873683
opened,editor,org.eclipse.jdt.ui,3.6.0.v20100602-1600,"org.eclipse.jdt.ui.CompilationUnitEditor",1460654879460
activated,editor,org.eclipse.jdt.ui,3.6.0.v20100602-1600,"org.eclipse.jdt.ui.CompilationUnitEditor",1460654879511
activated,editor,org.eclipse.jdt.ui,3.6.0.v20100602-1600,"org.eclipse.jdt.ui.CompilationUnitEditor",1460654885300
deactivated,workbench,org.eclipse.ui.workbench,3.6.0.I20100603-1100,"",1460654899520
activated,workbench,org.eclipse.ui.workbench,3.6.0.I20100603-1100,"",1460654900609
deactivated,workbench,org.eclipse.ui.workbench,3.6.0.I20100603-1100,"",1460654938053
activated,workbench,org.eclipse.ui.workbench,3.6.0.I20100603-1100,"",1460655014337
activated,editor,org.eclipse.jdt.ui,3.6.0.v20100602-1600,"org.eclipse.jdt.ui.CompilationUnitEditor",1460655018087
executed,command,org.eclipse.ui,3.6.0.I20100603-1100,"org.eclipse.ui.edit.copy",1460655029165
activated,editor,org.eclipse.jdt.ui,3.6.0.v20100602-1600,"org.eclipse.jdt.ui.CompilationUnitEditor",1460655030251
executed,command,org.eclipse.ui,3.6.0.I20100603-1100,"org.eclipse.ui.edit.paste",1460655031488
deactivated,workbench,org.eclipse.ui.workbench,3.6.0.I20100603-1100,"",1460655063883
activated,workbench,org.eclipse.ui.workbench,3.6.0.I20100603-1100,"",1460655164223
deactivated,workbench,org.eclipse.ui.workbench,3.6.0.I20100603-1100,"",1460655165761
activated,workbench,org.eclipse.ui.workbench,3.6.0.I20100603-1100,"",1460655170923
deactivated,workbench,org.eclipse.ui.workbench,3.6.0.I20100603-1100,"",1460655185430
activated,workbench,org.eclipse.ui.workbench,3.6.0.I20100603-1100,"",1460655187743
executed,command,org.eclipse.ui.workbench.texteditor,3.6.0.v20100520-0800,"org.eclipse.ui.edit.text.goto.lineEnd",1460655195915
deactivated,workbench,org.eclipse.ui.workbench,3.6.0.I20100603-1100,"",1460655205777
activated,workbench,org.eclipse.ui.workbench,3.6.0.I20100603-1100,"",1460655214189
deactivated,workbench,org.eclipse.ui.workbench,3.6.0.I20100603-1100,"",1460655259798
activated,workbench,org.eclipse.ui.workbench,3.6.0.I20100603-1100,"",1460655266553
deactivated,workbench,org.eclipse.ui.workbench,3.6.0.I20100603-1100,"",1460655373369
activated,workbench,org.eclipse.ui.workbench,3.6.0.I20100603-1100,"",1460655439837
deactivated,workbench,org.eclipse.ui.workbench,3.6.0.I20100603-1100,"",1460655443410
activated,workbench,org.eclipse.ui.workbench,3.6.0.I20100603-1100,"",1460655447727
deactivated,workbench,org.eclipse.ui.workbench,3.6.0.I20100603-1100,"",1460655455222
activated,workbench,org.eclipse.ui.workbench,3.6.0.I20100603-1100,"",1460655457120
deactivated,workbench,org.eclipse.ui.workbench,3.6.0.I20100603-1100,"",1460655460564
activated,workbench,org.eclipse.ui.workbench,3.6.0.I20100603-1100,"",1460655653111
deactivated,workbench,org.eclipse.ui.workbench,3.6.0.I20100603-1100,"",1460655660659
activated,workbench,org.eclipse.ui.workbench,3.6.0.I20100603-1100,"",1460655749580
deactivated,workbench,org.eclipse.ui.workbench,3.6.0.I20100603-1100,"",1460655766739
activated,workbench,org.eclipse.ui.workbench,3.6.0.I20100603-1100,"",1460655847489
started,bundle,org.eclipse.jst.ws.annotations.core,1.0.0.v201004262257,"org.eclipse.jst.ws.annotations.core",1460655863785
deactivated,workbench,org.eclipse.ui.workbench,3.6.0.I20100603-1100,"",1460655878655
activated,workbench,org.eclipse.ui.workbench,3.6.0.I20100603-1100,"",1460655878801
deactivated,workbench,org.eclipse.ui.workbench,3.6.0.I20100603-1100,"",1460655888853
activated,workbench,org.eclipse.ui.workbench,3.6.0.I20100603-1100,"",1460655914760
deactivated,workbench,org.eclipse.ui.workbench,3.6.0.I20100603-1100,"",1460655951172
activated,workbench,org.eclipse.ui.workbench,3.6.0.I20100603-1100,"",1460655951318
activated,editor,org.eclipse.jdt.ui,3.6.0.v20100602-1600,"org.eclipse.jdt.ui.CompilationUnitEditor",1460655959718
executed,command,org.eclipse.ui,3.6.0.I20100603-1100,"org.eclipse.ui.edit.copy",1460655969819
activated,editor,org.eclipse.jdt.ui,3.6.0.v20100602-1600,"org.eclipse.jdt.ui.CompilationUnitEditor",1460655971311
executed,command,org.eclipse.ui,3.6.0.I20100603-1100,"org.eclipse.ui.edit.paste",1460655974694
deactivated,workbench,org.eclipse.ui.workbench,3.6.0.I20100603-1100,"",1460655981040
activated,workbench,org.eclipse.ui.workbench,3.6.0.I20100603-1100,"",1460655981757
executed,command,org.eclipse.ui,3.6.0.I20100603-1100,"org.eclipse.ui.file.save",1460656010243
started,bundle,org.eclipse.debug.ui,3.6.0.v20100601-1530,"org.eclipse.debug.ui",1460656016996
started,bundle,org.eclipse.wst.server.core,1.1.202.v20100518,"org.eclipse.wst.server.core",1460656017332
started,bundle,org.eclipse.wst.server.ui,1.1.203.v20100601,"org.eclipse.wst.server.ui",1460656017354
started,bundle,org.eclipse.jdt.debug,3.6.0.v20100526,"org.eclipse.jdt.debug",1460656017527
started,bundle,org.eclipse.jdt.debug.ui,3.5.0.v20100602-0830,"org.eclipse.jdt.debug.ui",1460656017746
error,log,,,"Launch configuration JUnitCore references non-existing project TestJunit.",1460656017817
deactivated,workbench,org.eclipse.ui.workbench,3.6.0.I20100603-1100,"",1460656018710
activated,workbench,org.eclipse.ui.workbench,3.6.0.I20100603-1100,"",1460656021037
activated,view,org.eclipse.jdt.ui,3.6.0.v20100602-1600,"org.eclipse.jdt.ui.PackageExplorer",1460656023698
executed,command,org.eclipse.jdt.debug.ui,3.5.0.v20100602-0830,"org.eclipse.jdt.debug.ui.localJavaShortcut.run",1460656027282
started,bundle,org.eclipse.core.variables,3.2.400.v20100505,"org.eclipse.core.variables",1460656027561
activated,view,org.eclipse.ui.console,3.5.0.v20100526,"org.eclipse.ui.console.ConsoleView",1460656029573
activated,editor,org.eclipse.jdt.ui,3.6.0.v20100602-1600,"org.eclipse.jdt.ui.CompilationUnitEditor",1460656035025
deactivated,workbench,org.eclipse.ui.workbench,3.6.0.I20100603-1100,"",1460656063818
activated,workbench,org.eclipse.ui.workbench,3.6.0.I20100603-1100,"",1460656071870
deactivated,workbench,org.eclipse.ui.workbench,3.6.0.I20100603-1100,"",1460656072865
activated,workbench,org.eclipse.ui.workbench,3.6.0.I20100603-1100,"",1460656074481
deactivated,workbench,org.eclipse.ui.workbench,3.6.0.I20100603-1100,"",1460656116780
activated,workbench,org.eclipse.ui.workbench,3.6.0.I20100603-1100,"",1460656116926
deactivated,workbench,org.eclipse.ui.workbench,3.6.0.I20100603-1100,"",1460656140098
activated,workbench,org.eclipse.ui.workbench,3.6.0.I20100603-1100,"",1460656142988
deactivated,workbench,org.eclipse.ui.workbench,3.6.0.I20100603-1100,"",1460656147124
activated,workbench,org.eclipse.ui.workbench,3.6.0.I20100603-1100,"",1460656165907
deactivated,workbench,org.eclipse.ui.workbench,3.6.0.I20100603-1100,"",1460656172441
activated,workbench,org.eclipse.ui.workbench,3.6.0.I20100603-1100,"",1460656172586
executed,command,org.eclipse.ui,3.6.0.I20100603-1100,"org.eclipse.ui.edit.copy",1460656189977
executed,command,org.eclipse.ui,3.6.0.I20100603-1100,"org.eclipse.ui.edit.paste",1460656193677
deactivated,workbench,org.eclipse.ui.workbench,3.6.0.I20100603-1100,"",1460656205575
activated,workbench,org.eclipse.ui.workbench,3.6.0.I20100603-1100,"",1460656205719
executed,command,org.eclipse.ui,3.6.0.I20100603-1100,"org.eclipse.ui.file.save",1460656230675
started,bundle,org.eclipse.jst.server.core,1.2.101.v20100421,"org.eclipse.jst.server.core",1460656230850
started,bundle,org.eclipse.jst.jee,1.0.300.v201005191301,"org.eclipse.jst.jee",1460656230899
deactivated,workbench,org.eclipse.ui.workbench,3.6.0.I20100603-1100,"",1460656276603
activated,workbench,org.eclipse.ui.workbench,3.6.0.I20100603-1100,"",1460656281995
executed,command,org.eclipse.ui,3.6.0.I20100603-1100,"org.eclipse.ui.file.save",1460656325005
activated,view,org.eclipse.ui.console,3.5.0.v20100526,"org.eclipse.ui.console.ConsoleView",1460656332261
activated,editor,org.eclipse.jdt.ui,3.6.0.v20100602-1600,"org.eclipse.jdt.ui.CompilationUnitEditor",1460656334072
executed,command,org.eclipse.ui,3.6.0.I20100603-1100,"org.eclipse.ui.edit.undo",1460656341122
executed,command,org.eclipse.ui,3.6.0.I20100603-1100,"org.eclipse.ui.file.save",1460656381269
activated,view,org.eclipse.ui.console,3.5.0.v20100526,"org.eclipse.ui.console.ConsoleView",1460656384043
activated,editor,org.eclipse.jdt.ui,3.6.0.v20100602-1600,"org.eclipse.jdt.ui.CompilationUnitEditor",1460656392921
deactivated,workbench,org.eclipse.ui.workbench,3.6.0.I20100603-1100,"",1460656397807
activated,workbench,org.eclipse.ui.workbench,3.6.0.I20100603-1100,"",1460656401042
executed,command,org.eclipse.ui,3.6.0.I20100603-1100,"org.eclipse.ui.edit.undo",1460656533612
executed,command,org.eclipse.ui,3.6.0.I20100603-1100,"org.eclipse.ui.edit.undo",1460656534128
executed,command,org.eclipse.ui,3.6.0.I20100603-1100,"org.eclipse.ui.edit.cut",1460656535171
executed,command,org.eclipse.ui,3.6.0.I20100603-1100,"org.eclipse.ui.edit.paste",1460656543538
executed,command,org.eclipse.ui,3.6.0.I20100603-1100,"org.eclipse.ui.file.save",1460656555899
activated,view,org.eclipse.ui.console,3.5.0.v20100526,"org.eclipse.ui.console.ConsoleView",1460656558646
activated,editor,org.eclipse.jdt.ui,3.6.0.v20100602-1600,"org.eclipse.jdt.ui.CompilationUnitEditor",1460656562445
deactivated,workbench,org.eclipse.ui.workbench,3.6.0.I20100603-1100,"",1460656563975
activated,workbench,org.eclipse.ui.workbench,3.6.0.I20100603-1100,"",1460656600665
executed,command,org.eclipse.ui,3.6.0.I20100603-1100,"org.eclipse.ui.file.save",1460656611965
activated,view,org.eclipse.ui.console,3.5.0.v20100526,"org.eclipse.ui.console.ConsoleView",1460656615442
activated,editor,org.eclipse.jdt.ui,3.6.0.v20100602-1600,"org.eclipse.jdt.ui.CompilationUnitEditor",1460656620130
deactivated,workbench,org.eclipse.ui.workbench,3.6.0.I20100603-1100,"",1460656657007
