<?xml version="1.0" encoding="UTF-8"?>
<session version="1.0">
<refactoring comment="Delete resource &apos;Project 3&apos;" deleteContents="false" description="Delete resource &apos;Project 3&apos;" element1="/Project 3" flags="7" id="org.eclipse.ltk.core.refactoring.delete.resources" resources="1" stamp="1481158896520"/>
</session>