1:*6<aF'Z!Kcs:QW]Y]Xz`O[r*;dubjpLt'hVLp3M<vCVIx6#Xl :?
1:Its?W`1&U8m/d^@4z8UQ_Nhb(U`Bt<O?3E\h&mo[']hk>,!;BTl$$Uf,,GL#c{@tC{_GkO%p/n_Mx^f
1:*6<aF'Z!Kcs:QW]Y]Xz`O[r*;dubjpLt'hVLp3M<vCVIx6#Xl :?
1:Its?W`1&U8m/d^@4z8UQ_Nhb(U`Bt<O?3E\h&mo[']hk>,!;BTl$$Uf,,GL#c{@tC{_GkO%p/n_Mx^f
1:*6<aF'Z!Kcs:QW]Y]Xz`O[r*;dubjpLt'hVLp3M<vCVIx6#Xl :?
1:Its?W`1&U8m/d^@4z8UQ_Nhb(U`Bt<O?3E\h&mo[']hk>,!;BTl$$Uf,,GL#c{@tC{_GkO%p/n_Mx^f
1:*6<aF'Z!Kcs:QW]Y]Xz`O[r*;dubjpLt'hVLp3M<vCVIx6#Xl :?
1:Its?W`1&U8m/d^@4z8UQ_Nhb(U`Bt<O?3E\h&mo[']hk>,!;BTl$$Uf,,GL#c{@tC{_GkO%p/n_Mx^f
1:*6<aF'Z!Kcs:QW]Y]Xz`O[r*;dubjpLt'hVLp3M<vCVIx6#Xl :?
1:Its?W`1&U8m/d^@4z8UQ_Nhb(U`Bt<O?3E\h&mo[']hk>,!;BTl$$Uf,,GL#c{@tC{_GkO%p/n_Mx^f
1:*6<aF'Z!Kcs:QW]Y]Xz`O[r*;dubjpLt'hVLp3M<vCVIx6#Xl :?
1:Its?W`1&U8m/d^@4z8UQ_Nhb(U`Bt<O?3E\h&mo[']hk>,!;BTl$$Uf,,GL#c{@tC{_GkO%p/n_Mx^f
1:*6<aF'Z!Kcs:QW]Y]Xz`O[r*;dubjpLt'hVLp3M<vCVIx6#Xl :?
1:Its?W`1&U8m/d^@4z8UQ_Nhb(U`Bt<O?3E\h&mo[']hk>,!;BTl$$Uf,,GL#c{@tC{_GkO%p/n_Mx^f
