2:1 a message for 2
2:2 a message for 2
2:3 a message for 2
2:4 a message for 2
2:5 a message for 2
2:6 a message for 2
2:1 a message for 2
2:2 a message for 2
2:3 a message for 2
2:4 a message for 2
2:5 a message for 2
2:6 a message for 2
2:1 a message for 2
2:2 a message for 2
2:3 a message for 2
2:4 a message for 2
2:5 a message for 2
2:6 a message for 2
2:1 a message for 2
2:2 a message for 2
2:3 a message for 2
2:4 a message for 2
2:5 a message for 2
2:1 a message for 2
2:2 a message for 2
2:3 a message for 2
2:4 a message for 2
2:5 a message for 2
2:6 a message for 2
2:1 a message for 2
2:2 a message for 2
2:3 a message for 2
2:4 a message for 2
2:5 a message for 2
2:6 a message for 2
2:1 a message for 2
2:2 a message for 2
2:3 a message for 2
2:4 a message for 2
2:5 a message for 2
2:6 a message for 2
