| in  | sel  |  a  |  b  |  c  |  d  |  e  |  f  |  g  |  h  |
|  0  |  00  |  0  |  0  |  0  |  0  |  0  |  0  |  0  |  0  |
|  0  |  01  |  0  |  0  |  0  |  0  |  0  |  0  |  0  |  0  |
|  0  |  10  |  0  |  0  |  0  |  0  |  0  |  0  |  0  |  0  |
|  0  |  11  |  0  |  0  |  0  |  0  |  0  |  0  |  0  |  0  |
|  0  |  00  |  0  |  0  |  0  |  0  |  0  |  0  |  0  |  0  |
|  0  |  01  |  0  |  0  |  0  |  0  |  0  |  0  |  0  |  0  |
|  0  |  10  |  0  |  0  |  0  |  0  |  0  |  0  |  0  |  0  |
|  0  |  11  |  0  |  0  |  0  |  0  |  0  |  0  |  0  |  0  |
|  1  |  00  |  0  |  0  |  0  |  0  |  0  |  0  |  0  |  0  |
|  1  |  01  |  0  |  0  |  0  |  0  |  0  |  0  |  0  |  0  |
|  1  |  10  |  0  |  0  |  0  |  0  |  0  |  0  |  0  |  0  |
|  1  |  11  |  0  |  0  |  0  |  0  |  0  |  0  |  0  |  0  |
|  1  |  00  |  0  |  0  |  0  |  0  |  0  |  0  |  0  |  0  |
|  1  |  01  |  0  |  0  |  0  |  0  |  0  |  0  |  0  |  0  |
|  1  |  10  |  0  |  0  |  0  |  0  |  0  |  0  |  0  |  0  |
|  1  |  11  |  0  |  0  |  0  |  0  |  0  |  0  |  0  |  0  |
