5:OZp mQ,?0[ 7
6:%@zR<hoArJ%?k;L7V
25:8[MgK*M1+OH
41:f;1PqnXx-ZGUh&:#``P0=QQ;pk65 zPf6_9+Po$[KJ46PN:42hDM<si/a"Ea{sK2Sb;'S@`!jt5;DMOV8r$U
46:8P&ONDu.EM-VO{j]-YI|urP17g8zRB*jp0<AR4Nw`[N0
59:@y+OY `n7tDJfuH0JxjQeS>4`AMYa=^$7gRqh5` *%Hq{p$FjlwRA8g$X7^<R?>j*p\p&?n1D9#@*
66:dyGm|/XF4!5gh^pu:(`e8"B;22f?JLr2F< CKXj]W G@^;9vAy^Yy!t,3[L^(
71:aD>S0x]_c8PKP[]0]Np:kVoeI\_*ynE[3c1A^o#E(QpY/Nil|\)h4xQ]V3gP"-.5p>TR.Xu6,fo:8Y'57/!K(R+\cp/d <y
76:u-p$ofU!I<fTlSc* n#5KQWkzyb6<V12b"6Ti
93:]`Rr:hX[Qm"n%mMpy3!D<r?]&_S9yG#Y(VLCA'|pt|`wl0jgAk.^aK<e+m!'
102:6%y>?[ltT>{z\tu*o_v4xe?'C0S+DG*ZL$xj_g_4&^1aS'kCfbXaJwgk*=vNb#)1%$ydl\vp=(Tp/@7v%mXMeB9m]2
115:*8Qr]Z+|2a.ZO,P*_(]\h4%{;F;B_e3i|e\ZBhYTJf/yr_$Rea2Qu5O4Y
123:W]c]Dmr\W8xMj:BKWucaG|mk^wW.a/R;l8
