4:bk@so|lq1EsM)lQy^8U[X?$?o_"-1n;s\[iLZV>i{57("h$a$W?ZvAyf!zs0
4:yNX|Tq<^,6fk9:t fy$7sMecQ_V$93z6_T37FOsRf]@ w7 `2"u&O\i!<@#UT i4T I
8:,kM|7^O:^0s>3oi(\zl|,
14:0@&?'=/ku-\!C@q!(O0CSGfrP9gJ;oNK3Rj:oy'e'cfJ$XJ++ZN\$7ORO9|j*L8;!$Sq{ZW
17:9LfN/hP)HCvC=:C'YwuyCG!8&sX6-<+Ehpsu[D $gvF%1g-
20:,1N"3O18|!<%%:pk;j54YBrVGodH]F@iUmii?{"<|<B$V3pq!&&
22:L$h!Y+WOru=-!oshLh.'71x9!H{ATZf!\O"8ZWfMO$ZOtO:C8FIPUDgWjdxAA_A|2C7jy{9K#sxuC3
22:Go^2Q1CUH *mT$rKl!t6IUA<tM4hB_fiQE{%W?Z =dmqfb=Va2j,f.H]Y[F{=-enScs+&N+C5
28:b_Az>%4< p:w]PmgfQ?$]xLxYWjai;uNz7
