187:4nEi3;eu9F{Zv\S177(\AMV _eq[hL|z<BfO]NEurDRl#'{8>%t_RK]34Qnz|lw;/^hm0/c%S8o
29:lm^qd@D3|UENG@M4:fCvP1)_t-30zgOgU.Y=M!NLTqzy4K0
241:TEbcMB[XUkS@;>uJw3wv_DNQAJej[2 0X`s&&Q^[=4yWRp$K$yDb@r6_>zMw/K*g,{m2NLlkafE4WG]ZA%?auUD6Ro0`;
25:G59XccEOE.sZd=:A_=`A66cJiUYLpot;'.sjp;=8G3p.N,O.I0P]G6)3jb]]TRv\_jGR&bjNu^ZEh+S4;&pb;yu(
202:c3']mfJ89Qz& qbX9Mcj`"oSd-M[3,1v?8T.|"D8Q?=O3 *JLn8/p(`W5
247:H:E?Y[tgYt,oFL/u]. +ZnAg_IH8\VK%ppDJM93)0?vTk)LL7MUo<vY|@$7|Z`$MRFw"`-)n
252:F9)pe@>=2[4iXTmmQJP
173:%zn%[y.JG/na8bGW#eg\wT7OB'!mVUc[PR_.OmVvzHX6-#m.hUk`,#2O)4=_g!;:TzH$i|zfGV|TYjaBAO%KP6xY
212:;28ULjRrn>qi&:B#nylP<0 B[QVW-!mI1&![pQN_n@LtZnwJifz(t{HSO!+\ x&/ %jnW9QHZ 
142:l5_X|[_qY*G)*Rc(Lj8Jm#;G=lmuj+-ZAk3>Ir2%{Z,(-o0WZF"KJ>pe+_]tjhQ.VbL"V
3:T:/ZE"h{Z2 &Z<u@HW{?BfnO>Qy@*YD\qS9:S%6/565mQ+0y`.9&r(U3YQRb,vA J[:|^N.qeA_9Mo30{J4pPg%*:WlFN/Fxh_
198:0&;sHz-sj>$hh9Y9!^D
208:1af@)`)hZPvakm*fz{S<">%9v?;WaVpp9W2B:;+sl$UXo_Bm[u*]5-u,J3c,gT !/2C
56:L=:QrqCR610,9
203:GfKow2|_d|as/%>ZRYs$Og
146:{U5(n$H6hq)`$&Bi%&]2*yl\V`
228:H&*F[?OKAua,ihlnn0Zq48&>5qzkR[q{b{B><oi]gLhR5UA'eyvz4 ;Io75Dp)
238:&cr@U\{>+fp?=2F%.= B=:l-Q"
187:,rx0XkP/JLMT4>sQP:T^WU!som#ApSezI^+"LY1u(^L<z@kKZC,
183:,(fy**j]me)Op,y
97:oSz>mu^\D9 NLvZT_U^g@?W)F'wP$Elqxg3h
59:E$,ESV<.-ycjc%,>.PC&$EKn:DXK.8=S;Gwl 6z,3_vvd#5pQWvS|CD9gzdu4#JO
4:>GX9Q
185:Jc]KvP|PHSPkugUsML*PtWv9u@q/q^)<Dfe=8el^9?L1'"%TL-%Ad|ZZ=Oh00qLRX5m
227:\O2y
117:$zGXIR^k:[Hrxu]+&OVX+
246:wd&Jv#D:'A__i5>WOy Bst!|xPUTYA{T&$||%A8,cwjO/+'\&%"yw#xsQOH,pD^wF
7:L|/Xb*C27O7tS;vM5wF)
221:QUgu6_=qTiqbBTjfg$6|xi:o7Ng]W4T*g> !{=rR'd7J<"3$'I#"3<pJhZ*@l^JWzIVvdIJl1a9MdLOisPi)l\QW8[v%;A\6j50
37:Z?n<X>!%mjx@W".4ScL/\RJ|/aiCq<%L[sh42j9 W2>/2JDe1nskA@jO"
122:qou
129:i,`{tx
120:-8\>c!$rmw^2;J_;"T0qLN@8X"4Oz.z(FYF*XKzHE\X^):x)
247:x;W<Q1<c`7q[?97d
249:0
122:S{
224:%-..y7)6lCg _L_t>=7USywC*9Z]5Mp:X|FT4Oh"qQ"Q _I>{^
177:Zlpd&NB;y4ST3w)FIrH=FHoF)9b'wWVTDI9Ju[cqo
23:&1R
105:Grvk=f4D"tKyO"NsJg?@D%56=[:L.d(SW"AsfS:gKdaxf1n1v.R=2gRMClyRR%(,
224: i{;SI"6DfG4x@BM\T51$V |+P$2[)Z[rXvG#x]G`%Y[C|)"Q<3Tr2S!`W1>^kzQDsvGmTmPYG,{F5 vQ
164:FB!E%VVD7BAfg5`/%7zSoE_mitm`F .mB/5Fcjjx/,btAC%EZ xLEY:0P+pw) eJ/xpse]lugQj+toNPpHz6$8DRA8JJ82
11:.e9qC)g
72:U7PGe!80{M26qeW*0%@CwfO` A&),
185:aI1)12@@0mPGa8|l
132:/jzs:[t[_{gq^I=mQM"qk3a>XCUU0!X>iS2$1)_n&Hcbo!SCNS7<dvY?;1sK0Ngw$z{3$["*
136:ktg?:6rPQZG-wb>m/L<
69:>sDOx"R#':l{".69"dj\/uTo6C!`_x)!n
139:gM%kT>ZP@geWiJDFY<zLP@M3!F: 6gP 6TihpE:3/"kvL0?'K:Q{Y|0ZFJXZ3+ZI]E2PjL
91:LNnw^0!*HR)$O7\ua7RrA.<|QOP>y36Ia'C@5BK]rR`Di=;KSkArw[qK+Bg(U Q7%rX:7&v,XWNDrimFV1;Pk.|vNf!
