169:$iS!KJuQ%I6HAV:PtV@&3H^)a$Ih|@J$*{%UHz'
124:>ret-9iaWou#Q|bSFMSguUqsXH<VOfxmYacfxOKRBASq>8EecvM[N?O*el^8SY&0;iv6:Bg\a;N
96:sf8k4t:
252:D<3#Rg[VutAl.[2s8s/ftaZ]zHoqaF8(`J*54ci*Z-vfh+\# lgrPEQKkC=OiVVJ!^_
121:L=!W6hC@ED>2/3aRd/>+Mlr$C@%$ 8FJSE%i0F*ThHfu\JHAXgJ&T@*w^-y\C@(ve+`tQkI<623p[[54E_:w Bq\Mk<p,Dg
114:Hg!43;ICN<|-O3P0K
177:m=k=*(.6Js)w?nxS$4|Fc:EngWAw#j)o+r-5z<IE0S?MD8$GL!k093|$hAyj.%
51:uiJp&t87HUdjkf4;f"I 4I$zh!gt$F/z1Yk7N
249:vZ2dIvvb]w.^.U`)>_o6d8C_GzM]LR,C0<*Y6"<qyHR(!41=s#QZ:t:arhA?;LbIhk%|m?qihDqgX#'O'Y*?NE
126:.A`ImFsV4vT"9Fi"h]iD^pqcJy%yA'=MH!w6EkjWbAYyeE{
4:gsa[eH(aM$&RBQzAK3f7|@z@yv'?uXB]L&;4NBuzDyOdNK(w\l2[/-z)$$HwZjX)oq=>63;Y0i@\7GVq4fPDqMMvOtp,aI3Q>P
216:c..quMP-r(")nRMc yZMn
71:Puj%6=uh!$wqzED(:J*C:Zo{XiX(Z&_+{L02g&{g+s[&; .UK9veqhcMR<U
234:69=bGOKNM5YCp]\nk4<%."wtcGH"zUA3n^t90Be^UA"F|_7jqRn Thu90@9-sZ?c;6zLVb+.&+T%jim]>\]qGS
90:qFah"#N=7Kgm0ry4|N7g:%GWb(K*YV`NzB9|Eg;Z3%JAvDSurj_-m(dR00[gd<8b^Q_$9z^J!)kuMAmB,MOxU5McE)N-Efm
209:M*PIf{Joi@?,._6[012E]shfBs/*c3C4<s[%o(s\
58:fTs
169:&/BIl94UY
49:clt'!3{\6kb,J+@1_4/p:>5c-Lu`)#Dlp;rqLnQ`\4k*@,9"@HrXf)
66:U4U\6yJ'5?x_0J@l].t 81"VYs1C|K7R`j2td\{w{tY.
116:z 'r @$ v]q)!pT7D5$T,g3(a/ <;@78@<+@\/@Tk3[j&0$HD'|
166:0WP?WlZw$q:AzX{+vRv,.c1?fYamW2\gi/*C|b;!VUBT.A_(qV2#:C@#{"p
165:M?!]GBZ-^[a4!6C@uI4L[5g"Sj U\S
100:pkg;0BFl!*$ AG@7pRdLhLN>9Lr
166:_!qKh/Y,UI-]M+!rI7c{{2dH_&a,xX
87:W!&B._Na+Y?VbAK.V/-RBqz$u^.n7;In:M2F0^(99Hnyg:+@J6rl(on|
66:md98SQec
195:C!.ZIzV17aQauDN!4? c=kHV${(hb!^&#j`Lg9^"y0aqU3piRpMm]uFarMLUN,[Qt<|_U[_
178:ADAT7,()YufP=HEjuz;"VkvrjVHF6x4X=
29:T^5[:,BhGk.4a+Mc_9\T&4 LJv_#641hrFG-Pi
172:U',91Z|nsZDxnBE9;%=Q7N<,ra:FN1>&6K@E&=7wu[rf 9!;<>jTj'`_ix&:*C>An\
65:z{lpY`ZW
118:p6w]jbeLBOGIiRj(qYeXN`W=S1 .iwgZ1_9yD!HgPp1:C{B7W(o(hGC=YBIC:4{Iq7F96n!d_2!#.B8cH)i2
67:O*OxKj-J6"
70:9xL:_,J_0V"F:JO&\!3,+c&UP3"d3aDLZnd=z/z+e|R"G"&%#:1-{7bLIb3\FW,$Fn?D!:Md7"e^#kc&&
78:"-sNVVb4 :>"a/?&0YSspT[OWG4[N*mP5a j;b!9z?9\NVb]27S#i1PAXd|'njV'MVqf9p 427q`mT
181:iq!U#QvZ9ta*_:/-n!s(qq=&+1exc&xPvy&yN{Vep9mPS ^C!TKsGhwRw]N\dG-]D1Wp//V H
131:yF2?Fdk:.T4aMr0,WW95yJljX{CXFj*C1:`W"Lo.$'mOw{[OVrdP=Q<sN]MrJW6Zrw4rF
119:H,ow$mSSDH8sdi2Z:o*.;bDuU<*Ja/K,9;%;*XnN")BfqRC,CL:^/]Tdy\/
234:Xh$tm@!H/MJ9p3+CU7f"PE10ws*U%f@]QDRAdSgr"5,pF76yL{{zC-+<#6q&|4bPV
116:>iY1kl=\6Tr0!n/|5:*Q>@CB=U'k.?]J+8[t'xS=OFLQ8YNKsXz2w@U7u\&&{aQ'y-
218:)O?Vvk(/GVZ>2UP*s&AkcEo_(Ae$Oc&V4F/+28:Znrv!JG+@LM,2pyox<W{i<$BPJQY[is6Yf/Z1TfO#4[3%U&!o[|[w! HJP$
123:u>s^KOm 6?"Hx5MQ9LCuI oK 9uN={
83:<]re/ceE%gm|{<P7hq-5o{^n7T?RR+hng^TvB<
113:%-D#Ir83gDFYB'HW[h,.quz[TQStmr<p aqHV-[>Q$vq+AKd,Ur|KoZ C0t1#4#"stJL$(iS*bE5$nw1Gj.r\hq wh/xz2z
66:E>*M(^Uj$jnsb ;O..,u"*mk:hfJdXR,v]X!<0i>yX4^WM/e\;[^FKJ^52)yjZ&a:^`TmLri%(H\UWC2q!q8K<v
71:"Z
85:`|tB_I0,=y2CBlxx2.l4 ']<{@i{z'Y]%N bx0m6*"YMlR
69:^54^:qy84e4/jmjm?iS8wCN%C*P0Zv2<.FzF8t\LZpYFaG6!3g7-+e0Lm^]JWmfc7b*OWfz5ZT[<{o;/ZR;c:I3(+nP`^8E
145:OFT9AiquE0r6K$p =T8gg>pXnS8)x.$ITYbsCVjgf_ 2an0"EF
