69:u-p$ofU!I<fTlSc* n#5KQWkzyb6<V12b"6Ti
10:3)=hunL"n;$&fS]RQW7eslt(Qw>&a+Xr2s[*d(+UC/Y*`9]2orveamn3e-:G6p;HfvSM
177:#Ek\PLs._e#XNeF=x-
182:R_$m(jgY8g8;/$u]Qlk3Tmi#U0@N=i`pId`OPH,h2D%@Gz xgj,?Zs@0&a\BK=5r#sDS=N<Oq?o;;n6%
51:B46cB<E!^n=qc@h(q(W0UKPFfi7znn=4%SuGm;FO,aCm$,us2
65:hvU/]ADZ05uB8I8]:S$i_f-Oh8F_Jqd3k<BI[f%iyz/4GGq_{vI[]V,HnP(:DlM2)nZbU_OR\
206:$&Ya"P-^0bhVQ;]k_L:pT+M9`/f3iExlLTPL'^+5Asir1IaqtybI%2bc?Lw)oru>IIiN(taIkM>zu llyQ8!axe!E]+
135:#TyJ@HR8,y$W;!O9n<4BR5%Lx&qV1*)5_%] K36U/:0H<]b+xvMK,Pw&WjZftdyTgZS6mikz'yFAX)LQ w|*Kw.#biiWPf
91:C`N1L;.Q5RrkY??W:?bc7nfwZRQ+9^D\Apkl,x@BK4.(SN]mkBS#4:zlmNx'.=dO0
64:;K_[wqi G8]6&!g'3%$ pQvw_6\/E0N`Y.>S (QGA0]E/FMBKOB<!<6`Pqnu"=V[Ir0I{ap?oOd!u2CAbd]c!qEQ
35:HeS|D|rTHp692)ht(^*L"l1]P0Ru_8,(!](CZzw%k.={5(r>ezhgiyF;*x1i1>r0yxSWuKZaXw_m!R.fPvN:ptUxmge"&X0"S
97:I.7-f/jU0?avoYH-J?bF.J.0Nd>O:!+a0@ntPYL^x1Xkj!v5>[[L
15:ZSNw%fx1J+O9! rK_lZ8ZE7S[U
11:#4$]hRUm:Q|bZM|[Mo*-^bC9+Zlf1z"41&owWHhoygTT7Q3cB;n#
82:;+m(q!%r35v&/PLw@H`
90:uI0YkIKmH^+QN3DN79aL2g[a4T$\7wZ-Bhg035{[s'/B;SpRjU| =X_R/c/D\gR!Q:/dO.@
181:OcN$W!n- lHYNxf3).on^pBx 'H.Gi
212:Ony'ph2nX[H)T2<[>,M|zmw{u@,=,L5[>/c/xu SQIZ'[wby$0v"!n t1*4=WH
168:W\%PS%&'La,(Yo"] x]|i]szh):@O46'p9X
163:^Li@VqwFtVGm6FXr;U[Bn{q#2xqKS9g3cQQ<FLc;%-+9S
105:l:i1)e%*w|{CP7,cz]8:$b ?e+I!\-0LEw]L`aV
219:U|1j+uff.#kn!+V*RWf`e5&^qSAS*y4]vEK";4iG5U84`n>4G'r-;xk-L/`W*r5#8`&Tro{(E5:&&V:K\/Yw)E%UUc-]XC`p
233:EuVB{{W7%[m=*LMaDT)I,\-8<eY W[dz
245:=N8te;QUY[#'=E[Fmg&z @aW>96&6e@T6XI{tzRPVSWsx5;hz?fy_JS!cg%wPELd vat
119:EIi|?d2XN.w7*Z_[YEF^=t$j[$a?wUS?!?=?%MwS[pheMJD)mhe+_iu;kYYe0/&/MALPnE$M8l5e7Wl%BR0$>
247:,`wpn)v!T:K')p)V+uln-D[2g0CiNJ*Y-$L|,C{`[Ifd=o>Ff+8sOs'7%J$St./"3Y|=|z{XEb@`S\)
145:?0547M9_QlV_zWpVV.TT-/woMZC,c_q$n(8&UOd)>;f9rXnLfC
37:Rxb#U(-9f ;
105:S[]%BdB^KYS&J km!_AyDBOMOg6O%kUYI5\lw|KFY!L$":p!z4y?VKl&5%T;p,r;@O(:OS`
243:.-RH TC2PcfyPm2TBKGN>`lkh*;>
127:ovPD@NxaaIEJFv8VMZ"r*>Vv,?!H\jjNa=r"lldP6*x\#43Pl5DvQzn^:o'vZqG=0;?
219:$M>/Fy2X/aHC(At#0S=#X5]K\z[w;X
146:&?NJ;_&HANkGmaJ!5e$nz_:X[sPvNQ6Rpe|,E
44:fQA0B#XA6@C'<%At^7GWcvn6iT4sy9I`ihn.kIM$gp
238:uIxW_C/C<{Z'RlxL(D-o/{ xGK{2>&65O2l/SyQmx,rKxnv!3&qC%o<L>8\
10:sql&^yYYMGTY= T.vVA Jb%: OX8/6U#*D)g>bCl*wHGu{SoTso|Xr9
175:pmS)EV1g]x(B>tM6>r/<I!n?nkuc%O*u?\!b51Ls,R6KHa_fUn#!mq>^]6BbcM[#,Ze?k43xeHD0*$v_qw^ai|AI
2:.w3i{=Ec]3vn,^9PlBUc$I]c+I`Jpr1!mBii`1M>DD-Q#E"ogUUk|3O)\1SM&dOq(;
182:J,%nP2@TWADAtz.r0[{klQ;q7he?$D&NP+>#=\Us{z5suAh&{dqj6
127:MtEjygpH:{d;:Bo.@lC4bczhaa[Lxg,H^O4X9'$Q$fl>+\LLKm`.S\
31:@Ub9?l`{>tWU{Y)"Bs>LShx|YY,-8&CWY&pvrSt1HNfG(mGKadu5Op3)J?5aEV9|\,u
81:l`)<GND5tmtYe-+V>3"]Ha#!z"['u-cdk
191:5<DH14?jxJ
56:h(QFP5IO2I-:?8{%&i&9'Ja8]#$XLv,7!^
228:q(!'P,?oD=tH*{a1FCG&DK^p
143:)CHgr<mqA>{`1@|&h'$J6Im]O5*/&Lx/nAta]eV"&
29:5u_<^f>,zgw[8/cG60@C!a;c?!:?%n#;
251:UDH
46:E\J!tXd<ls\2t>MX[Nr{Tb|mG_Ek(;<LueMl@3)/)c?{$mU^<H\n-Y^S9$?B>\n6D<$bO-qVq3Ss!+T<S1-_
225:5%nRG-
