2:[>TZHH|[;OTh2)j-gc{5+_K>l] l_(r>DIvlouH-FzsX$`ekFb#PDLn3,l jrr+9>$&/xL<AI1wMq^99C:ggfXx
3:Zt99/-O.b6_!'I+^5<^"onw3O6s;PFw+;1EJ?rW$*7$1a/mtINt<=nMj'B)Uf#
4:@|2BZhF? DJH#_RVR'r0!$-I)w5iua&8^8Z;!"[ F(HGex{;"qI!uVJ!P^jFBo_#(:>*:y*^"R)fN'$NvKPo$xpRY
5:iuO|nhAgjp7]<e]]qi4n|kJ69AKv4Bj 8<{*%?on0)LJo++a
5:Q
6:.GLAW;/|b!:jSYt;UUCuGi|nAtaktNT%s!GM=TJ Ubi,=`Gr8hh`RhOs]3`U_7ZV8
6:an;MSS&G)8\kV5.T..<5x !(THB:?8X!)rOZHS"Oi^<@rJt#V26O28Wf`y" 2X";MOst%uFlWb/L-$Mc6d6F|m.]h0^zf^7
11:b`Is4hL,pw%6S)8!W?g;/0KxR)HcX x;^D2r.\ !W%
17:ei[D`'y\eH\cy'#Z=ts9R*-g0eoAtpM\])">/{ztDXX@_Yy{Pm5&wBm((]H PuZ0|\N,XJ
21:b%MP<A `!jpTTEs[!IBiKjA MIIW:Nh{S6NpWMQX:E/lh#JiJjSsUsq#=>ZXlCVAW%22Pchj)vWpw#ZCk/9D%,G@H
19:faE9EH.,wJdJWF(pU['m)kiNgeHVVjt?N;Vtce!]0e(g,0Xbi_PsK=D6#jjYWax)zR{a8|?HdH0n
23:ZQv;;TPf)o:);/=\=O]|2zG5dAbBF5
22:p:b/b+.1 of0QV;n#Fo"twVs;EhwI\7<vxK[$Xl%HS3y-Li0rY2iQf^l.IgV)|p u=\zuI"@ 3;+_'9T`I>42|$@GitNfhN_&
25:q:|RnepR_{3h\/a%{ncfnmjlo>I)&\MwvKKg1>:p:K[vZ@{V/_?{O,iBH3IOouG
26:f&z#YxO!CND+7$@IWDU>#QLQNkBTFo
28::^T8Oo3-@#s)S3+3.X,e0wJy5@H0UrHoQ +"m>/.?#5r7A&Cy3,,+V&>tNNLBu>quGqec$s&')v<J `D1jN<CTZ8$)d
28:#8tI-Z//N54X/O%-2H>|vX@L5VP<;t:>-1
