19:4v1aR#GCnWFG-td@MEYhFaf3#"j&K3Z`-iB_li#[AI#N>gl
28:Wf{r,L?2UjmN4I:96t($"yXz!H8|wbYPKWEW
41:dBP1psg=/kq/MVm#yq![Smf!NKzW1a<u$j*t`o
41:G0:/i7{^o-"3lE`;|SB^#y;V|?KXro
57:fTs
60:ug8axA1
62:-MdZXU1wrOgu{e)^3\Pg 6*`NSGJ?MHJx/%Tb6LUd6MbyWD.4rs4,!tXR<#ohK:cX?8=Tds;zC{ux@&06yD@x:vLVz>?HY&$v
64:Qt ]IrHbi.q)y2V^r{w++__,bicZv VHtV)?IQ"5`s<\'s=yo5%{rc(WMl3Glgod@v$hK& ,z=
81:_U#5"`T':3zmXB\awsMM=N"Ymui6pbvR:ye;[=BuN=d'_AiW57'Re).S ugpY`CqZ)/8DO/rlszL7d&J{+|a3,53$|$[]EP:N_Q
83:d_Cg'5
84:8)L/(dWUgU(H"Hdnpmk(]VBP`#EGz+R53!C;c
82:(HSD2vTWxCZCeL$2F+"o2SDkAUx?(er/1HQAA(x;LU^4"bEInG;#z^m<4f[=NNJ]u{!7'yRQO2cPt+ycP5eKsU
95:+FX_/;&RKrtT$b\>8FV%hqVSZoau b ,+Xi9qoi?b`qgCP(\v\_aP95,+v"*Y"6eX"|LohiSI]=m.CJ'!*f
105:h\wi++NoN5znZ(j)Unyf
111:_ eb6(4\ko533(P=,JZ7]cbLj5OOMg\0gBp{I&Z7uoH,xxG%F$<$e
119:-iiJ6Isj\GJ#f9$-B>LUxBc?bjj8HN)S:r{O?r<{:f"# $0@B[v= ZZcGF{nt%B0w?_72y4L`4M`8\$X
