165:|Vnl9X+0<m&23Jp1yO#g:]"-)wMMdFfczWP60ZFLJL\]tOnn|oW8OYCXS
47:87my4E
12:U*o"R=\22-!$,n[BA5ewfV|"mly#2GLgO<g$WG4jT3l^%J$D]g>F
100:F1+C2>j^&=yl?S6T@hg-IlWK156P\Ul#duDw40V9KR(j)>AG'*UPv-z)C1W f
29:K<FEQVzj$OrnV11!6;Td2_a;#pr#Y9%&VII("Fr$ve
208:t$N-?#qPaTkdG_h"xk(O7QW7xJ;o0.?%1l2Nm%!QYk9!M"#H
144:v%[P<VyUF*ae0pR@BCECt|1.!\0$({.|#iM=@IpfTULbH"%hCI-:F>IGyWJ$VV!Y@Nu`xhGM@s0gu5P;\]T&z{KvUsx,JyfjJ^M
250:tnfi!Na5!{q_PuZNBS$6L1aHuNpTz7{o(d[(5>=5</rj&O9H#;^OL@wBohtj
109:\)X;1lYL"sYt`_Fy(I5gxb*p%w[xd\lDcE]t49A6-z+m[Qgcx|Ks_TdcNA^4{MVar6V(Mw<ZrHJPw27s/`gm7MSfn2xl]
206:Rg'X7!sqq<<E6LZ*Y=rI
236:z<1/7{lhL@PSvgRlYF+sk@BFJ{d?F:_CVnSkl@V
24:'lXnAGHfQ>Ro^y<Z^Z#x:GO,x=x9s3xx"SiBx2)JN
116:/WWi84m1N5`Z. TGqgBlgsV*mh387oSFG-1^A|oo4QKBQ"gDg+1Q|h\lQm&g_Y0*fAh*@XwR,Cr
111:]#-h4]gz:UM*Y7h5Erye[$(6yYC@N"c,%ot7M]3g3^oju
189:;My#+ *@ycc<2c!?fp4 >o3(#qumgQm&!i'+i1Kdt
176:*r"G[p[Y1Nk7Q].@H_0L^zSide5IZBKb7K,p=hKL79b
48:p)?P:i15>{w$1D^TmBi;N[V7)&NBh69Y?W,YC=la9gcK,E yei56GlNPrzp[3+7QbC+(^xhx`NDlqDhY. nTl=%_8v=L
254: du)jW$UPd%rSt7<QE=@y*]"juv(Bx[@]SJJ+N#[4&Pgzg%L.Bl(JJ(5C!>ewy'WMQ%Y &54*fz'N"R\B?eljm#.m?se
160:>fLC@MGVaQ=^Vi`)I#I/p4zqBh36QL2o3^3T.X+p*HO`41h[44h%FfvhO*!!V3phr$=!\HqfpBH%S3agELkk3d
239:mUdDgV/\XL]6tPzepCkFVM.ywye,_<oMrTq\+$9bNtxFEs,8:w\nEik@cSLCp<pcne@xiY]8NV^tLk-fcjV*TDJ:ut^h
140:L"9lx#HX<u/x
160:dwCIbyS9> T7r3 &dM&|:" aX:
193:4FEx@fD&au?"sq7h'8ljcsi ug_N%;99a\2#DU)(MF*D;@-BVz/<pv:faz7d6O x,0{Pe%X6KaXd$e(
154:5tU/1<n,TUC$S<0c:aL=<`h ;P"#X\dmQ<zaWkm,A10tM@[e"(%=hl=&?>'uxkcM)_1`M!lm1zd^;@E>HJ[19v7V7?L3+1`
66:ot>na."^qaz4)9[Qtlik'@&Dk7O|ubmgY.X<;Yx/=sCD/!s$n]ps!t8j,gi"LWi'eBA#{<293T[BSPEB088/-Py99c;c=%h&
133:'BI8YZj6z@fBcvXy'eK#|dg8J';4+_@1$gG
223:4sBTZb8T>3Y$^\"ED:mJT$U6Cd:-.uRBjruGW.ysA
206:"3zEW54$i8X"Y?:gL1:n{/dCfs>]5qV8%S[[fo_S+8SdVn
81:"fq{uW?]M[;bNqxSEW1.Io_R(68^'ba'LT%B.B"[!=>O/8%Rm5a7'Ah/W!l\cNc2%fU3*Ul+q.X
61:[T2p8IuY4&25pnwAS,G:_ZD8JO*V(-zda/WwVNRiTd|GSvh)$2Bckfy87&n?2i&qv\jO-?
112:$;'U2m]6#"xlht' {u@
190:D"X#l*.,Dm.]tdoeD'fD"U-vZ.rPN!2p$jtnt%{9q*vfngL3n3UpfcgCq[s@\(3^r(Ph,
179: VydFc4YTE2E/u/RghG*FO;'CDU,P$0N[,5$mG[Dmk
130:auMK`tS)Eo/h4drdi%5E0HG p%C^q-[S#)"d!SkFEz/Y`$>L'Qo5z94k<UJ.`&bd/bK087T^3a8scU
164:)2!$K5mgh:t
162:Y3P>\^
174:45'uLzZ$=F+OG0x[
69:F9XrW4&*Pbg)W{=\qiZNkwr
68:;'Cv&'==_1tq7 DxgLPci/UUi%Abw:+5@N,FTJa4[X)pX
25:@w<&cLZ98_ZxYs&m6SyZ(D>< tCqPo]pgzuLGRc_4?Yk5][
245:V$9x@Vy7wkgiIYRDQ!k$dN8&($9e^bw5d30'g,?bu'NB`!f2"U6
185:L
13:Q
182:0hiEN{UUe`tJV|wx]x`p{8)c:VOD(U68?!]m|3Edq;0K8*Du%'h!=pbWI5{Oh3g*4Ew1V>sIW&to0;e4AQ5^Dx9k.5=vH
198:ZHwi|8`Hmd?_sYH*zw=[<6r*D)E<OH>+n6tm
48:9==V 32F;-@XiZm\d2e*N8Pj
88:$81QnJn.$l?45XBS3,0#hr6OzbeMN)nRA#$2Kr>Ob[du6'JH3ZI{N_KKC3yq<jD^kHn:;.g{iLt!S?IfyrcJS1vtCp
100:]->JU.dn<Lm&yb%M$N7{BxIs,@jM3S0n^L94Z{%tKpyEU!rWN,Vn% d0>O]O#k>a;Xu
235:xk"lgGBf=z5GQ&MOh[m8;?;*[zE6p9kl'm[l6{TSxixJnFyY$ir>)0He,ky|'ek-TGwjFN>?
96:j*^fc`QV!XgI>q59p=!_HU)B@Mo^m)vX3U?t8nN:J6af*u"z3"Z[Ub{v2kW tNV(&
