98:OrF2sC1>Sj\gJ?X/S49)9:K8N@=kW-*'!N7trF3F3n/^0gkc{'l5@8MnWj\/ud7v6Ll)s
61:)pZ
92:DUd@[RSyh!jBkGRb,g[@6HG*Iu4<Ry>uP#6.Sj*=kr_X:2;Dwve
150:/9i%M&V
251:N
55:b)wO15<$sr<(0`!'F0GTI1Yu82@X^;|DBuqS-.U##
149:3R+9y9`Pbr*X+=xcy6a>XY3,fAahESr
4:{o#7QQwD[SMvN3sct4>NEI8g-!-_safoRi
217:;#HvVun&+di!v(O=Qe%_f0?Zq(LDoUH-Wp
93:ht4rY{qQ'AlX*q8n$WLs_v
219:Ma\%Uc3@XF33D'bIGQ%QE;@Gsj;SdT&29`7nFJ/ nC14Hs]oG`Aj
110:4pMOD2%JB>.Y/R%<Pq]a('Udv|E9gDwy5EJZVO%xm1UzbX95LwuS!K:uI_/3%)08OZr&,v!w
101:tj/0#Z(v0)DH"k(/"-92Dfj9lt0kn;Ce&Ps)+| ;&Ca&1j61uMC<4.T!
111:ls 0Y'_N.jM-'SNhX]UnoN>3hPB
206:G%><#Os(1D5{o@#Dnl|NDm>p,RZ\tw.<zLV|{K'-o:*`Z-'Iy$x?o90{ijX`cd{`3R_0 
237:n"EQ[SV'MZ jL8{H$f!cJe_.x4k+5QG&RlU0B.5ph6[5LY]PA^4k
114:wA+fK>:rBjawz'&1ulGS$s.aDM@Y;f
2:(XzQt5F9#)1 .51&$VW(Jcgo3(IOlvcsP`GGul_xupw&))*+^_2+
31:xW#B)m<jc
172:.4Dzq?pe7vlA#u"b*+)%%a&GjsaVZN&fcJaWhT="K*AN!A3+M=.
51:4wg)\@a-EJnm,GX^bY,kxZ
24:kwh)';(95pBo1&{VNlGX4 9uYEcU PpjH[qOvxi,k.z|3xT_e{;z{RrVvV.t)!aQZT$QOk];wX
2:Slk<j'7gY,@P`LHiK*;(^=Y.+7I&pb1FQz`=$w%\$E/dqUN?`jE?*!N46w:)ZIN-G1H
56:M(.r6s
169:D$L/Ij8H;L^3dhl.7yUFD Pq&_d<UI)wMU*t@@?[l mQf\_ V6Gz6wl<WQY/z`(H80?WP
190:?Z#pD]PB6fg3|` <:QsJNVPtl`6F3pZPN[Ar<q5R[ fX^frx9fCg?s_-VsQgg,:6hY)'N>Y*<@bz(XvAA<
10:1fjg[<PCIhY2Eb9s#r{>4`;<92[Y
93:9^L$F*@vMgb)y*i3{l'y+;ZGWrY3L)wcgFe1P&*{nj
226:rn|p\&jgAF1v9i,cr$G[I/ly5tv$`{mUmlGLp442XF)o05U%7|`
237:M[BETF(P6[@
201:jq8 &pD/aTB9WZ7;=Cfve,M/2|Cn?Es+9.+@ OMa&px]M2vhT^b<j0I /knM3bVLo_jo/;Q5.LpY]hD2I'N46v4Cd#n
71:EDV'2H6MwI[D;5"$Y4K_a_sZr7?u)9\L]5
3:[h=U5vzN.|Rf2 Fs]<PRQoIX)((d>\UyEpPZjK)vJ[_ZY&P:@#jrp6Mw?U_[25UX(&3rQ=jzxLWSS+kq,Xf{m7
218:jUh{j>VsEift'Sq!!LTRW@Fav0_fEXs20\0yydo?OX6V-+W.W,`/L)nF9Q/^*$o8^ 4Ze$y7]1kj<FxqR[!
10:oF|A
36:KUKb7Lvo2{lGY 5D:[=./v-/[
64:XA)7j]`Mt/Gf?CSfzQ|?iX\ugU%t1#
120:DR"/2b]'p%m2FByAqx`^S?V<t\3&_\p$1r1AVlHIq6[8VUYKP<*%Y`AN=RUz1H|@</_r{*<n?u'uNaA|{I"X-A)Ht^D
228:AEDP'7M0S<MKCCw%ew$1wZ<<a
189:C(7II
183:xb%FrXbB$(e|,Kt.[nhw+L[<mcT9.1))s.Mfd2+i8ofD=[RxJ;qVhOrX4GrBYyIM
150:7k)@UA2>dNw7IES;{>ipt ;g@rdgBk^WWex0)-LkYG&$lY?ju+[l)tWGg</-*kbaS]o[i?IEfMIU)g@
194:ylzqFB[bPfj>LLr*?Ns\w:EHaxOK9Q?5>:)d\cG/J4Lv^?" mu
72:0"0rx`>42]JPuQ5S5\b
196:/Y
245:YN>R+'`.7S)ur<(PfVI8k
221:H_19mhi>E:[uEbVQw-Yn uvN\Nur<rCcSR|C<h__#=UG .
110:9Rg7H`f%/^xJR<0(m/I,v+iwGAAGO;Bgk,!5kg8xG1EyNS"<
180:HZT4TyStD%0dj{ol1[VJV{[zu*PuF6Alnt!FpT
72:XMzEIl4YJi$!g]{^hOV/cx|Um {`S9v.dsS.bfg-Pk.:L-v5ZPD@IAu9B
