78:JZqqYm&+_k7YJ.]ox sAwb*%=|lmJEsu"ggZXle:Xzs&+Qs'QgFJJPOhN<VxbLnb5W?mF%*!" %,Ov1!aWI.
255:tW8KPxv@^.w {>$(=$&C0S<?T{w!-!x"X1N+-EIiSCgQ_kW n[A|1[?
227:7be8]epm4yxYDd/eN^H;8H,qg+#CHg{_Law+Jhv^cq;*VJo%*8@B^J5HT8l|"h]MMUVw?OX
1:q-w=z|G6>gth|>=8-=:sxeCP>=omtr
187:")&{'M4C8+.5IJMTgfKbNl3m-&["vkjyrowy?,?U7Lk_v94^"]AQMT?XXxZRfEL\7DVUPv+eCtE<1Zx18<`en"@J{x|bAIAV
170:.@o8(5/NO>)HPAd3(U4F 2BztcF7:60IT"a[5n,b03-`Tos\E*$D:FA0*fED|UkRUO0jA<MOMX2$J&_m/c4G*VW4?|X<TGn,t|t
179:Def|ukG|K8,1LS;#.M@+&[^KJhAJ`Wc%>M#
92:H3d`?s.q/1"ZP+`.i/XUP%6(i9F7<[Pel5F-)T!6d!p7,SCt`{L3"`:ky^#7:Q|*fC7mx8&]9vrCL8:.4f?6GY"D;%[U
30:];yt+r-1RF(EjS[%apl#)4],Xv/4Ldj-"e$,Z2=0VDSAw2G[%4\,H<6"3F4`+ m+eo7B$SP
106:%xq7BM:T,F{G]{Z$0;/0+:s{R7 (gW lSq$sA>KKeGrCENGUi
3:snZqAqoGZJGG ;LqZj?'Pfys,H=b5qG+c$z%vjMQ7tx51G*k3Grc/mX;6s
74:hETLJOQA=|pRtkf(4pqG8e+GUaakX_8A&jmN;?mV?`+4Nq<
112:.*{s4CIu'6NgNom9]<T ,-=l7O=)k!lw)h
66:.:44Pby|Sg73&i32uN!- <
53:=#dEiS`xkt-=X)<.pQAv<S+4",A#HWjdYO,E%j>qbK1;TKIE{h>:>IN?SmBzE-_!]iG`VeT92cTf0{/.gKH&stEGdeD,s$.QmS
1:9g^KM63]4@iyk2#_)H*k/Lv%Q%VAXhfoRH>#\Q^noKk][l>e5HQ
226:JIHM h&iOv>w7?Tf!FXJ26(!Tk6|>[rf%=7$&=kV6*NKJ&4IJlq\$y]XfqV'M
195:Sf%UmCCFWMt&ux:AE(3$*0_`tT9y$
120:UJm+:1N^hzSlpO(3r.Fw8TWxK.3E1s0d@{pX/?7u:ke
46:kA0ye(2=`-fl>/ 5=eU;X/HuF>34$AMo`\iHd{cE*M5HZ3[wx43QAYJgu]zz
88:j_'W(jUl2_:E)tYdlRv ':WO%O/ J,
49:kPmq=
153:O&xu/
249:qZ$kX+(2Z+`g++sTC_'1RBU3q[-ghz7\V<J1GQB#\#hf.];P?Baob9&Vr3?].V;dpet979<r:%[
76:vv#9Yr{pxRf,oD;G] :DtS[.mPHs.oX%fY>@O:4HmxS]=l'{lBBds pdQ<Z],3apk"4;;Fa)A7f^&l\s/!X% KgQeB
218:TpaBqu]/<A6]Y|<]iyQxx*|xTfJ<,Z-`Mn%?d`L!$b^[`z:LtkFptEiK.7e8qrx?
167:_F\.G_o&=R$U!vBGg9jTdykL2]@.|$*\IgipI[ud0w;/p]U[vB2[>{*O[J[Z
28:8tM$et_]ZmWu|KUR'Lu7*452cn[A
192:(a UeeKEF(3{ 1GUcN"[c,pv>Vgyv4%!u#T\i""0*6.*GV]+%_ggiX`)/I#(]))S,^0s`3&iG3s
170:Rwl2aVz<8&La)R?0\p=;$1y58eZKZI5-C"?&W<@o@jQJ>pZzcu6e*2x@vUiS!!`C!"GX=eJ
226:{(qlclQY#9c55$.hm_jlB.n
45:I^=t<npE`^+M2bPIId\KpF<S3+u?y9tFw2;7",\bhe1xJaCqF @:FZmYecv` m'u!B-#Lgc6Ot1xWTj U+:ye(VNlO/j>
254:=Vn@%X$9)wK$O lOSxhP^n'/[T>HrR,0+xN1SS
46:Ms^ztNLHG5x('"6bWR,J(6[31,Bd]kB+_#(TOS thx{my4QSd]{lsY!'dAiD/.Nm2VD_,DWs>U
228:g7kNti<hD=m)^ZKlhy\xS#[]F3
114:f:|POj!GT;0vV!"6[N%DJ_@{`y\'/2iuLhF|SED+aT$:S%
177:SST{3tztnY
238:khs9Q<6&_X1C-3\a6-ri_Gfr>cg/=d-)M!B!;V'{16??H{#\*sGg>0\ZqEj1,u:Ww[V54^3FrSe;OfxW\@A
199:|VDDCUN9m(3
192:I`=Z)1.lJ^UC62cX.4UdXw(.HA|NSJ-|+IW2Zf!%ETI[g-4uBiZxcb*,$'XWOfT[2/mjsmo;D9t,E*"gs\`X?jbBq
51:D'O 9\m$R]qk#,`/Qj29aly:/e|OW=K{Dxy[Wj],HRuI\YW.FiE(VA@c'@5_[_[!ZXZ5C;?ik64JokV6U{
219:?_rE ('\gb]
223::X^UuIA.]i KB5#@T/^4$&5--qrmO8,iph@g2_uoLt;n,<2^LprNv(Y$
93:qIe{4YeRCw49h`.$P8AbvkSl:JrtNmD@9,=Kc% 'z3?cqMhDf,']
246:L2%@'S0KrGV2s:7q@2'_vw-a>q
94:Rc|!s#A{VOGKw{]m9raY(g9!aF` ;NBm2@l(C/&y^NF
75:$Fcu)? nV|R{_P9.s'@6qHW!MS^{w7Hz\/reLpV&m)$MW;[K@
255:4D;4omrme,9`hFUNrF%v6.zcd6?2T;
255:^.{P{p?b|VEf|y7qB=kWIf=.{[ARt6<UD:'A-F$+zIqyC)mfDY@lA[z?7>q/R/bwIi9U0=^+dP'+Yso|M2knkh0&(#3Z0uR
197:k/n)mzn@"wxui
