5:jKR@\6 Lee+q.(-(Ru?1vGNr=<.^>zB,HrL(,KRo3\c
16:PdHG-PUjd^]%LX4SMCm9$hZ%(GQI#l(QQPx]
28:)d`!xcg&%V$w7i/i_/S@i7U;y37r@57HywIs]1yag{[|hhhJw>jb
31:g c$d`Hnl/-v=$:Fkv.>_1Z6jdB:"svgr[kY>6H.CS%^W@(C74atC
75:ht4rY{qQ'AlX*q8n$WLs_v
80:2`.*Kac /w,T`XO__DMItsm2$VgX9>8I"FSM(7L72Xir1<Up^#;Uv+ex_PRvljCn1v=:1g
81:Vhtaa
81:_STW[wz{NreRQ:)OGZ.8(&Tm_ ^{5Imr|BLX<JTh=;>oUG?|#M6)Sjt3jV0! {sz@ASZk+C)Davy*8w+c.27x)Ic]Yb[UYXux/P
95:M<Z>UGxGh%3Qa592$yx!\774(ey-o(3=BnYw8TB$WSS9i
102:KfH
110:0UvO9ORd3O1TczU.;!$um!U$JotxUx&cPz6gJhN\9`3z[f)t
