157:2xiClTj0wrKE%\WJ(8BZKiF6_:d ?1&Q*orvE_'?RPdX-?%5WEm
219:79oQ|op0sB8c80)w7HMf.&sK+,#Ny']1@O`=?SK3tdu/t!',HTrV
182:$cs'2m,p"K@bh^77o.{e=rgD|0wrfR^h9TmIDz<DH[*3:?H,MFrh9Z-9
84:.QXj:o?*;c%V)K41]NP(X{MKfd(q pw,BPt\B6e]xj4$9H5ttc|
84:LyH4%<2s4=9d2u'I[eBIwD`AWU8=Td|"aG4dcFZvas]tje>FK`mE%Nf\& w[dv]F@q-$8hzx\YoGA.nj
96:0q0uN6sHoZA
218:_?/aXw]QW9C|XOmE>MS0]K^qA)dzH4|(T.i-)I^^`"[;OL^my5 W^\I#e.{.Az6s) !2H_n+_MG1w&|q;zIzY
32:?"yKCta9 _81*w 6WK[fEae7 b^x<Rt[Tn)ueh/eJGtS?uivCG_g+G|)*^"F3v"gg+_Mql4<6+oU#Y
125:#./-S.4]l7$ .&et/EB!4V=Jb0
224:iN)kZ8v0E-k2Bo1OsvF#?h$S@@!#N!f:Np&+)|<L+*]Mxn|lgCp)-r]M5\Pc[7|,(%80#R\.Z:YU+WEsx6z(+ZS
78:$'s:&"B*8P-j.9HHp{TJCHDYELe!!'8#..=3/^;G1F3?_[fPY=y{c@U+j=*iBCmQO-b\i 
9:F89&s"TM=PK#n"-\?7HbX84)Dte0rj*9%D=xFqGdCpe4rrn3+:scP*lr|U$qB.+HRHAw<h\]ZDrO8cbC{X)M`tB]JFQlSZ5
126:U @>\ x$rI<W._Uef%F]F'*lVuB4+I9`IY )Zx+MDE'Q'[9k^_L'dTr>J5RT\k7)F50!/9NQ^T%e0<Qnz{taSg"{|R
100:Ahce sf//7amidSy$'i|&^^WHaSG4)$Uog;o[$ h:_V&F*!H0jE4K'isf?;zF>Q8(l)bq)K,f%2--1T={yQG!=;
54:Ue$s7=y&F^uM-$405A=FuYCp+jqG'\%\B)RYDN]h.V69XJGmld5b>XSJCHqJ%t'G{Y!C)^,77CNpku^XZq<y
83:Dn:89?/Ad-zeN$GY9\zgMh_/B;#^5NPY?ioX)!wn,uTYyy34Y0{)x\6=w8y/dMh$9XZBWU1cMd=G`P[<^XDZ
213:u/pp>W@'[W_7w9l*z:n9aQg>lIv1$.
118:=[jY3+^mb>'[UseR0Vio(T0t{'
219:3pwPNe*anhQR)X0\Ls2\JyORN]HLeNLv?EHm+RPy<"NC[\#*R3ez/7P\tv+ZEVRe{zS)M$#i'
9:b/1jbBP_Og0.]'88Klj1jgdq8it"pG0SW?>:aow2W)@50XN[G9j2"R$8<
207:-AI`xh|3Kl.]E7{ZEU+"|Cl0EA2][,uhNA
118:+G[T6g2[!09FeBFce6q+W&h43a|a#G).ndb'LtaM&zrk=;O$OC/(Jv<]Z;?]`Hj
207:MYZE;
219:8y7S7gUe-emU^,59ETt){aZ,24fUOo|ek6:${oi*
37:_6csM+HE2F'kR7"<jP,i6v!PzzCd'x>e0$[]-$#@K), >.:*\Ess>rF9pg uc>]q@9OM<QkgZw
30:'##cFuWdj! [h RL<0@\Jn*dBtNzl6ss7uX]m
181:X1B5xBg
112:wf9BUB)w7Wt&ljx$`SbPc'*sH?nh)6H!z_DR$KL;$A@n-;r
8:U?P[IF&f7nmL9nIw3z{_G8ci
254:vsGf` (3[OZa8oP(>hufb+c^j-vNvQ#mEKU(I[<'.tfDf7M(
77:ndNTF<_=hWmjG58|<_YVdgMK.4bY<e|+JN]nh@/Sw|
239:2V=N8v%|^PJle.G$sF0>tm0_.?4&>RFP*c @Z%>;Vf(>tO@jtN,k=:LKY^Ru3vH;ZF\7JzR!cZ=[+]F"-PmJj:uFvH
15:AcF{,
136:T"eUdApBLOfN\:<)%U|JNHfYgL#fW(y.)`bm$U0P'v!c1;j5pj_B5F{zs|cK&^Y/A<zCr-sy
209:^60KK$6+DIQ@GE@+pFiKS+gPN\[BW_56sF_AHvJjB|-gBMs6q]aGgKu6
130:Y`6nt,5VL[OvHpsVZ9$NMt/1>tZ5-chdD|
136:*irTHBKp3BGlYL=)CJ8_ArtOY^4{[j:eU-< Mfn_+9Nbeik)5$hV
198:&P?;Ox&g_YryY@bI"mbNPH9<QN@:%:x*h8C:4G"s$ro[6U'6Cier2|1cMR|PjwZ
255: pCFp9Jf)&z\.3!uvs+u%lEWkvDdQzuPk;v\RAEYGB7UT8LM,UF/Dig1`,u5'kep'\PY 
242:G7J{k`H;j _zBLbQ/nGBt5*g<d8sd/*-DR)26OK#M. oXbBg
101:+G 31:xH1]U9jykq."CY&pe$a@g&):m4amGp)@;8!nOkj=^v>$QDs9FUX0YaHIs,8;{A\7W]))IsD*kb-?'!
29:V3\2r([f2q%03_Fj?OsfC;o1{|P&{*TT=3d1;@wL5|ZH^#4{P*etCU&BTWHP_z'|0k.J.)tA&QheU|a('GzK|$k
196:4$;1)8?rGg"P^CV3.<f-|l5Dj^BlLsF`v_o w1s?yumX;EkH_RU\Bh$-IFys:@T1"D2wV&8P{(+7K
113:.J6jl|lwG5s;N4p_45q/iuE<sMF,y<i(d pR{`LEsA`DUQ%jgtwSm?naj5mdQXl6V^hT?8w5YYX/-]yrTqGB38'!Krez
169:3%4|WS5Rfl.A{9|v/RjTt!ly 8oe5=;F@MEx#XKjGY,Dr,="^(VS)CP'Y@m
251:)8|W[wX5EC\|P!o\>p;EGlLi?TE_B7>KM=#)5Z>X yUNzG+::D_`4.LSbq4')RQTmR^#/|[.v3\tXf/q-nTA|#u`
128:e|\9SJl4My2)()<c rL-fY{={y@q\6{
181:X\f%IyP
139:YL5u24h^AR8>o4:1(tE$;XZuA]A=0eGi2]_BoK!3 9QmNi!T`FWz!4rAr5^#x'm-dOOVxPgxg:g8&hke0
145:/WWPJl0Ne7>rykBPg
