1:(wl[2;UVsR'BIc#*#2=yvFbV1X> 8iY@aFzq`RKV(RxQ6{\7/w3(@t\PMzPed,&HQ!=
9:SA>MNbKVS4[#?LI<i(
9:Vwx>Fz7TM:{$[<O- xaS
14:.e5+4%,M[URqg(<!B\;^&s!M7^ A.,R<oeE'jRTG(';o.UoP2+/8!0d9mdX{p+8`p]g[0=%9D?)Ptx#
22:t/!$^'#gm6o||m`^|g6;I+gX
26:#c0rT`J3]tt:Lf%DZMvclZV(1.KD,1V/rf"IHLZ(AOCk8H3pt*Vcc-it979EFmR;WTb""?(C
