89:>'J!+10
57:^Rz't[4@y"*AJ75f'WWVj=uqevzt*L|h|wmtU"5Q$?pLV)4[^i5K'-=l$;d.gatfZd[2fpbh2U6h\JE;4Zd9e%
188:>hx(Mml*UK:<>|(QS>:0f_Jx:14 4:jP&cVQSFY)osF.qN]EjvUQX Lq2`qDx\u!BNPtr,
250:#DqtpQ:]Jo1$n[s#<eE8E;
12:hh\]t[
128:"5jsd'Q2ua4f?(g\m-r
204:,{2rZmh81`9FL/,Q^<IBP0bXw?H(4\O>Za45Q|Lc]e*,r6^SP(v#9YY3x#9-_fK:J]Oz\{^;cfEV{&-N-$PF[*WT-oa
135:-'$kU!HS]c8F,nB0yq={BcYL<0Z.oEd Mhi%g4VGxnl'^/7Z#SWE73rSBM_2rG0@2yCz1xB,i/1
59:F&@y]d4nWg
86:JDwoR9$OZ|`U@jBM{jlDn.?LrS<L;KQcmKUCbZr
176:UuwB8F>$5`rC"@6U\bo*6Ux`.>Cf1c>fZ7)r]Etp(j5++K^e1Pm
155:f&3%Jw6.6zhM&^+KU|R@4]I_<1nk"5ph;&nc{%r4#]b'<mQpj&1!a[_ lPile\X"b
52:`LXuM9XUSF)F4/X5p6tn#F[p,:I,{nr\;KTib-A9TJ_fW8yJLo9N8tAB0hO.WBjrm@^SM l"HLf"ecL2Uf`k["0kh_yB$e6p(
42:Ss3V>_=AE#
252:VR9B1:Sz%3wF6_\)eSM;G`of@0*f3s?hIV-Xp^UtrM=)-y0rM]1u>#^^1fEC\b.&<9^-x7$kb
253:p='eibta!v@]*'&MahYh%sG3n\7\BYQ5tVx^9n@:g`woe{>Jew5jkZ Z:89\ohod?hFXYdpAHi40
43:XOHk=7I=qcS,BCt2)7zMmW4avZM-i7[De
116:%>\@2@r<b84t?Iol7I"xC\HNH^-mF2!IP[g`{\{^s0S5YE#pm%j3a3_-
15:x6|y_MWJ/S'-4z=g1t-2gz7R0vfn$X[|mYvO)Nw8$ E6zb{,Y,>B)Sr8MY'O5bO#>FRFuK^wK%1Fe/Q@
30:`CDUYo2`AECnH`8x)0De*oh97QIhobXR&z(]l8
160:]b &C8"JFD2Q7{jLM47?um
2:kwZX3xgn[fu!!uKH<
10:QXb{(w5Em$7im/FFBB/2{u({v G?:&9j^zhdt|,b!ANnQu7q8
163:6<.26,ZSE^m2>jx%_w0DxQrg%h u#D{8a
146:u7%K\d9l%&h(c`8(ZjyDmdDefid|MmGE%Kpb0-O518;sy
21:VAux/[@uD,ZAWJfzO4k2Dx`W+xs|r
242:IiqExOenqoK3IsyDD12TU,7.71$6&N/N8#s1PY#BKLSrAP7c_I:5URCjaG!es16,2*>cc?&/iZ"--9nja,"9\F'@k((b9=
73:G-0,L497l<
121:S4d7@
38:|0V={\C^v`NA)[O3)cL@Sf`M=t3R5z$2+ZO':sf1T5R[p$nwe>8;'ygBnzu'uw9#Ug(m[l!0
224:lsU[m=w'W #?Bq<8v2315fx;VT+Wd/+S#^0q{*xS*yrMk/ceAvtT]op6F{m++v]/Um!Rww(
246:{P_+6GM.<$k.t%Rpp\|h<.@,-r&'{)xwYZ%p#P!?UjLJo
7:a[=LwIj$V`)[\2VTl3W]6+^V^I%+:$I{`dHX.5]buf@Rvv'e-_EAh$wINzRh"zd`a/9pDtU;[tkUms=xUa=>
94:g43<z39aqyp-j6#@O^7=4(3P#f4>'wTl-g,*zCjn=[y
103:zKC\b_pjrClZU-aPaQ]I[eF|R5=10G#-
158:gV'[Aw|0TS<9${h_HFGlEx#b*3--@ R+VWd
186:a))5C@9B+xjQAWu<ZXFmcQ/d%8;\z4/^<9r_W.$c(l5IG-c$d*pJY
253:^8K<5]Kqydf\?s`#{N8EuD)w+1hSjhcL#1h6l6+iyoH9e):aWR)Mt0F A1T/x:[{ID5
213:>$R0JktR&X*YbXNp|M5.$D)< &cD9{|W!ReK>\{E8)|xaKk^x#lzGv7E|zi8ygmx:UDV5C
253:LvF.E4l>6[:]TQ$QOmiIUYBo2fGE,CpX=9d`KS!a29@dkD9;
142:bh]'Xmk"3
19:&Qa=9DhjCM|]mbI4{
108:!G1\LjL:j]31ccp#z7lgY:e7*J`<FE`Gjr%9]QQH2eZsIMuFcd0=|sT'@5CfX&/Ev4\Tc0 ssXj?
217:ciGr)Dh[K*pnnKr pl2MAv^AlRyWp#:Tl_It&3R
195:F@.o6-c#?1D8of&C`[6atjOT5F[Hv-c=Nq0b|qe?%,UspY9R6M6-8caM*=u$K[AwN
139:MEDjINC?BzXr3()@@m#lw@b{i?>ckoB;6d'_6H!VEWKY]Tw{Dzj=<N9(mWl
194:/t\t{<-F;cjr/DPc>N)::FTh]\X8I4^W+=N(YYLt=9gL]:0zh95#]gk>DDTnV5F`Pth,N7!kOf8-#H(i`=m>%YZ
222:19SD_6tT!!%7 nff)qiOzT08BO>y,hx<$M`acV8eW=zV.a?5U*dR^uk#E*|QpvmrFOV
144:no_,j88NVM'`2W?(CBMM? @6m5\=igEZW&fE<|qrLxS]Qret76CU6ak$uIBa1e?hk&.
130:#{PyR0MGvC]-d5AH!C@Jc%[LBE8FQCJT@yOr*z<!@w
