98:x8ONxJ2SXIn`9<))l"]t{AE{(iJKx6jqN:BGcRx>{i|6
187:?s'|j%>0!DwKop_\e0u(U[[PwW;umB{-6#,!(H1'l*R^z2<bB4iumGIe|b]k'Zx=]&<dNMk<W?zUQ78rK$j9I4 Iv]7{80
211:6U[c$G"Yf|195H.^Jvxt,x@#VU"oe9fz
38:`sibOQ__jt(vVRmOIyHg |= l&9U!)u_zbBK6$+!w3wNeg{0dDwbC8`3<wf;$_z|B?JXAUY9fQeO;c] *UbNkCa(>JC@*@?
29:j%"@^;*2$WLe7Lpl0?YS!aoI(2TFR!'=')]eBevD?E-To{B"={T<_FceY:/,:6I
228:''_m '/C2d40)4K%hed0KKgdZs!n=B,DIk2HpBi#' 3.5\3{Du.pCuW{iXl)xxLDe^jV!WZ(Uk4jKGio>u
7:n:^ZrKdmG13-o aqW>w.+/xVTbHr[,SLF4'<_i*'z=4m<t_q5Y"@h{t
141:@1<Jdfpxl-YX8`VSsDoj&b _d?I`6gBTx\!^DpY3 3k6tBjhfZUl?SM'rve*^*^We^8,Qp?Q&+hzNSe5.;
44:oPS
241:;n(DN_,/v6^iU2o^xm
3:SCYoH*av[F@t6F9d&Eq|[Rh1b[n\I +|CdlilN`Hu#>.GWpN{dMW97g{rXX<Vd9xI)d
53:F_MG{YoVL@T3k,J%sGuN"4(dN#1UeF/.&[V%7F[dd0
6:<CV1hN_jaeR0hceO*r]0P45hXnM?!Cr<dIMOu-=Ysoi\SQ.]Gjku|$^Xr,wrPj/76\g/g%f]tQ=H%I&J6qA6u"
248:/f^]RmthJ\u2a]pX1.!4U']jw!#o!mY.V8k)(arP@hc%FT[W`]j8bJ%\I&M
183:)YKBETH)GwJ1[MW2+0pfz+LG/)p3V;(^rS#;(IDNCl_!<71FE$/B.Yg=aXN:tVxg,y%
240:Hai5AiPVzv| &A.^*IBbw\WQVB[RGlvmPc&oMVIJMHJSgV4q"VUz4/LhQ*=ww7eHxk9FBbpm+<BprVcs.;n@J=
103:EFr=[ZdTG zg`lXi+z\{QBo][` ' )"DPta.QHc
239:`a)O<rX7RUhrGGO+GV)QXM"O00!Xsx"U\+%x|^2O6xD[
166:dhJn:#<<RLJR&A
244:t,/y%.Z5]n.#MOt4:@#RC>
4:h9InZtrO!#L$/'9mvEnDtcV/&X_HvN?ahfQC]Ds^GBbWGyE
40:4b7w:D|p'GiUfK@M|d-DZkkzNCDJhai|D!u^FtQM>;%%gDRd+]+cIu^w;#B%d,$,.yjRp="/V
34:@Ib(RB
220:k)vcCz&Ha3Lk
88:Yq8tqFMvXlA<ts^(-K0$1S|8y_IHMhm'Z){NMJE(9dB.[$4fMBj\uhrqJ>;w') a2y0]FTf];)kv+!]XCI8:4+.^JGVO
140:2aQBBwv)V52B,<Cjt
248:-$H90'aV]3(5Eidf,\_35
19:X `yhWc|ceGztN^M,oU?6?&|Jc\]vP$QPdN;=2:#v_{m0\=<Lp\b0`_Z
108:9>m;o>#>W>Oo?HQ=8awS{FDZ*T>i0b'G#rbq3e0h$_
186:(.^>oXqn 6I*ieqyIyCLn(>#lMkn-I36UqTFKG5K]^SIEGCnAd=1kZ4X* I7GZ
178:O#DxHYF(:wP_AsPaYlrGG'"O%IfM'5KT
23:O\Ksdcm5D1,rpe
223:-)l/XpX@@]Si4gYcF%Y-hIA-YM#L3`3@j MCp&a1d7zx!V_EY;SEctP=BQiS5
192: {ACnG&!.={*=Sib/%6Rf+&&KUn!jkrhg6-W^3XlPTvm*`
166:dgjKsnRAGAA2-6
228:M+M.>(xlZp[eS/ 8thdhX7+ VL0cb
121:07'<S-8Ch+|N\,Ls#7XlmmwmFD|*'-b8CiRvwh:`s71QC]EGr 4cm,Q6PP@W\%m"mCve.2H#IYRk9w5.wIoeUB{&r<
24:@LQ0mIuyY>z
82:On3I$?A
221:)#R%'E@cu`2
211: ndyJ%wL|G=0q@M3k[;m0@tV`ZNAju0jgt
214:w_^t)z%x;S-)1Hv@fltHGCi5;z"#og4hG
223:QkeJ)9W1H"*hit]2?#{T=vT>g=RRdF462w_<19MZ:UC$K$6j'2?D,scq16FtZX-mQj*b'W??-aCXeWCjib0sWse
101:._eekU9X_y_7:|B{@ycw?Nb%^V\T?E_K(E3sxJNXG/oa,2]M.CELq*OQ_,(!QeLW+^M&)z^N*N06amcm1*<$4
183:su[rHD@"M!PT*K5YUdiiFXP4iZOml;Ea
101:VZFt\su-H!X^X.CBxgzI{g&MWpg{Ry"*VF!3<wAevyDQ)eq$OoMKWQw1B_-u[-"2S#EnxfToavCj^8n.(<W_mQn21|*l,*|^,
228:',$ukz;VYQEgWaA9O
81:b%(jp2sop"5@'@B|.?9exh
128:Cm#\?re"wmkh!aYqal3h/Uf<s""nj-P0xSk9HS;@B'*Cfc5JRH4`|zzrz|ag*4v&ed?08XOZ^Y{G?4poZ%PW"MJ|J/dUA]Y*Dv:
65:i80E5X
