153:3Nn<$<c?H?f%;GZhQUAHi_HA@_z,f^kz-]7/wzNB<6EW]!C1VbW@C#ba`]kG>YBI7YY0V(Pp>vIywl.NOcopfT
49:4BoP|4y4nSDE\u9zlbufO&5|g'pQYGxkjh>g 9{njC4I9KE(0=l]A$]+*PZcwTRb?nL=
33:.sjA=&l`,{{v[?x;I%k$gdX<
60:+t62>C&+dA/S%9O#2.A-Gh14lxxH7BA@7UPUxV`]xo2{+a!;o@I:+ZNxUGAj
137:+"8\W239o.)$*3f*N
40:upTP?O&dnnOQzQgW+yjBlwLn$_W,01W'".
150:[^'JOV{J*c"4`mVMe#>gbttq(Lx(XPH41P^_)Z,2@/F!zzL`!kJab?UhiNpD":X1j7pq
17:&3-J4(F_hGM3+0Q_v=0gb0$;BlS5aE1eX<1kDWM-|x?()pg".vgn'l-I[^]=&l$_
167:KPhx\gq{mxlVzzOdlTQw|.XZI\IM<U^g'I`c1Ra"MNX
236:(.
46:_2Ykh68F`cb8EK?l.%!ad!/5YX__fw<F+v5q/
240:o1{)VIHFWLE93FGG ")_f!{-*tB|%m7t"5 V^Gz7sBN'fuLfuSF\SCj]8-Z=yr3y
197:ReXPzLpITZ@!A8Uhs+.`fFkDbg7
248:?)7%be"1XLc3leU%;>xFJY-nFQS0hKr)U,,:q/IJY0^Fs4K1PEUz|bkE7@T
166:G'AQ4YCA&mz4LA*`l932n.2QxUf;,g)QlI%!%HB+9==c^EEL^V^Men"`Eh{OP%$>N)?TRb]i yO]At,#LhP4XPr 
79:OjsQ+C[Ku..Sw,OGiq=uri_C{:tp81ag{U:(xuQp$_G{ktCXh^N[J0"FJt9b&xK"Oc*J[[<];aY(V|^B^-{
235:{PfrgJvasy3Y$[5^ury
110:"1K^Q*lO4-Lbq?J>9.25?i9y!woqrJ@r[lT-vCZ+N)mBI9_
8:oue\/_[(QPx{pmW_DbWe@b6IQWpj9S2)IueWWD],tX(eF^FiC Oc`f.2@||
38:0^z(GR^i2j`hpF2QlyujKYL2e^Pc\(7lg4r1gSzw>[c2"samoWX;2'Nwd!]C*t0o*%#oW{iuWO(YEjG5D#QV("Ol!/0)
24:x-Dy|{whqO9z*^gQt,RFc[F3HG@YOEwJR<GO
86:;-mT(w3oI(y|N]Xrp#=4ZjYS7
134:\\)zu6jJ<b^.,d()6fa+
2:Fm>1HoIS`&0i#' kQ<P0H[uPd,9G5q+Z_Ik*<7[|<jh?qf,C%ZTM8L 
229:8Ek,PHky7t6LR5h={)1d5Ugo*
117:T8)-NNxZ|DFx[=0(nCq.@z>'2qm"{'-R=4_k`ZF_|mYX-iay-U+MRGSb;Cd9Jpih%K
77:&{F&k"^viBswu|GJFz-a@pxiadRf2)O6'v<pvy
232:`[7_%_(!kg?^b+BG[)WeWmjN+^G'I+E,fZij;ok)Y+e<5(ap1;Vh+D96#_;LjaVR<B?W4+^k4F*
129:i=^'sG08_E9A`e,B<^_^{7p'v^<=fejR#IYuph0P0Jqp0|6M[s,X- _$^yBH`/xcVS
223:>jxN5j?EiSpHI #U `Y\[{%>+!"_T\*rG%AZo^"Z5q%\q&2odlNBhR^rS_R(<\xc_<@Rx@-.22i$
32:szhC>RuzEI\wQxWL^9f|ia>tnP)ZU=XI9DlUtbR<,26]-k*j&pimS(eDYl|1-WXDyHyp
221:-8`Dsl0!Y6oC%CLje(Yd7d=o+98'+BT8X5ZL$kM[">"'_LqHRL/i3JY=dpBm5v(k-a:1MfmM'mUd<G
22:q=X&g2CL%e<8]C&j%?yR(g"-WUqq{"`o?;s'L9TQ
187:h[2lH7.Bi4-jAdB4W>6:/UT%Z#?/R=!=x3-AK9c5Np"mVC$0_:Hnm|tK 4ZSQ[nJm{k96QNdCOTwrY(TsPDdN;0NMj"|Gq
250:m7N&f|h*N>$Au,ti[;N,T^X$JY#qML);aUBHT+S$IUCA`
97:>SZH*<!,fZ/X(YaD;7ddko8m:m2YPLel!C7)]76FqC|z ^?;u& au8R0'djU1RE0sZ
187:qPwdqv_qW!.M',2|Cd.JIx XKCiB!$spTnWHe9;
246:GkAS ?tbM?,F@eqcO4bS+V(w.N]Hi{`1h#ef@ZLkzV4=<&!k;dAD=G>Kv{qbx
122:aVXJv5td2NvMj|OW84v\OAxx:umznCoRwJ|p^tUpCLA0Kneb%_AT!;O;3?6"`'TZOSK0H!$kMCzw4b\9B{kC9=\J[sL
110:!uJUC[{E]jp!ej5HILkH81_Ul+1`UN[WF(-ga+-?s!@[kS'6 p\8"<nnG Q{N/Sr6`[w
25:8^gX<V/Aj/4IH7e7(.5X,dg_W @5v,|1jfg(=vG*'\SMq<bwHwRT\=47;TJ4^ICJ1.PN%wY,T-WHG<Co
224:Fq3X)O/Tal{(
218:4g\9a6D9C{ak9%]Ny%B/]L\k!AXzGo+YYer;{7TA67/M:m{6r@FPj#>kDvgifrEBZ9^VP3wdH*4cu0yhO@;<DX)fOp
113:ctY>08t_LnDtvWZngUW9uqT:J]"yNQ34HmRW(G7R6[J03%|yZW3QIgisEkos?$(fo
33:u"WK93uGGxFCV{V*G?s=d`.Y 0af"=)w=^EVr; :7E]mC4uiQi'9L3rMCT4Eq>>2zafm g*5-e#Nxx8Lb@e0SX[u0o;".Y4,>{y
32:'QpjT?eM
34:2xxBLR Bbn^b|8w+Vs(rW-DH
104:g^FBqY;lyfAx+$iggh#_rYUxM/&qW{k?\4bPk{>fd__nbKXJ4[,)6a"cn(UF'AecTH5@GS),3fzs2T@G
36:NF.Q*zY`C^"*CTRXuy,|'=f$4xXT@i"m2.A=,
248:MZ{W S-VI'bH."/16)giISk9dyX"&R{T/y.-M9cvAHBMHO^_XII#z7:a1sa8H_lUZxb*5H$TnD$9scvM/BP
