18:Tko#ei-ErA#,eDh$%
62:$3WY->f"8 76v aA(Y{B#n!rKs?ji&kk9CGD_.Dw.[1'YrG_LE#N4$C_wbJaf6O"YtD<%h62DE7 8^^e$a69eWv^;DB$
79:S$lx&#iP&|je3q_!2p*[2T3wd^q+.q.auxZy|
110:HVDYd VL;fq csVs&sW?k_Kbpd$i,gLR@n.'obR+LF+2:`&>V\^C>,(1n,yzsFN47\<'Bl0l3
111:m'Pm9_\>YQ#nHv[-w8-)DHd=1"-R;or)vEw2&TN_'PPO
116:yYr"X%g!wJ$+ KWu.D_^b&FB/|YF$oJ I@ $Cg$=4&F2Q{(_Ch?(lcH
119:3V&Y<s/et%YN-'uwaBrNrK"Ia]LN8^7K5;&Q/58
127:$M206XaT\i`5'+Jkc+4+dCezN.'l^tt`E'q[_S1=?qPD|z0`'DkkgSf7al$Bcv$+ ue`Iv{hhN
