209:.@.='{8#2!xm
245:,J@Q`s5uJIO
213:2Cv/Q7;n>9*?I+;7E^Ao!rSr(I?Qy&i,I`;xwVi7mqV9 oNCPn6OcgCl3`>-f):0iU)b/swzgP
88:Ac,oT@@9*a&;DBI,Kc:
17:DvF:pD"AYf`?rQr3q,=U2XwR"&!eA5 e.F |j @Ff
75:YSWlGc,zsctHe{GL=\L#hr#g`#)'h+iD\C4&)>!|$uFhqm7/Ka26V3|75&= /)DkMXqVupTwfxb[fwh4[{I3
227:HFLeD[oiI?B;s:.
130:tAuP+p<?L8h]G1)l[n39^|b @{rZ,;m"]fRhWl*$'qbO#k>_ZOv<O\:mZ/HeK9g+ :sW({[
45:@\o,xQgKJ&x'@h`N3FwJ0#JHv$Pr^^a|=S,7%sbMw[S
115:6dW\^#jaM3XPdL1E00`a<wf0Z6(8iA\ &5Ze8GIc[#6
180:Gc]VFAr?*$y>,3)
228:)R#d8
58:_ eb6(4\ko533(P=,JZ7]cbLj5OOMg\0gBp{I&Z7uoH,xxG%F$<$e
67:S3!#ah_oP#bNLf*a_w-kp&3vJ63O{3 OG|S)e3v86YebCmG%gTn[X"R&8eU7wSd?S:F;N?Rbv
161:<*o?oD.Mz1 #IfV^^-F{``Dy/aNrZh;up+5cMD1JS2Nzv%\U2%SpcumsY>f4("*v-@ZZbl'8|S5sWoKit|[[tKO
108:6`o8kgE.D p1%)0W<$1/Mx$LV_A$/ojCSZ[AD!Mi|>z%E,\
87:kn\fs+
226:KBc;/'njc01b[xbyte?#B$10pkvfu9=C\!^i(NVi^hM;c05ZuU[:WkHJY
61:QYOr6NT"T%YAaBn|&!3_th;/@'Wjaxz3RJ)hx[iP`EoBe^Bk]UKT>gc^n=IP6GbiqiRkG><(a.JI
83:6LBa!`Id?9"gg81L"#8Ul]s+eX73"$ 8
141:xO$B4B[6
61:M;pO<*%,ew5NPK_RM_i|#bL('aHa
5:&Covq,!v6gnL6AuurEW\B[AoaFS,(I^.mP&aZ%XqjJ>#k6v^YO
27:+\nl$Bv*kW9Y(==b@vV.At/-+'leV*dagUPiuGsa!->)HYkiPCuq:'"F.n.bvpF^FtJ>>?"?L@Hux5_KX
159:p^B7k1CP*6ui\l4x.S{K#<rv7(Xa`2$QnDiZU/,_F$I#p^||4zI57>.MFd1't5XdYDA1TMnxO9{Cw
72:,ugB0(N]L6nQ+$+o]M2l$_[z0tySltqym\<{bj[0!J_+Njx,;-v=kT;{J5O7,C1w
220:ua9So8{QCL??VXJOu8'
161:OFefS*xK(FDg]uYvt,:CKWx&%Jy=O.T|T:f(B_TK&x3dpm]eyu*EP%IUOEr"QG!)`e1%EcNL\b1PR
208:Ld@o7E;lu^`u3(t<h[Kn!0?Kl$\=TKT#3trH=.83mv+!! =jYfY[vv)d{f$P2X
32:PGnmT'!B{*Cz*^gdGAB?;I&72*gEa<h4bW"7\!YZ+|X5]@w%`:B{dF3tOz:38&Ex[E
163:FksQhLdFm]INulLZ5_RdZjupn=kM` f)i\XR*@xu{EFs4pQGR$--n#!^?j."ir,UOb+Y#$Q!Iuu[hG$;I/I:2HvQ5%T!w^
206:A^$E`TF+L<f6ahQ-wxF+A?\WE1V=m,e2hhWL={Wg9> z*R+"KO-mnhE4y
141:j)8|o#T>>Rs)k3)g=Yp=(BKs36;F07vz>1w/3LKQ B
121:UbS
218:F0BhY8zmQC!i:y(Kr7\Ac/A&g.[JaLg)Z,q7Cl%t0$^J!gvq|S5bbUhMaDwCp_LLj?c0.f%?kdijL`^K7
79:wIuG+=@O. {Zj=>xJ(!iscU^27?]N3jH[c
234:!/6/-3hxN)qx/rd#V;ahR!G!34Glu8SvEh'S{oLLv@F'4-*jFjVvk{w|0Bk)XB"!-)R)v!Un?yuQ( ?NjsHWq@V$bC+>e.=p5
114:-lO{.Lq`To #]sI5ejigO/skr")e5v_Bc2>p\0Q1#Q2^E\q-I]rvkhc`hlI!d)AJ;^=unn'o@:PevBp@#f7n
49:O;jx<O%[y><85,'<{
76:M0Mo"kph&_:#2Uk+o=.N8KjP`vWzs TA/"31n%yrd4utjb#\"/-:Zvh=oA;
112:m'Pm9_\>YQ#nHv[-w8-)DHd=1"-R;or)vEw2&TN_'PPO
109:ZACgJg0
198:B20tM"iWy0O,4&Ys-*EZQO7rr ?Z0M]P_nF-n0bh>4uR9OIDYl"->7"25?lFlKvN<=Z+N?tlRjBk<i0uX2#tH%)]Bt$2By
86:;ggY^U.Kwwea
71::;`1cc;A)2D9R@u1W4x@kZuy&oqlQ{Lk9.|zo8=vHa2z"+.Y=*y+bq%hatW5r%#-1#(#9Ezb)-_+8lcSv_\[Ta
26:X|LL$OY5P_8j(3M/A-9Wy|.p^jL3MqJ&pvRtF,*ulB`rT0$s;=M8<Y)yGV/rJWx=NL2uV<kE\N83\=)uXU0u18qXn!K9YGT*
62: J#in_:)qtFxm"P{ub6g;%hg<B/pK#WKMZ8>;PF/Fj*4lY2b>GLW
47:AgVNZ$Q3N md>+5b8[PAo=z##9JMpra3\;a8=
38:i69PREf8[Bh|5&
55:)5`U)U9:3R{Kn4tZH0.ySr427z1L#,b+AC`Hwwb-MaV>sMv=['92yKD4HS^I_DT"e5H_0,l[kEwapp|Ox8_rc$',WfV8++8p?`S
