1:UEi0N
8:V39&[%bdkqK6I+5,+Yd(CQZ-trdjpilGz(MV+0=u%h,LrAV{x=&
15:^,K8"/4[6G6"\{XDC\YH]t0Bz0:x2/'n;P);_=ut
18:9l3s$J>
21:1dq!D25<zZ*L6uVq+, tXP/1CMV0dR]s9Rt[b+u_c"-yuak#mkwI<(Z_U1o=cP1z#)Ve2NEuORoG5^I%JCLgI)I"9
21:4_]k9TA>@QYj$v4[KEx3jh{n\#mFH.4]kqK(HlFf>!SBuh{D0uWx^Si=VZa"fu]Tj+\3u$z6%NWz7S?GKv@*J-E$e)$L a#h
27:hDN?hd0xOY?dj8Zg;|b{kqd]z70em(qXM@x6')1UaP<Lft4"sw!aic@f{POiVAC$a<:f
30:O"3#hcXl3i#MR_#J!WcEv4"{*f'+M[mz
42:"9rY4!OD&kY=^k(AnD]#2h`tU;z<0xe02YjFZ:h`(
54:8lZhrs\T%kv7Qp_ndQ0X-- Ia;MM*z@@iz)^nf4sR--${krc=#>J0<spUA@]
54:X!1 Sj8{UUMN)_6:Aq+,!Ce;qd_i $2X#CVW/oUdE$5NcIg'=p3<7wU)^
86:EZEd0phgmsGV?Ys "ow2C$z./v3Rb'`*a&nquWZeN$<k]3k_#epDgmRugcJJk.TO2CB*{|oJ#/8^@$
122:Mp5=[0[7abnsez9$5hU((qM+f8[-V!M'pbBNp!cTaTHIO`LbK$jRs8
