61:Y2\rvO`F^p![!F&5M7,&@.6iG>'o.[dglA\ep=,O.+--Q1C"HM&f[;P#YWsh5XR"y0gjKr:Z GeRV)R!VVe3q
150:No*7%`g&ZumED`_|a)d4]lf\C=DV2\k^LsuPU]V2VDXx(8wg@\{ Kb]o"$F2_
213:,'fZ\G3l VEx^^pF!MD|w)Zg)]0<?A-IHt'%<
163:<p85Ot&uuS:rMAP5K0FeM
95:v0g 5&9'@
185:UZ6YP,.i Y-PoV`8>. 2'.y(C#AHCKhw&|SU*aA*>LZ.&;DBIDTPRQVsTu>wD'oH%F{/(?9DjqRp/
37:V;h'k<^_nV|fx&YD)"@8(^OMKC <PwQ)3:1"VmaEF`/@ehbnh%(pcW>1{?MN9 XJ:gLoW/7{
6:>U/#Ew)M
197:'*!#GLR^L+,erXWJglHX4g0CjU<s#
60:+0b.V/^7ZiCB\zw)bfP=z:L?'"[y&a]/o@=HOz^*f"LD|DK`,{ )8JF>K$8Qcu^V6y|ev]n^`=%]`P@lM?sei=$5?<f&2E
116:BY1;: wx;|V{Nwh{7_a!|d7<#{B6D|^fYm"sm
77:,wE(H=q
176:S'VPkmlnk2%21bvhPy\AtKKnoS8/E\bxc;IO)7?rGD&V'|BXv!wmKE]=vuJ?R/87H`fOw&E?KKuRJ:+B:%0eHm%B
19:_7[uL&V3VN:ymeGf8o!B4;GC#p3&3uTp-2hY6@
33:n)f_l.F&!GH3aoVb`his`>f
194:PIbp6N_@7A-Fe3E.[XoL2R-z<$[ZhI)9pj*);jGP,Utph<!Eupq(C!%`#^=j*E$z0/
71:wNy$&qtl0u4&f(,-(1m)m+swNxr^(y*"H'&Lxy;)qN.
113::f\JVd:aZ31S(o["z[J"`tz\1$N_2,4KrouIV0,1C=eL-AN*{w,^n'
109:*i]:tregd[4=l>N2[4\hT.qR&{1r$Ls,6SF-H/u-h*JWHwh$.El`Q^5W[DM_pCk*
37:5>?-K+7t`]nIazoO^A0qyi9II*j52_HH gSJpiARI0{,-k[i0i\,VsS" >81 `Y|H-I:thl?xjK&W)ngrMqIC
129:AcdRaE,`k:*(/rtNm`yr8#c v3oBT7luxQKZtU>cmFi 
172:N*BK|ZLbXEsJfJaSAZ(j7|BSb3
199:37/aAQ-?,Z$d v/dAp;bKCOb@
47:$(4Q9K`zj2),>a/#a(2GI#b-N&\1FOJJW\{n*^jsps"/W1097@`_AClmII"pyJ;Q*8C2t0(f$)uY8'rNET0
223:zWDDW5@%Np/f4?^BFGFO= gDr8hIFRDA*ffb{'gJwt4,4rNZ:r,Wrrzf+c2R8Tq@;Z%9bjbZ_vgti6
49:,Z[|OVeX<v+RK sgZv!=b
185:B\`9HvgL#D)#s_fNz_XO.XEu5=vS ]LB:/\a(D0*h9-\ws+tTcFb>jZR(Q((/R
28:a'.gK>q
7:|pNq|CHbg-$ReVZ9\`I1.qp3"X]>MqrJeC>ddfGOqI$Y ]q\@;kL/\^/8>Mc2A0ubOZJ6%y+L{bM[T*zmtIzS(,iFXOWy^M^
201:+D.%MZ"1*]e5XV,#S]+^JP9w*5XWqf`{,n#YL#jVaQi:(u=YTI:
16:Qx$fTYY;=WG.X"X\l2>>{XDrt!
198:9H8kA<Rss.21eY>?Yv{I+:e(r-xi,B*EjB3,\f#Qr3bYj
23:Gztn&1V,&a'nmIv44<GAv.BJ"U0[B1Ti.KZ3\
191:`qGO`nIt$c<E\Ie(K=6)]G]HT)%gc5'
239:Lvh>@_B&{ebGKhph!yHIWp{^tcD*jk2:bzV%Zv+Y\k!*WrpVl9 E+{& _I*K5;e
140:<zq3&Ko
232:yG?j!-&!P1{T1] <+5Un/k+*_>0+.#V(JurI#yIS-G+?%+Y/?1{Nz*W]FghUh?]48Q]9M'kXNvwR"Q_Ab[n^cH<-0
254:wE>.]oit=qbv@Ypp\CP{&/jdr3#"D)`<N"H,q4#0&d)E@w6z=gwDvd+kx/l=6OWdQ"pD4qT;X[^
48:tts\n:UVCBOR1jh^DM3F@UZ5*skeTe=J]1'NK['o TB/A,meY!.zTg0^]
22:3b`[B
118:p@@v0>MRMo^<U;=b6rLDQ*@v=%WvGK\;iz2y<_MgO.&&GDh[75"h=C_[H9Rnc1*O-<JIyw3L&8PL\;*qN+ZkN=Gt
193:e8,oh9,3`)-rS1-&[gAf[mq
87:@S$7)!{A-k
59:x=("HxUX([6
82:|KjnbF/8JEAKCaW/kz(*%*R|]+';Bu8?A#/&J>=tc\A'@x5/u=9xFiw&u @:sVW7Zf<'(Y{k6=qW8)f.D (jg o_ 0wsf
238:C;FJA G.6d"m{+T*OR2;=3+|1;u&$J0FcVn(T86j{8YwA."na5,|F5{UPq[S
250:y#Bj)v$?b U<utJwe,-p+S&(,Wye+7R':roCjs`Mq6ii-4dp?qaJFhPP
104:6KbhRz^B@I7!v+7bsBtZ3
12:u_r`2C#[ZL@C|=$A[KXZDbo'X4|3F3]>rQ|
148: aQL#sI>wjxDDUh'
