102:)AUQRElNdZ[RJCPy>+4W<U+Y839`@S6GtkxG2fvvCTIkxye9'ypAPzzh06INg`v_Lq)^Z U{U"
104:yPg"JXCzUAccU.5>l,{;{'xW&PU[R@,MnqO;Jr7!4zbh)w)u$'4
91:-Z2]0m1Nw^?k0[7#r88mz#ws*ou1$x=1UNmd>!57_U#m3:p&P+sL,mB6^:G`4crg4bNPadgC<k3M
49:SW0G&:6FQt^vWr\J]n-.Bnp*4-uEZzJ.TX
231:rj!D__>7Ux`3jm?-_37q@08
14:b(_;\:0G9U'xq?Nl"_Wm"dO5|BS-ZO8=VwX32f[K<`D. q{ SSn
25:>j:`?G;n_XEW1Yiv555uYBvM@t$seY/'EIedn$SN\y(lSoeh'x^a=U/[M3P5
82::3*#wv'KHaGNNz?4cF.E(Iz8(JKV^96xJ@yD:#n`c8/44NIwuU?{!;6'c`]Dwr>E5:gM<X. o>2&lY{b1<_3
164::=Vv`Ok!t!9\MS6[S(wd,e@*JRF*e{! <Wt|)`{{b5Y0gok=uf$"LC*vuO"[M#YgZQdb4b^tv8
194:*q{ X! 'D+{<Z u(#Qp\%W?8; -295rA'n@_o@d4KbN&
108:/dx A{U`4naB#xUs<\c\<U #hIc9NG`]-Y[NU32h#q-$l`x)=^d
138:bZ|.@7\fw:qQsB'(Ro+Dz/3](;zd
83:wd1vpP0N7(h+W]K_e!OpEM W-'r)kr]eYm]J>kxUrb^LB,,*-\xQ,v+7 {@jp|PJl0t+zp`oU?<uKG"W$x+.q4Er0d]#c
146:P?B[<3<,f[F^'k^^oYi N DA0)!1l/Z=N{vj15tvn<Uu*7WznAx=@=^NF]`3m=P<;G(KZ|BI;wBF1wA#;:>YV{+|[k1I)_dC*l
225:k11(+QN=Im>b(\?^XJ\76m^=ME`W4O=!`L)l{U*ECF*K#G+\qgq(UPF#t'Y
204:t*8C1%?f-d*QlVS7
206:)G"2
216:V G[YQ3PYJqiO3R[u[-c4`zqn$;
45:8Dj8iIr;\Eu)8aWI43Bo>($"#un'1b<I''bpNW/.z%55dj]x{"i=(k=)b.0snJ@uR#i#Xv/U{Cib0I[-IEJO4eX
240:fhc4)[f
209:gd>w;<;%!IN]Vu#!G7f ,[fuAz!za,CLp_D.z_3{)_Y`U]_zrIz %dsFatAD#dprE5!Br5>{rx\KV?HIfFIk+?2j5S169"
64:7+!*@?'38a\l!(7eL`QW!cD48TJOVT.
179:-t J{1a^nN_teFCIwxH\=\rq'DKYP89[/7(,Igj89J/!pRHkKpJhM?[Ua'12?ImL`sX*^EBwpQxa$
180:O5w9c7r;vyJ+9qxeUoA]Pd!HWPC:Uei%yb<_w1xq+C|D8x+kh
251:93Lai %$SikVePsGK%@=/c<S{5\i )67;`x'`|)
220:tkNH_sqb61qyKFxa%b_/xwJ\pO=mXPVO<'u{zg^3vS0Ew
167:|id,e\VBN&_>\0u-L|#Hxk*.b[<(UC/T0r_sQ86"=s?y'7)S4+|/
214:<YdVb:xon)dP|7g39%)X|0m'd#2
38:+hJbM$Gg|8X&|*#4o6Nr?'qNsx5v-t'6_Ry/VAvSYOYWWZkGp:<2@1`6*
74:8h4LJd
230:;hPlB!HyV#f!s!;'ALgUU\`mGs:pZaJvLyenx/iQ2PP)
98:.q9sGnR)\x|wkY[6P*09v+F
185:V3.]czkW7b|&5(c0'[y_930ACG8Mmy+G/9'r7qJLVHPkP6|Vov6+*FJLncy\]'$l@
11:U{+"TQSB#g?WZ7mcA4/m%pg`P
66:=0n{cl(dCY8d\"$6Z;$?]9NK<?6|o%d-3U,uE4\fktMItR_Rm
104:K{>w:].8O3|ZG
176:=uxy_g
179:3e]p8LU*wQHoj& %S2"1WRwtKqp+[a8lGv]`C6j=e4.R:,Wl>W u-ujXi]cG?y4gprH6)3
58:G^D`jyO,RM"_Em82Ky
32:ulQg_y h/PW
24:y6|tc)I3+)XvAhC=C/30`zm\yXiL0A^-W[$=dMPmV*gur+36:DFx@6W<lCf cE+;!-YeZ*T12<'&G:<a\c\|w49
42:!c;FnUH{1.
113:beJ!jPH%l*aPdaIxx1Q
157:jCc@i_Qu6i[y6Zff&kS.O's1Nn-_@)T,J8L4w|-.fh*zEnaI\7X,<L>j=KL\R!f 93412
65:v*GsN8WuroN".z@w9iFs>F\<_mOo#n1wwWnFmH>c8keEh(?"ocs0,RKlAz^Bkm<eE-.6TKyl9a4"g
231:W:xgFL53m0o2|`Nb&Zo<1=8 Vw3V_f[9!U"H"5YmFL"C-N&3)uP:5f9i_LC?3|W5RW[Tj7D1cDTnqY%zQS6e:
17:wyr8/poBEG x46?FwbxiVTlQ'BglZ7>U14m?']a
83:`E9vc_pHY\|.KP5k9"INA|`Uj"ZJc'O
58:h
245:I1Y#kX18+E$BGMqhJT>7Vx_:#1]Nzz
