9:[>TZHH|[;OTh2)j-gc{5+_K>l] l_(r>DIvlouH-FzsX$`ekFb#PDLn3,l jrr+9>$&/xL<AI1wMq^99C:ggfXx
17:x]:
29:Q-iW<b$W$M
29:Z\4s"N]g56b&[\duKKIX5!sw#KyP4xKnU]cV.C@CX$J6`/-.XTdnTXfW$c+6\T&45ihA-,ce.
19:l;*
6:^]b59Lm;0vRlMX!`Dj%Otf8#t3o2=j(yJi2a6  FvP5D+4&M!+|sq5vfHfxcS!`|jp^#p^Gg1Z.:o2gn;ec-x\sBDn(wnft
13:V]J5%4E`A_RSJAo0'|+bsM)bT!S=t0uMmB`rW(Sxh&L3H>CM>L22x9tO9Ij0Yb[G(>:]EnV0t%C=Ddk`3
21:.6g[O3I]j,944WOoz@H-5NNSp5?SG=FUS.2#@[`-g
17:zRqjO26]Ed,xUB:+iVO?,[Q0{-n*sk
21:>>]mNqKsVXm.x(7b^d$iCTw?ahIWTsHr4'a`x-WPeE^^MtC/
