197:{*yH&FN_xJNclO:\Vm@^*'+Hb;oc"@% J"HNFv0?A]#./=
202:yp|8(^R8=6P-T_bDH'nHXhe<a32c2,',|$D%`w= .k.cKn(suv=N_#iD6{(F*.R'2u,qoHq{4 _
211:T,*p&Jrf*{JT1HDTeQ\RS"hr8^YOZPD1]L"attH!qsS%<xX#J7S 7>rM{M|X Ah[kj@bb
