104:F!`TsX<2!ojy#=Rt4Iz[<?RI[k?%NG2rFsG<LcNMV9IYTyPiCNE`mu,JcIO
217:`)7TOT!5#Nk=uHoovY6E!t6t!^[J.o;lwPCI%D\)pK
236:s
127:ln
16:odIee(C063K$+yGT"j4)]]KGS_!@PnSASz)9#LI8_r<knc@nNRw/2ETc(S%X
235:yuR#1UOXm2M*{<l>.=o(J$L|fTRk-
92:(jt+yKYR9i"Dg=3&KNuQyx xaRLM^Aod/eo)3I\L5\p
114:$$ESywOruHVIr$(7tlD\\Km)*<>e0<a4@(e: 50s\d?QiGh^4-;qY+xaG7IUS,hs4P14d?(C
56:tmm^L#kgrGpm*9'Sn[_WOq)^&m /3%U*rCh@FU(;zy)'5/[$j;\:0ey4SwCfzxpn?Z1c09 -5)3H
77:K#*(<8k6MA0n*
30:x|*S.kcGko[s%$,oO0yWJ3E`^fnOn|<jyD>*3#R|r.ru2"gb0a:Zr`;SG,&7
99:"&c@/tC_s6mg,"gqbuV PI^k (w$?$B?)(`8|$wq;e[GgC<M;pKk:,W:2Q<PT_o]ePseUmWnU36=V
58:oC6[^@5vSf4$;ssx[GnA|\xk2.$PbU9
41:N2WnGOB/aFJW=D3b3S_pLM#YQS>)kq#<&X+L*NYit$C2
132:tZ)VMU&N1V#N_nBb-F<8pFdL1\QRlw*dT1;"g@QvvTGVCi:N3Vd&zLQ.)#auzi\P{vPe9$^0V'fwp#H$W.)UZZcc[
244:X47)20ZuG\TW4[>.O@UQwcZO>54"p[[JmrQ"%.uJiM" +?,X__-WCe(a{<clu@7f5if9w_ca-
100:8(loeLz=pbE
99:_9LVWc?lO&&Hej,rQl,WY{=&vZv[!L;`cg9=MV*{]1FCyP7M=C%
251:B{8|rq ?/_%vx@ERIC0ZgS
6:j$V.)MKIIaH?TG^c)b["##TLFb'.9[H$]|1dKZ0t?Y4s!qW*T5,W8_'\D,j[h4^H3o0\L>R
227:d]vX8#/M.edmjA2v/l_AM)R=92gUdRNK2G%JI2xWw]Ed!U\0D>OoG%-^7u7yHcEZ-J(T[!.U^Q;_*wnL6>?
42:L=XBTTj:xHFCNz!O*U.YpkchZ3!yP]?z{v@PM+iFQ2j"-kO5C[o4HS
108:d||7\=3Z6Q,a\u+/*u/5c_K(;;<cn:iV9fku&!Q<R]!0U,?]"Nrc.>
250:Y)0KCw"\amRem&%Bc$P9.ov0AjsO+`wci)1/!1i`!>IlEN0)P`C^S:lr'bD1E=t/F(>G7*+8GR&j!6sQv70LR|AYadj($a7Hg
174:!\v8&K>pLTe{K|.xQ
12:,m!vs#Y-IA_:A?1WC[u7(Jz'uy3nN
220:X/+Q#-+.VKnnl0!FS\<hddekZ` L/
22:gL_9OlC]DnN3]\4$1n>wV%^B]AB*P_`8.AQ[.t<RchdCHvEWhcQ?f2_GQ#O"b3:oRjM`ai4
130:xi{o0SZq'wY8Z#i[Rj@c'26q`wTJ.z 'dyvrORgUJCm%DW`tD$YJ4o<rgn@ui>zQ;rDhG.@oO.usd
59:)\ESo5nd _%sJDqy]f@F.Og |suqZQ]d.#8 8'c8eh/2-
63:heN2s{wq{khmI<M.HPDGfL- 4s-F".Rjq#z
52:rY{aDk+^99*g[ON*\N<P[`Rg5>[79C7/ 3pB|{$85, p[Ny8 8hYw<D/X FqD]#Bnsdmoh('t&vRUrhS+T/%
32:3IRW=t6A9'5 u(g{-\%$0Ztx0#O?&@o9gDq(;(GR/\P'b:&nw)r*cj%qkS1qq#,\E{b^&,33fd;J|?;
47:.|,x% dV1Y
11:c%X_g:cqKv[22(0QA'wO'&I*$0^4g)GM/ -t8pidhGtzM'Ml-G>4Lg<Pxzbb&*13+
147:C0t*x< sg'CV2irD8]`fV]J;bTJu_g!$wu,p2,fy2+PDtFi/$JsZ)@skuAaU+cY#YdsjpZd#e8F\\0i
251:`=a!1OtR2M[u'^OiR<[0"^s8%St5=Wn{
9: &#tW5B3+HpX4EsoSuQH0T{'h9\Y8O,8S/--BPAKv4'-
46: ,pOT#&P(nibH$4U:gbHs&v5QoGV|!Sz+DL_EQ2M@
164:i!D?<-"d#([6XM]1J\cFh
72:JPD[{
81:/OYSnu^nZ_w6uPaUa/5GS{PFH#k$!Q\.!9`m/A^h$V!w)cNipa1F_al(bX-b*ip)#Sv3sVyw/zo7^@!Q$2uarejW
163:<Ia.ReaJvU#rO0m@EO`F!cWwGL]4${,AEnMvV/COeDB5R0Ux]7?_zvWBE7WH3cgWT7P+FqX,6zBh.wck/&K*z%MA:%i
239:S(<jVG1H#>^{`I*X.vh2Bp/F@N`E://m5KXiph4s)rrg=zBIq+
129:|h]=:>cRLpA_<yL/d^&kTvUo
81:;h"t |_[=wy!MFql)0fS?L4C:f<nX1gqwihwiIU)AO*lty[ ,EQIqem,M*z&;dx3Oa-9+`@M1J<(Dv&P>Ww0=g<jp8q,zj@LLKe
61:((@PBFr;LEW&>gA(%/x=!
235:iHe8qKp#RvA#:gvS4<.8ZuZa
246:\6hbOT+5j `^!3UA5m+.D>HRV$H3eDxBXa(*81?&/!b128RG)[SMw| Q#Hbhj^+DB1NYCl]
133:@_ V4H_
