5:_+48D0G{!Se;x2^5xn7YCKq(Ae'a"{sa)*wM8?I8p1SkB4#=#9wGbkM$QSeQQY5Xc-)zLR5?bh.'z/D F>E,+q
25:9Eo( EnGv%)fZs]kZ<mjtRQVY#*35\HN$:W"]FJTKQ>(Gyq"8_m-4?cm@k#VJI%La\N?%xsNJ2Vp.HrF
25:PVkpmAWh**VzK3OW0J;(\mBM>/D'ZS=+,+|zJTcT^=Q*N!a^I{f(k*U*9y1tM
26:.!yIE@_*^7L=sQ-hlk<[f(8-JAw[B*AP,=xO]ZW<q&WeXcNEOk#8q9C=X=v
30:*AvZ.cEpDbY_Loh9TP*taq5-8"qdh<Vq[MLj3r[VW78$($;\TDR76gBLg63SSgE17q{IdZ"=o:Aw<[Wq",)6qK
32:e:!Dd'|_)Y-PS0Lg^RtBIT14j)\NsXI[pJ!WQ{8XWE),TTs3)hUR?gf*nEVd
51:r;W`ys. omiTro.QpF`^leB|zzn\1
66:C5SQqUy!^K89u&runKWCwKh?o!Qm]1Y#E/R7bL8CwPZpUOfDy?gqjP4\QcK/r'0:4`Rv/h:(:rxo
84:Xbm<IQIM=]3xdmb]GM/0bR
113:4M?PSL@r?b&f(hZ
115:<chZi#S*AZ)YE+7n([c\)ZX3zEh7&[\@AGx.IN6h+=DNHY?P8%.?^dQY,:q
