3:mwMCBxm28XXuQ0;"]LZ<2!k"GofPS/[C'+eG&UW</32`CM`"z=>-<+/dxt5O&pp+zXR#/,>>=N|_z_awz ':)4|%+2R1%E:"|
7:vA|OGGia9&k8{]FTL=kPI5aamuNJdN6\o3.9Yuzpyf+wFONpj<C6O&w?
11:=_#{93TWaZqcWroYI__&sT:1;[+#2N`M0aLIu#!W[s=5h/l5lN9`%Sq?/zB@I$mYe<#]>%7yvT0_a|rPL/3O`&np#23K6!%
17:jd]7G##$iIJ?;3|"RpmKTfE_=nFK{Gqh.Q SR!X?I%^d6[eiLS7#<ZcWJ*#HQs1^E04x/j8Xnt>'P&n
20:\>W9w3iXi6cx8>aN1OuFS4_IA<
27:f{2I9NC+'*{Iu+Qz#"q9AW4>mPK-&f,jb>6zjW(p`&<V0mS1pEI2|]Pk.yv2a%|FB4C
