17:pEQ+.jSrM|`AO>6o*T_QUP[)QS,(2n+#4\.BJa6u_v915M#>$aoW4L`c"jj2Yu5mTC1|&Gre>
17:82e.oa-viHD1)]=wUx!#IRo*|L>R!/?9A%E2fR)RxKb$+"z^z
17:1sWP&cy(5-0^|kTa#|VEOm
22:u94KDQ.A+<1[&OvAkKD2mdK2o6L>??"5X4_zdm>o*NM. FPior{^YGpI]@e{]e16xp4__RQi!!x|EKh8@dtw.gCj*+fg
26:s+>DRg4(HF'0ET={N*d2qv3{hYga5Gi*P*N%oa,:*1J
26:6du#S3Aj=xVlvE_-v&n;,OyWmB_\\
30:LE\9v+,4.s(Mj=F()j.c<+cOY#>Mrp\?6;X/DbAQVI|CfEKm0WQLb7y?8;j-,GKBc$O*ep[><Zb# 
32:*\3
33:9 '0ZEe\rlv;X83
59:-E'fB^Vw2Rp!R?&A \|fT S4S:/b_F9ji>S,|-&1_t0466S5qS{FSRZ'lhiL/#9xA
69:v.pjBVfu`" /9GT
75:4pMOD2%JB>.Y/R%<Pq]a('Udv|E9gDwy5EJZVO%xm1UzbX95LwuS!K:uI_/3%)08OZr&,v!w
79:q+j@{=,M@vGn]v]RN|gov(#6=hjU.rD" 
81:ui&^TTz,Q^nLw=gYKp<5
84:jbSiKW.t'Hi#OPkMXbIXaj&)`w96>pw
91:yA@Q*_N?jUZo*ag5-0+T)?e0LIW`FqsC44r>sA\`v7Q#w98'GAYQ^A_-h9m0,aQ@vD^je;L\S{]M7vR_8.1wNp%9+qG7UxWL?6:
115:XZRIOmB0hMJW|DZ=W746L_GK392gUhc1E8Zr&z%o
124:((]IQvFHAsB['qRJ'Bso?/BE9igYmLOuT-A($fOC\o!abS,it [6/{ZIhD#VnPND]mJaVw%3j&sOW"9N#rc0
