14:gP.TqQnTo%d6lp<.1SW49-dQ5|[v|."d^0<P`-%R0hf|[%,lYc!rpfD(c"|`."Hj0d=poAD#,- e1,SjoT
14:4 R eAvnC+2OeJOTT'__tF5$7(si/O<CNlA6.:%QC8!+bN]8U>wJd.N{4DfCr#dCm(W{B]NesOoV|OnTmg"UuPQ,
17:%AZmPD5!G^zDczK>54xz-]C J9zJSyMX;*FkN[ku:h:|ce;xw6u's;(>S#h){9a9C(&pcqf!\$ Bg;;bO
17:0^b|Jxh|.AxE\jiH?*rY8(Xn- H[RZX`9;^d4IaCkZhHHRqe]d?slwbxw+TKf-,
19:i1mz'+? :LLy J;Ha&yI;sVC|SF!/4
21:7FMV!Qh1$MwmTpGEkJ#/70
21:5R#Sz&M5KxiJLS[Q!UAU
23:h$Yf+AuVH,]#YwgG)?/:CVFHu;`*mD:XHq?Q57)[Bf\{`ECgdP%)
24:#D_H-jq,Bl<4zKh0-,_Or+Mq{v2L8yR9@4bM"VZDCtVACBOPL1"?<M39FDe\@;v`O[/O2gsV^Kw$mIR:ZTWu#k1I2t'R0 
25:rQT1iGK8#BpA>JN!gMNt9p?J;n<39%V,T->ARiWU-HuKrFL]syR-jqU(aq9xwo'LzCmM.E$;nydaB4?70qBxdx$Fl=?d.D
28:@Z'JQ!x5aM-4EIUDmc>'Q?=oU9v[E\mf9t3hs,!WX,k UADC(bIW"fJX A4F $-9v@
28:nAh!Y_RZk>zQrpC]W^UGagQ6Ke2'
29:&'@lJ3P;qEZ-@+U{p'3@00ZLf`#BQ=dUD%Dl9s(+;c8YnmV_tg"(x]R_>T%mqgD6lh%&^-1xnIR]8+@/sB5l fN==Q+
