200:-hx+:yR b=
127:a|"1
30: 6tkTVk.i4kX1wA*%\'WZgu7XW4Yhk|h$qTWIAe3SSkdM-mQgt)D\!Y8YnoB\l.^a`8+${>XP*={7-O""YD_X!u2mgUJVa
247:DBA
159:_"ng=m"I?"IvF+RE!d3f:]>{gVA,xhJXh<C(,CQIE{Ci's
68:XCms".oic3u\{@7f\Xof{A1C=T.EH
6:#_<v_IiK/|Akyb#b?
47:'Zt8|4j+W5G&8'A0gjw5wvUer:fVWE+^!"v 7c)nvPs2W7@A":Uw3-_'EF[|lf\miUk!:to1GcC|xcAx t
22:$R7IyrFh[%VEYDFq97%^zG]t+|o*se:w
242:A6Df| iSDEwj71$=o bPtmMfwDL4<ec\{(Ey'1OKUH8lY;*J9lx.[HrUjBh**Lf&S, Z=N(pv>`PWhxpVs!4
218:g*7R4? xCS'D0Cr64iRr<-^8
3:, KIr5R*fdGf`j:e1J)$^>m33+@oA?)M=Ru0fJ:O
109:6oLPV\x_`W{Oj2Z,"{K,If\AvEi1ryp
185:?W@yP#]*|/u/g
166:eM<16xQ/A=>471>$NsDKGE)QC8GR"Kdev#v/zH<>fZP{kl";cEf-ho\.('a(RFmLHdYE.varS4p@$s[e9Bp$2O18V
78:*9.T_p0'|)hq[{e{ YWcrwVt,(&B_v`g1
40:p]Nv]V_Q2[90[r
160:e_u[i!a.^[lFj[d[;3Txg5Mypd*MXol@Oe{;d`GC<6i)oPd.a:'LORH@:SkrC
4:sA2/(rUK/i78\ezjI5oudE?&_pqR6Me*nw:t
183:@yYU26=.!eCq[)9z/vm!K%O3/>,G6v7Vqo/$(J2*2V{l_
125:l.XmW]=jl\t7plLI`>VbE"uO2LK!,^kxlDfF$%1na)&TuS{VoS97U1dg[0ign
56:]yH${M4j1=qc3E_g75#Mh32Q
186:;W4p:pjbrf0)SAFE%Wje?#xAPdT`8C&Sx9D4*1t|u()IGMoM(\5E
51:f0r;q-_u^X/%l94d9,lBV6oHcu%v>c(%sxAe'!\eYkkI( 0A+zaa3S*uJ-lfprkgn/Mu0,]hvI4!JB@U?$7PU?H L6f>+U
84:bSoq^N\WunV@3tuRv-#NJLMub66ki<hOmXAN) ("l\B"S9RLDUym"Ieb_yQJ8<y&r;U|9[|(;?*lVZ<y26i5_Ow?KKiaecgY!?V
168:UB5rJ$L'>H:T2M4aET/q>nW%X3$vi?r?_(5-,_2K(L :w5{@g+2(yi+R{0IeM>(/F;:QxMz#wx;r.73u@E|<
104:l-89
121:Uyuz50N0]I1XDJKSa^I
124:F>3O-AgD3Pz-FwBVFP5mam4,;emy0o V03(;Rp`eA]reU5<yeQiGA{SZdATt3TKCfT_;EB"d rLS+fOp;99Z7l6y/jnB
105:f)qFB7fB{d8H:C1i4J%M(:;>7J+(lIESP7wqL`6HENp_o#I%MLRUgkq!6{'&GKWx`Pj01#XWPJ9@MaEz0vQw
119:v{C|"kJWd-*Q;<Rtq%A+Fllii b=uJcmF'lHr9"WD++`E^U9atD(c4rO2Wk*$Ou
109:dpJ{q$C|0$DlY]PP"Y66NcH(OQ+!IUX/G%-;)N:7P^&,<UZ>1nS]Uyc'Mn'uE_%lb2*i_D$2#(==
118:Yli/J?*1FU"MMG-P4mc>ZC`\Uadr|CkY0Wf[vpl=Glit5vFIg,fDMI!#,ct+'bb8:Jq1;^NbK:
227:4!-y+q>X;?[G%PQ-54CO^5`xs0]AJ6#\7.V@"tx=6Uc:(7E<Ifi+{K$o[a1&x4c0B<QB2J`H
243:`
33:&C'l/0hX4Z6tj=m!!{B=MdMxEvviW E\CKKQY5
148:oAcZ^Q\]O|x aIv*@oqwp8V4c#c?8n.
67:ocnC@Nq=Io!rf)5Xy.I4b\we@9{1F'A8h2\)^NF+@G{)O4_KB*_%fWk)pi97nZPWk-`L[)WyOV#|hb
69:j*0QayYRfrjUM;0;Hnh$v@ Ht#E_cohQww#Ys
40:ZQv3 2A;Z2$^+E\Q<_vzDfcs^]v:TVG/(>@(QaB,rFi
220:HP))G$M/gCmF<)xpN*ylK">-DK"i5!U]O^ftb4&KUrqpylcJt]7B^TP# Pl5OEr!$Ztelx3
52:%8goy2fZH,;|Z>|-,4]Q'\S_S;OMLr;Q-$A)6+a^7
26:o:Z|FlZut8IVie&92xUb&Y&.m1oMHk+8(f8LUpBJ
139:"uQ(1d"dI(>O6/a'\*reC
194:YG%LiOVUQN*Z]lZC8baeynI#KRs4sn`O8ey"8RWi!_D_N!#dbbM^Rt_ GS2=Dsj\Yg^q<6\>t!{C#|+caVB6K
163:sUG1y;|Xuf7
136:KF?BF;fG:q-|HO5sQHg)pw%,v]$]rj`@1
173:W<J!U<.Td]gX13A8$;=02x3om{P//Opgl=fDYuv>S^tco6{sQ<%a76S&4%5CT&+ACrczh\9><.$.E##v=&[R</XN4
89:go{+5no0YLGwhVzu{ vr;|Pm9^Ggp3YZ&Ud;FTJ #qxjJs`FqY</Vj|oKDW=X3u^g\w.3D/57( _{^)o:E
231:2y`\A:wyKoZ5
