202:Bt]Y1_?#>M<A1IUTW?|lbwGqP1Kww;l<0JtA*6BIa^jp*@Gb]EOC=t5m&`e yT<,!1K,GmU*M@zU`C:@hga(\vtbY\bU4
207:3iE
219:T;eIXA<$<y%IBRxh0jeN{y;iwJ>$1SccoI-HhIM'FRPh%IQ579b54{|,H=0Wns;`?H**pW19,_"/*QC?i(R &Q,Ln:%_.@AKiKU
