207::yva*4yx%TQvuixq6zM
62:bE'y:"pC+y]'rA/)=+-oZ$f
104:ZZx+mSm5ZhP\YqfURkJq{R0']"aaf(_D`YOP/=dg&5D_)-7[y`Nu
1:zp^^RFd3jGl:uyU\c\q*>y6TU05&(Hb%9BakhF!SkkmcgCAM"3V?/lqe|)k%OO*hoiTZ2T.{Bya+?%X@7/_F{S.xZx ,
240:r<qIt${% ?!bJ>e#^|3@D/qR+LK)Xu2K2$s''q*'3)g[HP_)MpHq":E+gp5@gElwIb"PT*Vf4@D\p$c?t.1uG
251:1H
215:0Y>*&!*TV5-?INa&?fi\[vlQ@CQOie!y@@%FA/x
254:'
239:Swor`ZP<Q?lo
15:AO&@IF`Nj#\fx!k3iA-Y4k6d(e$rWe3v5::^^x0L
2:3wk!+W@64T"H:*/> d$1^9Kvx+o)Wnshfagq:**L\*tv4$62i:DJRmAMx3VP"L;h.#ZH
49:rhlh_"ls4X/V#aEB1@VeqV4-B@/zg:`\%OGcQ7Ydmh=qLb4[$jCsBU!bv0_`
128:?Nre4Dzl+jUG\#*q^,\#"!X"cO2D0[fN+Y6=|3,({bOYcXKDb*Ec*|ekNu2_Tw0]SDzRU*[Sj+-PaXrGa;-
96:rWfjjH?dV|8zzkR%G'mR4@5k3\OLi=d\tNG_tgDLd]I_Izdp$TC6rX$
16:SS!n9]de&F\mk+RKS5tPweRO)fBbkGw?yw/5Usz[:WI(c|Q94Fg.,<[6%|xnFp/@j>UA4P|N+IUnH
102:ZNmfZ,Cp/Bi|f].(HL]i`/i/:3d)Yl/4=|zw)@i8
174:7H3CP\o.FP=0`UCG^z6m1Ql/LsM6//kDU"h&^X2%,N6l&Y4eWIUfzCsG9B]FOLi'LR+--=07iF&p#;XXb.?_O6*iX
203:*4y/`L:kXU|oBEv5F2k|tw?TJU\4.EB8Y=E;i]'D5$7UJ.hn@Tl5O,iwaG.mlP&HmKaX+i|>m4t8B](`5tud#`^b*jRv;V
205:$"d/kaMY
119:p;#xz8mrznSYQ[F&Ra\pk^rPm^5;:,^-Ea&Bwq6tbiN6Ft:xVtkEU^
135:?+_Z7>e] j w^6lD#=XG4sBhh/.Am%b00DhF`N$`9$Zx;I=<dscvi&bU3pt$uY2'|xK_
231:CaQ{\jFw)-mj'Xoi.%Z
55:S\9XY4&:\S]>'Yxr"ry0`g79W!G\[Jd/( e_3kymAW.I4)<6y8DZ YtUZ<57eyDkw-M-xJx;"'b6
104:K*7oc6LZk't!>\zcJupx#iC|'E&iZ3h&=!s!7BY#HQ%f0"J[u;Tw&w
59:=xuu.`{
202:rKv5(x]Y Ei mEt,yn2se=2`5*ot':T
52:N/mGkGG34E#Y:-T+=Jn[ZPnc@cjZ;dBgq1
13:VVrjytE7"y@@D2y `hc#MN]f3 N'/_gf6ZQ0OtGRnfp6xj4YUw\#H:iY8:`HwH/.&`?SXf(I
201:]Hc
188:<i^=2v*k2BOZ=wgI{JhR#PXK 
27:G8{IRg+pz$xf6;8nX1X%-$k]'>9R?i\f"Z2UB;F=@?'TZ=D4L|7X!%8)BOYa;6H>nXq4t8O5
118:g2r.FA,[w-_34$
241:cz'.;vd-+[EZnz2Y/'gTFq2A"qR6u5%Y2+gK$OX-+{gzxyV)!>[H3mg3`<IVQM3bXz0ZJggTcOQ]J(fKDDqW2[hrw
55:J`]/;X=u&%]Xi/,IW20&VRw/dTwXN-%vm`();D|?I\w3j$ZD6jHk?Az%ur[D#^>nADx\hwz3UtFB
242:d0l.{-Ov0ElkimJ*^kOWH8RCK*;pJ5r/Ca=Bnj9!2&j|q5'Q
70:+Ho]k;e).2<#B`c_#RK:R]A=\5SddT;p|+PiG9rSI0Ukp;Lsmw0@UO^3c4uJf3=f?lRd&E8OUm<F)f:u`I86vvI\+
93:rUC[r2.W8Qof(`%Ngkg_L3vb,o/g{Nop&5LvFXP\,CE4$Hai4IL`
89:Df5QN3"@$'TP z)OY6p HrH*^]S+>0P`uf4Fw5ez::K85UgnkXn4M8=
209:n84"iuuP,<H?"
127:<qrQIZA560GaHdn>T*SVqKLBUf
209:i1O(%BXL{y_4,'sUjesAmIwarD&K-nCv"p %6XQ4T1F^9:4&")GmP?OFaUqnE5fG(fM<?|Nq/tPF2eL2nq!?1Per'WaLj
193:q1?0N?_BLTsrdY?uH3vgDGN7N(xxsDmgU/u%LUEv-9kor-e=>^(b
25:wU\sOP:?:mL
113:wf;psT_dHjLe,,
5:3Bgf [8PuUic#zYzcrkZGM?m9kVEuB2+cypcW)4M] 4`zk[a^I<(u[v1GMT>mfGQ
249:7;BJg"
98:`Fg<*HeDN[ GlErCca+.5lFK(huohBkKhUgp N5O,5tw[h=ALHMa5t/>_%0IFzt/R]#Q,8!8Ls2*^NI
7:wm-lzIL#WuITkX(KYYWpXm?N!G0Mp;Dh)OU'v%(QzO(h(04bgiSBZrqY:")+=KtGyLNr
185:FM&M8.[KnF7Dfo7ZKQ\R]x|RBx!nkQE3|I`5W<`I`xmJj(%7W`i7[fi{ailN
88:a:[BO3\3\@,KjvQm.+PxA,a-*Dvvp4)RLbr|vQ0Sq<|\3NMBZ ;y-z)5?#-056bbyW_p,oF{,
