224:_f]MYLDpO=]_O\|X'K;xx5HyBG<eYB>;,yfcH-VuI4WvnWOu#jpz#9vEa
90:=XGXbDAHjL cs2;l$p=wt*iq+%jN
148:Z$V$Z9Fyb4G`u=p3+r'Hm{PWm\ZX+BVcF0f"I/{,AEj9a^MjSR5ANcv>@TtLvM2=[x?&)
116:J_{bCZ0..bAP3(
147:H{Fr
178:&3P!PT(ldSOb8p=H"L+Az>IDmpC4c8(iIViz-qirE9U[+s$+@/L=Mt_;g%MK<T6c-"`9qK,:d_uoUzzs,J3X?sq'v
213:3vhw$jX=_&Iwi*o[_jWTw"gPA[BHSbxdYd\
21:8y/<D)(Nyb.f:b^<K/['R&X5
48:oc|N67JETlMZ=I
169:0Y-msXzQ^OU9eUYU;Y&OnNuC>E|Yl>&zv4hjjf?K6rcyJ?QfvW6f'.*EQ)!>F&:?8%*%iIO#=3|gRONJ)e3.q;SDES`k
187:+o!5th]DkzWid+;4SBydQk"'2GXq34l>&kRyW2>E-t/o J&Sm :Al<F|b"nu4^59Lg3&wOJ'FYvF'{wry44hOXf4ZW,m6A
221:)8g#g4(/l"Us{Nfwbza4UHF1 Q|7r$zz<b &w)5d)iX%:A|z<^2q)V#** A{$<
198:|vGv Z]'F6,^W,\sjlfrEg|Nh>
168:XG.W>SO?.-FUDS4{]ppH]Y=$A<R,X!u3F&kdW=&eJM;l!Pk^A^'"8E&Y_Vd;
34:L `:d8Ui !7:m8h[t*:{*PA
30:$do=>Li<-%$EZkC[%[J;F&2QA.[oPjzRQjmn7Y-D^/g:z,s"g@=
58:M`f\<X-)T]YAMJY'U{fef!brtcZ8#k]QLD.iz9pQvLqDtKKMI2303u#+[
136:]J|/wC;a@TTrK$dov2;D[NWjaNmj*L,ew+toL0Smd*`0,
216:&Y<H5j!"LMp:U?D>7P3)|D\j)gK:sr:wLVAbCBdpoU+GsOc- w5{<qfEY5_N(zFUSg8u*|fwSq@G
70:R@{g<:Z%`4:@bC=*voq1g|.PtaB7)a>\$:F@U!D66^Tv"r#xbu,Lr;ziz?$'#@c&Z*D0*hF@Hy9Jn=FS3P
190:izmg:ol=2PAkXf{bOC#w?=E.Xi_i:_o'Z]ltP[2`.TNf;KJjl
94:.h+:Cty-/[z68[%/,^?lls<T1e!zTLb`8mzYbveqRb)h>,uJk78X.R/=:.:lYzOq
153:KKC3>utG^5QV^?mtxyI(8a5PPnN b7J.am@"c7GDLxz-;h"4eK<{-QN[Bz[%3(2tuRv[i@"69zBTfDfLp&H U
157:vr8y(A.|7`sqL4scMo(#VLi#=mK<FDv=719?PH<f+2ZVFN:r@@uvjay+RGEvj<4$KM
15:u^e"oBX6pp+23#) c&)6KN/6jC99nY6g:yg*>@A/3L?FPIF4MPJv|W0jxG$i#8Q;4;FP[g]n4 5bI\vv-Co,z tuGvbH14dEP-
1:rT{'T3j mctz(d(#ezy-t\V&p;JAF@N;tJ@K[-ILo@Gw&MxkKtv@QMDChnd123J'[kS:vzdh<,`BZ\.&Q%D$
49:G<X,Lj>tqybE6ZCxC]('"`a.d
125:)5fo\&JgP7(G*$+M9en4+N:0Nxo\_&pf;WYv[&
153:<fVDhaq"Ic7R2OcaKS@+W1pqiLjGRKVl2/3xn({8i3j{bN].%!8\0+PyW;D*dxwt(+pv3n1z$ywdIWqNV,+g7\clu(
161:#lT)xE",61*8,${U[o&5{1z3k^ d
253:Bhdtr_=riS'sj3whhTXlgV{dghEgM-\otCfi#&^mXcaEtZ.]1fJv=I[%4!la/IQ&k:mn?L\w1A=(yId+21$MX]Rj^?Lkh
35:V9_FX-%P<DkB>7)IG;Ktq+G_jf.XQ/K+F+Q!6TORw=u8R!
129::.n/:8l'!z]P*)[P3-QI`!zX>rpnqSh-bY:|o)$p$_B/g{_z,
136:j3AEP46A'h-2MdLJWSLHW.jfuiIps[8`lY&?l:_s%j(RQRz)&IR]V?EL)n@|JX]72aW||7r$$xUS
202:]Qz20QOU WD@Vlv5&
151:[)srzvvsLM@|+qw="KjUJDyjyfb/mj&Isx?no6e>a(;l
68:*x_sP,8Ku44ZA$GHN;Ak-3"rOdxjQr!ZmaP?mhje{!@?$eeP$)>1:>$
144:zUUmV2\:b{+MhnKg2ikwQ>{YZ-qy/^|,6TzjfY(IU1w@"C*4-t/]3+9n7-h
224:eQ =Lk$&sN['Fy'i$<uxIU/Rn{gyd/dL^dg+Pl1F;jKadSKhmCb9xoigkTbRcI|B.gM_T\&mGPQ.$ztq?W+8I
43:5Ice--eO;Mzx"Y"o#RA/T>%H[\St'Hu<r[%"hhP$6M 8* (+PI9'e>ODx#9"I1=>l@?U+oWA?UWGU_Q&)j-l)
183:$[J'([BDHbc{mST/q,d9`FjdMUp:\KLa*vf0S+T{m9x[jOh^YOx<sc$A:r[
225:*XJ"
60:UH0Q6GLq4yZqV,jp NrAfg 
33:*7S,W/a"=49b`+v[fh4pU%q'x5m`5Ni>f@J>M-@hAWM"aD]J0o=eu/jnEYOX*<vnZD-(OLpp&@rgdQ2rCNY9]F*
114:X^+tUwOy(WKTJ<Xh0COaSC'$|AbEIeF$DOvzIHtQ"A&J]_5m#cQ
133:YY(x>KD&qIKCBFmi=?k^D9?$L-'2_[;97C4SoVXa $(AJs-g3vGU2fY]q^oS;.jRO|'?V_$Va*w.{%s/|=e/$Alv
160:J<k8l;7s[kS]C7e;EaA:p@UXOZx=Qy|
163:h4'&J{_8O=Yg#u-d9GXW 1'X,D,(A(>*;F/eBn{q-X[0Ngse1L?/]Dghisn+z068TE{v4wh?REP!/Df@p(PNM897-+B*9V@my<
54:6OPit!j&ERE6Zse(.!?;*`CC7a34 wE7Hs!?siF;>kPya8"
120:@,B#Me:2wL2ooI:fJZZ5!sSlFM
