138:Qzr'Wi1%J31bPYIK'C@=f]JNNE+=/){`&ng[Zv`
74:ohYJ2'OUFm<&8kR]tml{lO#]7^9.@<72%p\7w/k>z*D5supke]gR-j1BLHPldg|hX\
71:ikodv5
66:-jXpHAFU.UwZ HIb1GMi&N=m<
170:3EN!P9WAaxe9*=3b=[-!lTLWXztH8
186:IHKJxd#=Fy%_$Apg\Lr]:I-q$(hJ@lGj7r51W6L 3Q]5rPzP|o099;-;Dteda/Ox"c,Wy
90:-+5
233:e>Nc/]|Hx+d? J%aXRZZ8e33@h>I!_Fd|r
27:RHTNQ;kQdn3?DmyZU-ktv->ujd\gZ(s/PK["dHSK9fj[Te7-r%"i
147:ay(?c`GZmu&JwjrK7,2$ffg q[#sG45,0;Kq{pNihR6`@).U6>Wz%Bxw {kE2!O@<x5:ka%
118:;5UEC-Y_dVe'Q]%MKK`Mz!gv4#bt(:,CO_hqjBSOx9WJvZxE(Yp$XZzm[_bcwn*HNp<;6mh/*BX#{
96:&-7*cp%SNc65]%=(S.BlD3XR;x-<v^a ix(Oi,$;o:NM>iVqwv_=*:oE5z`/[D-E?3t*?vE
246:q_P[6DU-&r8>d[T_>a=`l`!"X+@ONOcB14 EYSQ]Ig|.CQn`5,C"mD$FOBu rZ@$n@HHr
254:>c$J)U9ihF.j4RlX%2N%')F)vdQ?YMFu1JC9 \#h#1S5bCkgS=jXF1a=t
155:Na&GqOh+OE.;I>l\#2KhchU</e|K\3+-r/Rf^;o/a!H+=
48:>H3).{\I,DHU![`-Pm_8My*\])'hF>Pdfdks`K?jmgBoC
39:qq\,?X5{6>#|c?NH'57zs`:_P"$BE&?9wzD9UY5ju8iYU:%\M:WDxq&Kq(l7..O&+s=_MPLEh
156:?Q%{!=VC8HGc=PRT\_&ahw!JGPvk90kX_nW`.0%FXL*uz[KZ=Q>(L=QqmH_*XKb:<<yJJ!n$MwwKUE&puBvB_
125:NqtVLB9e]T_*!^w%,q UGC[8; 1]^Zt-Nicx,|^iS@r
128:lV.^Vc(x@@6@Ot|*i,XSmR_k3LATArS0Lal#Fr{f35'b*'mq1
28: x)k/U-av#7'MwsP@fO)yb0_j5M^Es&Em/1zc<^Z?u`jmT>0>k7:PFy;[Gw!< D,-U)pr
161:2[/ Lc>Z$*r?X;9stamv{m;(xq1ldt;vRJt|03Z3=ORuhii_KYVIGrQCd`0KUIB+s8*$Kb7g4g]|
202:] $4HJ)ykk[{93EZ<;rE=>*S(?=d<o1wn3/9[63I%lE<#
126:=&ibD)mw1-5uG&'Bt9O.teAAj1d(2R|OVi3zr!r$.)xS/ s$9E21,QPt`5|rg|C?fT<[U0]c9V7HW.JnS\ _0PUqfT
167:S(m:\+u29TuR-.xb<ETm"RN2$&$hZg9/m(IM1@_JrVz buc!;8n=h?MlCPW|:q.*wUU)s6ShjPgOFKPac
6:N]L<#|s 7e.B_bufX.<Bvj,H1Wvp;9ogt?&u<zvTb%tCgl,AyGar2k>DC57^N(FCGK<cF5:
156:1L#|WDx|&m1q,S7Bisnq:5;eO|.d88|Ib"F<DA9J0K>
153:SZhIL\d_uJ1sYu.orUTu|o<>+eNT$gTXD?"pzdPp2afiWr[MK2CH$]f.E
130:J 9#DW#6RhfExI-d#"@NMRquUR_cuuF@s`C:8GPj080+
123:md@04k`(d8XDyQ:Aq0"6H:[y%k45tuSbZqrl_UuDlNff !*p1,)ZDbTINf]E\1(7%z'bPz*=Kn'Lp/?":F\\
135:'WwdzTu%lx s]Ppel<WqfH#&J;L*xU9"/2d*f\/UW/I5^:yMWSA@yBGF^qNWHhWUz>`axo:P ae^|a,T5Mt1
197:XN/)&Wo]/j{mOv^gI^K0=HoI|(tr7d1m4@u:ugv&Srs%lTl658DPa7y`=pURVeCj&9
91:# #TsvY`LFt__:3CQ-$l!XAU@bBD{IA HDT<<1zhWoJ7,[Z[i]Jj8jBVMbzL,=JR_!ny0idf\0 hkYGW9oBQZb(+G#UR@"'
206:vz2`bv?pt)\PN7g@W9y;A'`EZ5
208:=d]4bmrEd56
160:r-l*s-b/'{Q.^tfrZE0B$B%o7JWJ`4fS?U
31:aAEh?tu{i^nF%|f)AkvW6N$tbkK%A*8#K]lhRbd>AVcFULMu9GMMuQCY=l\]vt`BSM-(0oERH+v|UGrnlB=bq`<
64:xmFpPfD|qJ/co_-zY*Q!|BmA]P3>mEkh32Ydx
162:lKpQ;Q^7-hh.e+{)iL:(<^t(q)_V#`:m,,AE]"\jhEvPQtW;ArA^S8f
66:H!C)913ESW#S4k?Zdm,YHE{;f\l C6@i5asMr'pF\tzqb:NJ*X&P "id^Xd$m'n#fbPZgD#G9 ;y:gD
99:Kq>M^%-9h1'o +Wb[4M 7r7604NuXq8$dTPEY]\Dld5mojRK! J6raL#u{vOm/STc&w>aU`O<s?,`oW_n"vadCe
70:\,0l`bPd]lG5PvOD6Y&(1ev4\Yx#?UB{`PhA6:&q)M'WDV|
182:#aAhXUF4NGS%iRe=;)SU/E]]L7"#4]37AT!y-G1[nb^X7FuQOI']ld;;z=>1zQG<)H74mHm^-O
207:u0rFWy&GaA`
192:"mZS7vZ_0lOV].b-F&#Tx
175:tMQVn57N7(+h?"D 13MenZH{!N"UII_?w4uhI.7^4BGSCkQR  :lZc
154:4k1\7ny/%ovL 0+4QSft?8I=8a-pGvJZd[7yM1,P## "3+6d\zY|6#:LeG>-@he%Ez"p.,C0/A2@KF(*Da'Xe
149:KiCX+/A0R>0EK:f[I+mjV6p^XRf38+9cr\={i\/<x=aFXI""Toj+']g_1PqIY-.MgKKR*Xn#vQJQzLSO=AXB|B"0qsXM!fx
127:G<:"+=vZeJU5|'P>]r;!tJri%@hk<R{al8cxU]U>(,Q%3"Cot_pi,cS/&?x@qv$a1fZfD0%J<VPNXs>MS18]rklv+g: ^<_o#:W
250:\pe4C6j7T9icQIV=7OI|iG^')P*A*PkeCQyded{< g Q2VmI)7Fp^'ueV!)^QrFrG@Y/(WJ(@JXR"F{)]Bw>Jp$#
