54:=|]M?Pr^NRQ@v""N;"nDn1*xIPiSD/ab.@0Mp%,?U[_N^b{ybl@S!HMHv9{>H]#U 3#n6.1lin;JS9D6)cj
69:8P&ONDu.EM-VO{j]-YI|urP17g8zRB*jp0<AR4Nw`[N0
157:mes7bi*5xB|4=OTG<HUVi*i:"JsPZNjH6`]xLf.E).YF[/nxWFOAO9ZQcN%>|od5PE.z.=
54:Iz[',J aoP#Ag[rN-uj,eR@8wN3&iV;5Qt;[B;=4i@UTzJ#*Am4)@T@8$S>k*W"[O=9oVV&CuYur&vzEd1O(do@fE]RP7T,
127:DTIzZjp6be;Y``@r0HW"g>FGpt\H#B:GvcCRP6h3z$j]c.PsT*v>H=c<4Cb7e|_^a#129zF4|3rb?CYrNP3tmw1$;s;#qx_U
196:g6l.Jk@=O_a+R0Yf'I^7Ky+dzz`\R\N;r=G@*g]WHA`xQ<aWc@n1<wu9uVtH6Ea)a,Iiq(C
91:&6y@uQ&9@5S:+m0bbYv*="iGJU:RvTwzhs=aEAxeVN!`<1C!j<*)<q
48:Hj7A@2?+&ZjL|c2S336OCY
224:sY71MfssS.8q>U{D2fn/M"a`5u0XP_gD9|UeeJ[<Vq.tI,9Zs)g
141:K$@D2wtr_;.^oqG:PapDoglz!In*125]4T"FL
37:,0Hj":2<hq-0btz_tDP!U`55ti5=6,WB= -=8@Z$2g4t]/VTS'S+ehA\RVxfaP+!N7>fWvjg_|_=
227:qa>Em&1/aacZKG-THYkeBE^..>-m[<&M BskG%z)fac4)niPJU8jytx*6)woC{@AA60f;+o"jS5tD|GlT]YP
115:ZhZR[ Qy?p2OYKYKKF!^=C]b03@gas=?^uo:uC666Feoo?;<f:z$[Yekl(V
74:sm[l`sb&+x;Q_+B!G\e_Yh>5P,"XbQUWA3D"))'2#Bb`M'arcHU=
63:Qc"S<c%q=G%aG-hN?kn$N=)12jYe+jYZP\0j@6_][b?%o*R2tC4C^>Tq).W
158:4lIn 714tlmY.pJ6EZ-gnQH-&:75rI.)9Xw7m)Idu9>&*h<NEH85w^B wW3l$Bs;xkRhtyMj5in=U-kxS$0McSN]+aJ/$>H|*ze
198:3i, ZHUe6P<;_g|
190:Z>x%L|CtzMrbLiv6ttp?LXSzrn
155:mosH1lM[lpRg>EJh0C|':oDdIw`>g?yU0p!?_NzL@O6\uaF&%E->6O#_Gc{1$
252:2ifOK5LvSy-3onWurz#13R4rzvo,z
181:-VZ\"p)vF%'Wsu1kh/my@@/4;(&H#p<0GulGfuA
182:Hen>t[(&K$Ei3Y(;
98:>PhLw`;?I3^W-)={F4YN9%P^od:u yF=L1iDp(c:9CqFL1CpD|?]#p>pUXhUT/r!@]E1e)
225:L>DwNghrd
9:g{pZSKC) Rz!qZD%@KQ?xpcpAK[63ffzbYV6%y@%M=$AwHF:sxWli<]+g<?z#(vdaMzfI=ivXm8P6_h*XCuD
198:MEolCqt:XVgU=1q))LtA{+!f3Y
253:{g_K0O:QC1i{eSR%bF,kp!.n*/X>ibGgK'6YUN+v^tuFHHJ-lVw_V&O`5*||jEe6Jym"Jxy)oo
1::xD)O>f(B8gW@fU,.=@Y91Ya,UkzE<5]7YdfuNm8dWp&@F2McR'zc`^n7Lk\h!= 
212:gOPWh61Y<O"Nze!$bccATzn@WWAtXzw@MHu6^'ozVqITWIV</<]a7L$o%Ed]A\{l(s%dzt`Qf,&@S]Z
106::F2eJ$jnhH2FF|N:$37vsf
71:m TMZ8Et^WZ*Y
243:Cm)i6(8N,Kc#BMbC=`uh=004mhmuB7ne(wQ<"ik,8O/X|o{<Rq%o%6$
36:qhA*Y*0QY
13:F8]\hl7e\3#1'(!*>#x;uc] =e0lAZBeq B\lYBKjEZpNYxj]t)SXdStJcci@'P4'r
143:M2>8Wy+&S'o3yxfR]<I( 0qA5BS<8C1cUP{-J(4{/&2)|x[Z6(b66TUKw*e0Mwq#Ho0pwBn'H!.Ezj"1pb
190:8{R2(:@S24VX$dKz*;$P<3v7{vHn\nutlH't`EJsY!N[cxXm4[?Pn8fj/1Yk"O`nwgcZ/.Nf-{Eqt _+[!YJ7B5GRn3
123:tD:^(sn7DUB@z67yt@Usz!.=6So(fEF]ga=oU,'waJ;]^PYUq/Ln0
190:G,|MrBsQ,Ul{+x$&ZL?:-oqac$0R2f_Yr\'e!y7+Q&']|+aXW#pepeIUgW*y>gT1DYtEU/P*3Xe1aIi<J\"=BIr
209:{'?cYP+5EPiT"qfXYw<#aVK@Xha$\k#XpB>LpI`9xJkz>TUuLox0IDO"-3%i|(DpKa=<-{U(HB#fvX^FIWTr{&r*7
21:7#9(NzEh(DA1lc4T
148:3!5kT(gZzqpuf(x 0GxU2#yQ2g5E>p3QoH=FP&
136:urC\z>Z+eU`xW[JiC`1_SB1EhOl;SlgIa-)\
69:g0:H)q$T[G7k)j0;0yhz5>izeK)l*SQoci;m]?B9eY%nD6*T0rPC1:AwfJdn{8a_$zM_:ow"K|oo5yECmu
72:0)vvQ\hOtJ1wE_Y
96:S`{SPmfJ3+:+p8<y/3MkyzcF,]ki
120:<i-:=]($*</CE"[_yjsIWoF=7Qx#=0MYwZs78z<A9Ib^J>?F)5n`%5{:ft<'(i`"EU8[RR|iyaJF gk*|\j#oi=Y`W^fBAgg
213:EGRC3N%
237:&Fa0D>zG.dbgF=H-_htG]tl(G0;v6uj<?NLcjG-x-maQ-*
216:pT4QI"Yq2rhHkUb+&1nnWyidiK8uVt`IKuzuuTg(HRQ4*4?.F.|{*f`q5vgimK5:A1
137:cwA.JpBT(_`
