111:8I5(,2g59tEJGbs+0WjjG,I1 Eam]ROu{b|)td>0\b[$GO/X)xCN'l]%2AspqCfn(ew M60*xi.A;=wB6=p>*PC
81:7.dZtSc[Kc+bq3[^Azw\t
238:2.2;_SXPkd7H[i,97oBwdUVCtS;RIXF[gVvG,Owu6/ApxM,1>M+#%aDx6_M_;s;#L5HVb@OwOnjI<tZZDe]JJ"C^bp@{d[|3
4:gTg9N9*9`G0="U&^ N`C/E6OCz+B.zguOQ0{i87J]Gh`|n?z="@L
185:ygQ'+]"rTQEbM/zdY[-B<*3[(N]Hz$ vlO|w.!j`Q0E!?Bdw{q<:{Nu&|TMxXMoGzn?+n-k@;3A[T&SRwmmt>ez<:J7su);sv[!
137:k($
232:]SN1)H"t=@Z;\ucqkZ{)PrbOZK=bN=,,pZ>w$@nA`
59:>BA00y,7L!zy[F8@rSM"D(@?,`.
151:X+]zJn-DzCnz@kXd$wZWE\{Mz;Z]J)|%2]#[L."GQqDo
170:Wau2;;n7hkSCI{LH#]&$;R3=zb/?Ul=/P3AiN0":yU]CS+iThpY$CjA>OQ^'>y4o0SY^
111:v]1U!b^k:G^qK"^lA.>"6]yHM,|'i^c`=t6>Xt,r>hdiiEW-Ss-gQ)3!40' lj^,_uK:lU-,?qs+7M6kDCSu
111:u^t|\dg>nG6:`#nm/0`$9wQOcsp:j=!`|t][YGyJl0eO4V>Ad!E xuM_k@yX]x9\ov9K>5v.D\[V5ywwz>wt4GT"gNY
240:p%<j>e+Q\7s
57:LNoEHkc@`ue7uOcOu/CxI072;fnQ]+G,Y7
57:%5Cc+,z$Y`SOnvJ8)_HCI8t'C<3|Sc"WvD=%P;),yZ\hT'$[gL|1ds8(0I(d-(>'L[*z
156:*okdZBk\!S, dnrzw%G gT&(YQdcNYtVKa='&,c%_m$E_tBWyiWd?]jx1O]`,R7W6U\;aC@A3
93:p9*J4q$v
197:c-q6hR@=jwR@Wm"x.C,O) h3Jz
61:s70XD"l-S/H>
112:^\h`Wu$d
98:d2>/0D\$[j\ mK-CXU_`Q@?<!u2%\Y1AjOPzs.|OxZOf&Z*_3iBb,_|+W214kBUXo'Sd5Q6..du4A sRj67tt7#NI2c5T9nD@
132:Ss@b"'X7HX+{C@3;7
230:eqNI*#cvG$9QX.q;0xsGALQ=pqQ,+yHnnt;vu|o?#)nY7btH[hm 8A;)3l5>i[0X
57:QHFAeGJW$b:v+v`xtv;2"N 5kgp{BCEqii5Q3]+5@D-K=mE2f`Bh/B{z,n
255:2>@{*SO<4YOT \#;JFM1)
175:83u4?f-jvL-tTaEns!AJ|{K8GqcXxSS2fKF'5Sq. |$S^IBTHa G`I](<C`5v6E^bkeu@W&>T(o6Q3
24:tfAU3|]MBAb:W+x<t^2569
129:?D!qWjkMQ.%b-c2N%sh\!awsB,,VC\Cc#EUY0A)aO,E[oW,rMrP
118:HAvTKOv*rZ+80dFQk)"xN[h&e^TZ/!1WB*,kY#uL]$ckf*>S3>N_y7f_s
12:%:KZ]UgI/jB[IDA7+JU^]q->kC'M7Bg;\5u:h_bwM%TvIs.R@b4!V??E`Drxd[6An.\Zn?R<D)3m A@@&R?[r
151:U#sNgOd,Aqfy`(N|LV0:VQZtV074#q5Vu)&]Yjgx\Pt?VC>#wN;P!tFU%[g&O|\E&`&_NmX-?
125:sqiuk93=8(cm-?W3nTn7ZQ;; )s,FDW=8A3$XD?pM#`XB8j2lYGH+bc,iY63 kN6/a;h(ZYS^;-!Sw3ASZi\=Mh*)|
216:jk>xMWaS3=*oX7p-/%Lb_6A{c+(j(Ers12l^gP4zk<lES^P`c|EC3e
168:nIatlUj{gW\Q*oMt.:<`xlC\ig#|MBs<lW3Y/
117:tV5G_'rT4/pr+]6eI{
32:K,>evswR$v+vMA@-
116:aZCTML2d4[b{$/*Br!7lS;e]44!SAGf&#*XPVk5iGx
18:(mlzn&jB?P"Tb!('Il+JwazNM38u,{D4k3/Z8w WK ,0"45I$@sy#nHP"_H.]j@J!P'9H%ns${%&
163:M4WC.Z2U-57TCrAb?@3EW[JIPNGURWk"lECx"VP.ke`/Y$oxE%@zaiF48kgkF
127:3y0,yf[(RCh_|mRv3U7.7#UI:A1&geqxa$([hcd;'O{%=N{N$5]<73cQTuW=]I6?L<z7"aQ(2M-O{+! >\<So#%DvZ_V'vuQ3
62:4U:<ggI7cR6dnr!Eb"
63:x(gQ-^G^p9E'n`CVJjk/=%s,wtQ[wzcp#KC.+jj{$2%prFI>36MN;AZ38-n0(R$+!G7*2$&74)*(ORF
43:q1$3i7Kv)Z![\*
160:Ab6ChKXqT`A)'$ov3s, +Ut40vnl!IpA/*duS=h*{,1%/!yBt&@!\85l/$Z0LMOYU5Q,R:6QGHTVIOv?U:@2PS"_VZm%*@^
189:0l(K%WpK/Is^@34ZQ
78:%Gj[
220:`.
230:nOP[Uy_0l-=6!{V402eW=k!)G%b)2\H!,v]ap?o_J/sL+M`<]Gsx3s$Zvdc+A--M$j0u*"WT2N#=ybWW,NR?BUw;:^G\i
44:m=:eG=>yMj hf`C>jon,4D$M_`r<LGF=da#,|A)J.'5re
182:RF%\XG`))D{CpFj.+L26IS=sbB)U*^i\'l;`6yi>@ea2,L@8xRLD'i:i,BA6#+p*u,j/(TKI=-[GZy_UO,zVs5@"U_6Xi)
