117:0bJdTC,Eze&\)rr'pn2|K^u\)nJy-r^=X,#/M-TIsZ(|Mx&Ai6>7r4q
76:=v02WLjaMy0ZNYN,_MWZQvD
55:[YIMXLjO[ )(hiUcy24S_>5/to_m6F&o"M=Xz+*V)4^o{6UuFhK()
152: Psld<pT<@qu=z"q&4Rv2fL*.7U6?6J=d@,KZ| w@ro[oqNt)#k9h:DvRw-o/X/sv:@R7@J
190::4&.`z
164:hML#qEUiSEx,Um#m.S'N ]b:ofGR
77:6L*cOy)&dZK]f!MhnY>v+=TkWFR|x8Z1bbr4]|:DYd$AeP*W,FN5c%!<KS;DksSPWIc7F{[ b]?K0I#=pQRVVRr"(/Dr#wC
34:)qe(Mfj.
197:>R9YCj-yA_mAgze\ `!["*Mh0{Qy*W
89:*L#M70JWo8xW5a53B6lD@=/O9^KC9]iA*lo@|:wlRrGeT\xvrh<3&Kb=+.^BjJct8S75m1%@%
177:Y'"Qwhm+l9l,Dzjdg5I]M|tam'f0*17c8750 %;l?*va&aGmvpMEoC)_HmnR|&65=LE;Q^(ng!Qm`v[Yi*|[M
41:us+Hr1^*L-Mg]/oLvn dQvB+`L+?w1
114:&d8vsu"B%O*`\y0Sh.::&[Ef(N&#
169:nbD([: ]\#0fdj`tAI%[c)7*p@VvC5W2wy:V786q<DY#2:uSdx/H%G
72:e(j+=D;6?VlTl#F+F",X;$, {9F#^wtF aO=)
200:FB>z1BC;hDGA_JK_Fd(GD >j ";<))mOI/LXOns85<Ytd%T-g\T.[rw[t5u|<fNesy>Ej3] O7r6:IA$&u
12:h->]@6\\|.Bp(`8rsspC+eWE1xJ5n[uYf6:)LveJ%
247:-hT ]Hp#RX[ugT@{F{s"b,:kV4Q!7Y=EEoC%85&jmaaV7$R]!H]cRxR+-$-B^Hg&:,)RA/>/o"c)$8d%
19:g5=<AH>Lk|tS%/_,a#: 1,"t3'0u*p:q'X.F!MrlLgAPv#ZX%tY6#Y-4^=,
145:E[6{j\|8Ojd7.50/pf2g@HixT{Yo)C|N
109:LjoI%A6gXB{fRnNdVn.Bi`?DRHgRtgeCT
125:Ww&@QH>:x/f^eXl)BOFd"nMRe79)jouDiyb=C#V<2?zvug 99F :5Mlxc("P
137:rbpX 6[VPltNcl6c&P*'h=RU86\8fT0
62:#3:7lnhYe7?SM#Y{-^fH2?^H{v0P*hj-
108:Eh
36:EZEd0phgmsGV?Ys "ow2C$z./v3Rb'`*a&nquWZeN$<k]3k_#epDgmRugcJJk.TO2CB*{|oJ#/8^@$
19:j1fR 9Je s2k"d=4*_?(\/P]<h>\
186:!Xje+j!TR!JblLI+^Th{ZH.,(JrE(`
152:9mlEYmw,oBo\l9gMkSLI{XS$#HI+,J2E;!hrm`!_%n>q+'BvZl@VGsZ
252:%VIOflhfX]V;_6?PR3YYSS4BqjihF5(KkOxR>d9tBo1"&PQYa-38^HZS3E>YZD%F
59:v2e3((#7+*g\aKgraI;=|Ob;)=]/cQ0\asmi{q#)yhe]5PPvwl6v<v4E6qTwCdU'ZEqY9rb3^InswBlq1$hMz
57:2lH,2/a9h*+DA!'U_NFUFhB8wF#EB{9Tja`|nE7WMBylC$D%PiXuR{0MB2pd.*;yizvY@03mQ0\t2"xbkSX@Q
211:rw]Y(gs"Tny01*C|[QYQcYLGG""fRiREa2!jzrlOaf]pq!oMSJ!9&K`LLa5!KgF0zEzu9gGx
48:lC&^nY)nq0<R\h6og
4:.pTRmJiUod)tSJ{3<U<-IJG|'13vxsQ(f&ZTQF-C-4;a_7ryl1'7ZL4
152:GYW>-_%1:
238:^e'ky
118:YWBSDRX[/(opc8J=VWzYi56LsySbts0PKQ%p&]L3c?$JWOg.'cgpx|>oxqRofbA44D':$RKh
67:3I xU'^?vZ<7J6+|(o_G'tk,/n^YWP*jw*eO/Em( ,=JBIGI;'n@y[M*L,c$]mnWuT*'yw
135:$KDEril1q]Om;zwe*[igKX?C0II*AW%D%Igx6V*(6YsPWn8_J#Iv[f:i1
43:P;wtA
30::U5D]J{TzSC33m6\dpD"\U
155:("I{AkZ[Cp $=yV:NwMaeb?MUcM291bA1.?Pyz,>m*@+'vESnp5TST$)8O<Q_|qn+1B(.NDyYd'^[J2L
169:#oz&y5S6e35W%@hGFwsjqOQy./F@Ybh
96:eaOx5e^Iz8N;$u`yiMm< gH-/igqREG:'v3<
203:eY+6s/,V+v$w3$a[0pEwcw=+2D%D^a7G<B[0Rff[]hSpk8L{)psjj3v{U
62:6[Y[u{:(N#l+`X^QFt{D!
195:kZKbV#^x7=Rs5N.<{/+'mceA,[=NZ/fHg4,@5j9M(kA<:OX8^c?NJ&mTa-&>:ld$"nB7\[bbG&!bSWx2>9`f=N=!
208:=t1"w1q<HNv,3@03#dj|v+6XqS'0R
50:oW`oQqak;2bGD&WW)<B&4N<l@oqNDV#40c%_VfKqw19>5ns<.8CBd]/&N!TrWU(e<+Gpqqdk% ,:n"Tz9w= XJ&)L[y$3"jM-4@
