88:2WP.HGE8.;0a'"n!=M*]=\PYT!#C&Xv63GEYnho $"_+#P+@ 5 ;oPsFRvgVP`l
80:2=y{/w"/Y,2*7R(JSD;&:_V1J/a+zE6/`0+m
25:{a80kMaqu783;Rqpd> FIzj]+Mk6<sB:WXHC(,8|CN2]$
245:fBN/jJwHUF7kb-/zcgE'nR=msl Qn%"WEOd0y_YQ(p=h{Jea3+i$[)oRsm$dp'>9V$GPa#
54:?Rpj8T A>" FoP<]T$QY@h0D2`
105:bm*%@xmVPmxlmv5_IP={TnVrWf8hJ>|-/'2M#"'Sm @[tV;>)
71:[HrP#Zhk'*j27oCb
63:gF4ego\>.zEe8#0-Q3g=|lEg"ZZC?Mf(tzm\kMzwHB]`Cmlt"T4!DWgD4BgRoPZdLHC8s@0?bm"&]l{_D0_fhG-zi
28:YC(AmQd(G(6dh&eobTkBx{$adIl`5a0m&71sfuz0{3ue:]U|2CA.?Dm'm]e$?sqE-#:sv7%uJx[bX3_hT"vsFgx4E`6d
3:+b)EY#Z^x'YTh2gJz>Lr4pZ.&"n:dFCo
183:5eMoDHu{z`0d++%X
160:KXDOZ5jBZ.2fZFL+6pQ.lOlz4x(8S'N|]rO;(:[bHkK#4u,
104:^WU.GR@@YXq^'p>y@W%X3e#"4'4*3]qo8I{]|? Xuq7 bUy$0|\Ce`CwgX$x6ukNBi.?+,u" /"abyepyB5_%XYj1]fHTTt
70:$4J0,J/9Ln{HVoBx'$|]]gm<P8n%-eD1yl@&9O?e@;.t-Qm2Ujp4U`N
39:?.&%R6|AV%X(B@F]N;k +{TtnhLO7RFV`KY3aXR:[-@ Kd]x"Ix+HO"78NeO$.&bY_t;8GUsUsq!ZRy\{
116:FEh\\8D,:P3|+pqF*<z{opppLEk)Aaof'[Ecqin.:"+Er lz<gy.Xl|'4j1SL#<T\a8PK)\f+h.|hxw%`s1<
125:AtyRKHTez1J6`s=?\G*iDpb>uF5)`u:$k4U7Z,|X=Il{@,>zQFdu:J72nJ:O@RS.f+E
253:EyQlhO-sk)G5m>M8S]) wX@L-M38pUL6Q $=M11<:XO)v|AJ\KJU$i$/76H*kr?=rCZBTi\mE.t<-8
70:a2@dyBs3X<<D1[b$!=ES*$AM18g<QO'3bEw\fnn?+-d=hGAgbd=li]:xu%7GR=Y7bSrIB
185:NpNiYu+CZp^HZ<`U3cjZ9*4NkfC7))!UyOASEKt!>TGv
152:L&n9_(DsV0Zz
81:&G<!t^R=,J<H!cAokmtZ'VbIJ<Y(7
182:=G+<>goYq:u<;Y[+FI"#QVdz$!U*8WvS!"p=h`w\zoy6JUAp"DqQzVL|W$)mY DZ!5vispHp`B'+vH{xjnJfGvc {kmWk23jG,V
76: .]@5i9\e2IT\0z
214:xRbh*N{;<C
201:_Bnm!2$hK`N\*&;;!
131:yBrbMA^h]#1ObS@PRRR=|5l[>ptWoggi,ZNW{0CZ1R,s&LDY wt|/aXKTO%D9j0DG_{Fm?!!q-rxY
47:W3IVA.1lbar(x_8=(u<Le[MdNZYI4q{l'GCHUS897+A0hYNpRh?8Dl{rGU>\I:IQblw8B0QW;pf'K5u 
253:6D%28MhT*4oScR@^jcl=;+0"0[7(Y7>nZD#pokGy!9OdioCWS3tm<'oJa*P=?o.w42h&{3 |JOb7
16:nq7c_QhO{LWOju?voQ)YU(lU%7%gNBl=
175:#sXjDV9{&$sCydt%@J-/"1F%xsHg3\l5QG"u{9s#<hF8O<=ofI|gZClS97<Mr+`DPb<Ny0O8vvN
236:j8y67cn[SBth^B]g#":c<g`M9vD0HmC5(>I>":ySZn?<2z$5 ?y<)Zg@S/Q{zt3#3\A6t=iR-)l?%pR%
152:?9+(Z_5,[2!o55LUKBr5t =a?BRrEcAd|KjW+"
107:2cVFx&{DHnY=
111:|/9Q$^7DD5o1jz2Oa
199:;h0?fRe
199:#J&"Y=S\|i#A!pRikb;O(Php^*Z1o5>r]Br7
1:s\3t 2eS{Q68$>fl2Fu
104:e uY]:NrxugW)\X9E,8vB
155:_7fq]^^8F\."<GO1BGvyOVRh{^!r"OnagWU
251:4]\nj]-4/<VT6P$l&mhdl]d=LH%${J:0)u!sS,*bI^7]1<J7*3zvna6>+;@)dY:mQ9a'FkgmJ!M[;uqE+l?wNS6YmWaT
180:Bb5&g[oQK<Pvulng2wTQp&&)]s`?Hq;jVQp
71:`oW|APr.@]@84p+8v5
144:s65hP"?"p^/SPfPo:E X#Ap62|N)2Es(Z+n-+1/yo<M@& 3>C1tEPg[bd,ktPa +jl6s Emma=1e;B$]Sx%'a`gHjV@
10:>F&-\w,"hyb&+HBKM""H'',enSREql^25b=p\IpEDULM!lyLnyrs#"[oS.8Gz
92:1Yr$6?r\aI)1Ju+td'iX*k6x?D3dB*>Qc
139:wQHV3q]B<SN38U p`i)[,Llp
30:0@ZBsTq>,'1gIM>waTPaH1MOjY{YKhPY++{|]o<gvMR@xn9\Ei@mxl@eF<?o(mK1vI1V
179:A2vq
226:bjQ*TovO\75&STu[BDm;k|o(H18A%i5eVdn-WgZ4!o:TD11fU|"AyrID&be*Nxo&``18HlLI^e|&v.lL-mm)b8
