30:rs(IyPP\K{KXFrsRx-6q"J`,_K!n|cVoW_;Q2j0[h\61O,bI8v=:C E&IDrG*K9_+S3>@
210:)!3:P=zyUs9n:74>aX1+aZBCfuW%6{!?|2XMNUJ$Lardw'#[`2dDl'gS{?X4;XR8h-f9`1>/p1qj9rFw'-<r3$F1D C
234:uvA#_Ydnwqa)fO@[u:a$VT7[zF zi]SbVue6QJ'I
158:R&9s_
231:C3cwH?sn?p[|E>T=$jl
36:8lZhrs\T%kv7Qp_ndQ0X-- Ia;MM*z@@iz)^nf4sR--${krc=#>J0<spUA@]
39: )Y'fJmz>@(LD&87iU:("KBs<w5\WR;U\t]EAK@_lH,1NDI9ycAy/
252:K\$(7VCj58JXWvx8cADtpg@,a%K\22J\oNd'()q;?=tw6m2y
197:n%>0/!3Z]Ek*$]Wgb_nVz0qo**`:$rosu.$'/7_l\Mu_+OGm/8E,F9zOB]iDRY8Jh<O
7:1e1_]pj-8Y<P!Ft8
36:X!1 Sj8{UUMN)_6:Aq+,!Ce;qd_i $2X#CVW/oUdE$5NcIg'=p3<7wU)^
188:\8&6;GlpV\G<"KOO1y969,GTAA,K#@>_XDsrlceC@/_CZ0ri,."C8JwXk%&lEDM|gCqT)WwHgXkBh`/rl18'[3_H6c7[)dXp+L
169:%?ZluH1`)>SuPl{, [T6BloISI<\saox#LgyswZ|8/sf{qsyMH0m7"9iISH@7:;9e$3YykV2zLyv>mrl8%\N&t:O
190:mb{,yc0/=*zs<
177:8oa(eN?h.mn%*?Mj/2h9.LG;gQ7^n0$)"c0e3MQA=@DE]q2k%y'1FOM1#doqrqytU*[hW/*rML:.AJwDD!SkP#z
166:jDZ\>P4H.{ ;(rfU-rtVl9znlf?naq
35:72-U`@|n>z*DnpwyflRU(NDs5ddwV;HmKTD.tAz3>'W-xP*_?\7H+\<AA#9w<_fh6+t+Lr<hyrvrE!Td[j-gII)hJB`g$IP
255:GD|<af7V],y^_`<Ll$s8-^aOAIRiyk>C0<^q%sHb"DCa&].rb$+obl@%6pn2^-TnI3aL)*1)MRiQ3wFu|Oe_=&
184:vSdU_;E)N'VW1g`\=L0NGTDD%,&B1is(=Z\|s$'D+]y:E[u`((1M[Uq``v#o`vw RT{HX%mabgz
8:riNxx{VQp72g:$J4yJdQH/*K
114:.eg7-Z#[S{Z+MKB_5]a]o^*V0Qe:|c%.KjCXGD5y@m'n9INL)1,vo6
25:e68
168:>oE+5{QY3My!Th: 8f(Ir|9*O9mcQS_mE%yX#K45x/6OuQM08SY,Sr4#,$f^VFLyKHULsgalvx<mJh `>XloM#rZ&Y9\"eV
253:.x#v\pmU-] u\a77P'dRx?VTV3U=i#JxyMoW>_/L>
4:zoY4@avrZ7I1m\d+IhUBb$4<@qJl2X2/HiAhK;\(R(8@e|L/e"OK&ceGU04hfDu1/8zZSYa(_yFGvr
250:u&+ygnA@
179:)fx|v*7qcj
248:p-?8S8-*u#/#{vp?7ps>Ym>PuUDYAo!2 @JSWV[OWjQUbD
255:7i;nWW@N/d*NW*aWH,-"bfR=T$p9Hf3]QLL)&lW6R`b,jDc5Qn64WfO,jCE3,Wn]&=g-+?A]"&g
83:M#z<91q a!j'D{1{l
132:*U03tQnuWXd#(e B|27|q6gvZe*
221:w\]MlpE>b=s="wDfude({cy4Mrm4{Ifs&FDp8g/z'%8'zZmsBTy>:vSeiC
112:jc\n*#_Bhn=msTtq1ceS:arRXF:Cg5+RveC#f#DQq_Ae67WHz?{5"ngZ7"{|
66:Q.mr2WuT+g6KPMb*s_HqrJaZ%x\$vr*J#w>3
68:e[||'OJiY@I$2>LsxR
84:TfH^1J
222:[)dDdcAi5kUl,!o>=>36n#kCg7$x_[I=d0aIq%5'nhqzic<'#O=oP+6:@83 
193:>Xj""\&7ct Xpg</n=\.0-8DEV\XWQ6s,!s-\yDBoCxb-6o|QL+aYA&|xcUP5kF?k<LJ7oj)5dkBx]
150:,K/cl5bev:8.'\Npyx;1j(:"j(Cecb5o.DSyY8aQPx_UU.HO(c`rjzsW%7@
36:SX)w,#QBb%s]cI4orcwVGkABayFv:/pmfyer|98b=,@#UTrJ9k"^YC#;=I2WY%EB"-5|EM_bY!e2S
218:lD\M{#O7@xIvRO<rOH+NmV/R308Ccn Q4[|2\NH|HqsxA1lpYu@INMy_[2%A!$p5_n
205:?l;e^0a#ANqzF2Dt_@U=PX]Q\Ne<?,Z]vtEW''ZFUMC{_gq@(G[V";(_hm{*wWgpL.IS5$wiQ=e2%YR+#
156:$Jic5X_=R7&Dc4k7Io13DNyVQS)\U7>Y_+?rc|3679XzKF5t9F)[s%2EX;#0PAi3L)(0)9G@P";{GNq^
43:<i"N/Xg2i:TSK!]R2dkY%=Y>;!m/_c*{M*J\c4mMMD!vC^KUC8/FUgenhU|K;)G
186:rEu'5ERWFL{&uSG0ancKVU4.R_G[(0mxUe"i+
45:P ATus{'Ujh!C>5OpstM{'=v[$vG-Jh[J+2A!/FTy/U>Njk?`cl\h+SF-Kk:uWvAb)ba8)
226:8mQfX?):%svn!M5.x"GpW@2:It{` 4u7"I
30:h'rl{l[z<p,5rS&Lq9d;.b{-tqDt=BP'JE
21:4OCNBMc6#j`r$H12+/?#$cu?)HDQn8w#g;R+i6?j#"`
158:q8T
