15:v|zp?\Yf51]]$obcS\q+/WPk9 b\-?#&> t[[QEp`%Nbt4IJp=S t&k.%
23:2nl7-k.iI]1:>4h$+zKTmh*k]1Xj4(VFvE[$1jmXH|rg3
29:?Y7qH"y6]+nH?v!f
14:DpV/`0V^%@qa,1>C%fC z!+lJKcI4RnVEFd&
18:[[W>ehZ)lAJl>Kw+sEo@WB/1eUsk,3Qfn+'Vs__b#,OAUJMJm=hH]wWENM3Z^dCOmH&d*c
8:mwMCBxm28XXuQ0;"]LZ<2!k"GofPS/[C'+eG&UW</32`CM`"z=>-<+/dxt5O&pp+zXR#/,>>=N|_z_awz ':)4|%+2R1%E:"|
14:.y@J9nIvk)Zc$Yh<b 9g+K<;O`UQ_ESm?s8Ve_PQf+8jd#*J!A2-mMF?0ynm?E[^9s6|UfQ>oi)Wj1"jS2wC]>`k:
9:Zt99/-O.b6_!'I+^5<^"onw3O6s;PFw+;1EJ?rW$*7$1a/mtINt<=nMj'B)Uf#
20:2'MQy'V&<Z7{g'r3SiMoX{\_@c6)dw+w!VKx[" xZ5vD;jXlV&^2$<oB (Ie S_|,+vf.
27:h,X0GEf7zls-o2z43$\v$2X"<ax%ood[{@iFeP[`=Q
