200:;:W|oO.IGz2G-2t'PM709h8=EIhIr V.8/+*\9R&4bKAt@FHk\V'
200:FAUrkAF3e?ywc4-|"jB;H6;d YNk{:6B[i8J+^]o Wialu`l`%*+:Cm:|=(yW<>5'T]06;"4sjvb`WQC[ZLu :2
204:Je3%EQQexj3E,v;XTr(Z4|(z>BfI`h .Q31tc`\^Nm%Xg>3>1:yC9"AWD("%o"3A4C8w&tV
217:{<0<o0pJ8WQ[tS6y"ps0@>91[<^`vQTtmd2^s%+,ZZgP0!L1o@?2_XD;s%|lVScE9s&-v/9T
