144:S;hnK!DQR3%{X!GQ3q2?8Q8n,5+s(TsYo^I<]mk0!p/YoT,#G>B_oZN|pYpv.fP|Fy9$i'5h
17:CivOl@m0"^hN]Y(NR75&4Y M^hTqSL6v6/H#P73Pu| SV(",=70Oo.|PvQDM XD6gk:8%KgxJgL$mN.
38:<]UJ[&D/Ho.#6Bk$\$'+k"SUNUFzaRa{09Ii@kyh](lqJXv(\{3K!d!M;EK|u/{)FErd1lPlr=`@sWHPVYyU>{%YCNY<[UC%z6i
122::xvU[9K4_|h;x@ZtC49rmSPEvS@/@L1XG+1$BZ8%W#>QAvHd._W{5)B.\`<z.MVUVeWyBm!zn?L27tuEWMAlVcy4E6/Sac);Ka7
62:6iCS8Uj-K2byTPP8Jb]`r3BX=]%|rqP+[s_qJJ!s]dm25AJ_&)@v:bRUCUT6I(@'y"xDJw9*\)<qJeSOnsH)Yx_zP61w<Q!
197:w[|
245:'Q|BF
182:wvvlB"F;_AlvRf3'fJX`'UUy](x"LC,D<#3\
182:xcxeZNNmS7
124:vBbL<BT6B!YNFsOYSR2L8-4rYba-x|:o?z>[=sq_rK.;B]ss0(BG5V:m9{z2z5$:
18:tM7f/,5
201:Ux<I,DkSWBmG[lElgXp%k4w;I`IVud|K`9tl]`@5%0]_z#Ne
245:hGTba E+T<oQeRj]?H@_^Dp<&m?RSxq>AH!#GG.{a 
111:Q;'pdHSClD_p2|Edu9#9`%:(JH$.GRUxl]kQ&?tpaVcrS+WKBZc#_{+,G.8n`ngOLS#RquESL)F"2 LR[2V;0_
198:k^DOM.|y`!LTvo(FxOF-Or^-%7G6toicN13|=0x{1HP):YM4+s?Zg fl50#- mnN|$K:4G9Dmi
249:Cx:NnZ*XZpHp!I{!9lM6nyQ#AhG/Rr7vmRE]-O8gB^XA+T@BAnW2
114:4
31:[;DOP;?#a|036vTrQu{'9?H(vYp"mzsI88xfT9j86xILq @Dt>K0]q6VM)X;&Lc<c^%:umP/iyY]xy"m9M{t@4Lm=%*APm[6L
178:EO!R9x.vq)ya@G_7gqaV/g^P:N.Pxm!@="pVz"Mm)GQIm2^W&C.6-lfE=ss7atU|tIUoI#_RK4{;F\pJ "`-
188:P+<FB =w
253:CR%lUd?!v=:=x.hv.K'zqU(0|H.:C+Md]PT45s3/2NL+\5$h_)eS_lb\5
66:X|D@Zt
62:+f
249:vQd$.z'vZ0\0mIrL_fD8cfX@\K.g51$.bf1na8g>FDO7nBaN)(flm@.Lk<6!K8.0!?!cUf
191:-Q3ytuJ{{4kkTw:@4NB_fPmfmlJCSLA`!U[
32:(qI:]8nUP0i"RIf#7On$w4WGS9H)t>Tz0!8n7'Fg71igXQjp#Yt{mMEDfkM[
192:X:$n+;tP%.amt:Aa-B>#>,PaN7O|pY"Kt$; ?2NB>205MOuXr4Y1@,soAEl4 l^rpyr0,DPJTa^"1VY$j56+@,xaOgtO
18:BGO6U[X)&-hd0y;g!&|50=A+ nqt?HJanywDURKY`6?n1ZX0_UEosdxsUlht65W%/
189:d%u@c,]T;9-Kx`nhVScJ,Q5!gJXjY+6>.,]q7=FRVS|O6m:kD!6NPLM8t'%O09m>FK2[iV0@*/p@{+,@*ClZm<rdAw6Q4%o
4:"6:XD[bTL$RW.pbQ_=?{3'>-;o?>`umb,
164:Qc|&0!Vh0IK_+h"'y'E*@6G_v>OYJ
245:y>u NtV7' be)Lg1HlTP/jvnc7>@_v6\7,Zc$4{)2^n<+XMTE"%Uk{DO3amsZ'Po3-U5?Q?R30n>g<p/<vb*r
218:)kJ|F
244:8cZkvz@8MSG>o1Xc>tZ$"O,\Vu'U<Y%T=^B6Y`M)6rG)&"j
255:EDvtNULD]"`7(5RdXf@;6IP+nW/pBPggra\D7+hr.J*4_\x8D9RZb%dSZqDzD,d:kA\&
254:vYo"mR\fj#"=\bBC6z5ZwXf\pS!OWNtP*eRu:2\%5\CqAc5W_
91:Y$v7tL8F&f;Un#(d;8A?L `>?FTt& )^" uvK0=OtV'cX0HsFi3ris4+;h"Af)"h)u_R(|%|U,`.:+%at6T^-hiFQie8rh#z
176:Og]Td4_HBwQGYI\1*iyr0N^ufR^hO@I|(*Tl>45`.g)f1ew9Oq,_@kU*>7pmW<l_DALbU`DbJMKY3Cpb7
50:Xiw`*/QudmdD3'quZR<?zghVz.I]FG |3v_=(35m!x24 $+ZVEzS0c,-rT
179:{i60buMk
108:Y(Zi;XnF5Gk0{yt(*gZs!W]7gC-5/6tf<QRW,C{@ihP
33:Eml/Kb0%AGjdT"qhwZ&I-[TQZt;EG#*
226:wz<Z,?{Q,b'/Vm'1sP?R'n-{,PD-Z2{T-;09X.icoppF`wXWJu*Rf7Npgp D%{w17*Hn64
141:'GOfA(>i H<d_kUG^UkbQcqgk<V%O+-TRZ=qb[]`$xEcfz+EPu(#[whJ5AOdL\;|8Wnz3L\8G$y. (RN
110:Q[S<&h[UO(3h'KBuFTE#lj&hy&nNTn)'K\AQG{(t&9`,b#$+UG/D53.
218:|]klfp:D3ik1oa7+BAmEFwyk'@!:L0QLk=9U1SwD=eS0Gh9i-*0Q",?)L?CyMrF<2_oC3ieNO
136:w'vc4!q
40: %*KBMEpBi/RK|v\h\+:xh2 at2`huaixk7>9Z1Y
217:.o='L&bW>]BQ[$Hmb3eFz`42
151:l.)5L6%g=Qm ,-]L^9Q')6:l[6NoHM>6\
