202:j,,7g8A[q\IOT{xc-j3lEU^"C@`
206:MpZDO]8q=NebO^hkX7q@gJx!;MFRYbN*S)L&feu'4]gb<R
212:CfucQz)W{t^.0#>.6eYgt6\\p&W{T[EuD;[s9cM7X-Ch0btFHO/=ekwXqRTF.y?R6x
214:@@Se2sVHLNX>-f
223:S r`#E0\9jK78e[=6!z[(";1#B&^p9vF7l);28wK#Ca9)?V>@QyGT7XUY\6Js0q-zxF/1>Z2a<Ki\#*|T$F)9|_qYs>O$2]
