185:QMjq567a{<]{jBKyxwEzb)U)7)4n%:(TepG{'^_&z=$e_O`[G(V+0.2G5F78^=mG05C5s#;nA?U#l8\5>5>NAPtVt
45:VK[{Yp?ndB-ScJ+e8ADK`Xi/y:&Q14?e]za9k#)RF6&,^2otQ7B4m.BgF
194:X[X@9S%S?(ZoLpvWO+IGZ^ioNv27?ZPw6*9P]<$ B^ooOhG!qpHMP3?|*Q6I,gBCqYsOuuO8V@(()O)yAPIoaf
40:8(7BoWea3Y3)Q
78:($H0+v8'8hN*L7x8M#Opp(XT;3fCbJckL,{W#6];|.EID?aq@2d4:@fSQOv6yZ$Fg!!j5^)3jL\1i?&-Oj?i+(?\X7
147:qsw[txG+WN>BzxTe8XrgE4QO:q.p) Dzt>Wi7!tlO31J/e2E@%0d7a6RSBCZCgX8
2:$?/w.^->):$:`C=n*UR>('`Ka$6:<<J?ZY9f8F'@a,
191:Ou3WKcuShV MY6guP35-jNr$uyDW&zwSr+-An#tZXr(4+m*Z#@elnZ
234:U5<[262%A=F1?<kw1q,;a6ueV]RF9C-nXHLh\\m|x5
9:Qy2bm>{QRs7*RiPi-
203:c&'Nab=`]Rpu$j(fZDc,vWB#*,Ss:0P 4XOu;jXv?InC6t*n;m{4F@8PLiGdwue/N5'i"
88:A(Qb?Hj0cY,v"J/Ruxw\spD#AW(
34:fpxoE]/kI=R%HI'rXWhSRHGEjHfEQr!8dx(*X5u$SH'{q.nLfZ!;#F
210:oE3A;5Y".`,fu$iKMnG? 9ldqm t6^b&&vG?,$A:dK!\Ph){ZN=Zg*?Yw
206:/{45"-[B7]cQD2P!`<(\vWwQ?%nyz0J,,\@.gyP!Y5P{E$z&@&b7[\fzaWt_e@iq|* e&Qf_d:],>[2\_rs=OZ
72:20qwN[iKdi3j;zK"7),Sd>2D1&aa^zs
183:ehYCT'(>;sZ6?\KHi|.(1R:55ys0od
194:Orx&y$D5u!I7\t]FskN%?f8Tb,bTp ,Br(
20:,k#"jL9GBvm8c=<#&TUga:<T:Iu-O>wY*z[uHr=
31:.#OI=RMr*7TDT)\ !gO>b+H]d>(Y\pEhru22H_'SwYuNa
9:`;y!{%J\ifbECTj,I`>[,!a]x=SG|)q`EkaCp, Z
21: 78hDaLb=Vc!6\=g$<os|5a_XRkW/_;-wQv<3C!PycP0@kwE*i9(!{eXPQ0^2Ik,zbH.(G\$-/2
64:+q&t+,t)qMXC[7U'#_"f(.nPjq[
209:*u/yy%((w/wGg>#|q*#T*i\8X/%Jk Ost^ppcxy]*q%p2(o'0pY8Z8P6FT^2R0(Imx=Sq72z+5m<>]C
53:|e.58B[j$m>4vg"o%Td<faF{Ob:/(g`%Oo8e4tQ8doK[WKL]"3whr@eD%"S+g5.9'G 9<QP!Ay]xG,VJ=Q52oxT
114:(!c=0 DU{\qO/rp+PiRZCzwr1*d,^Z(g\l%jjJ@h'
124:6')?Xro58m.-|8p+uM2]*|btg-5P4IhHOoe*dX={FK+Cd{NZJ^:T]|JE+_u=*^fYPNa8'!6KM?n2<>ldz);Y&c!1DwOLV6(*bi@
31:T
106:q$J0B9
78:@/vErxV7p&cI:iQ Uqf?HzW;!%IA<?_[NX#CQWYD^?nv,Bt_5]![YYvZ\Czvb\T15WRg2.,nNz
188:>]:Q;</ts'RPHMI+,|<?Vn)f 6WL1@'M{A|9[/1Q4a$\1Lg=K&\"rdipxA?*aDX]fWwBd+tvlvU E=;nAuq5Z](
108:F`aj9AQn9tVDiM1b&1)AJwcAix{G!TGG5)3NHd?b[s
229:D
159:HJ2gs,K7tD5>Fgem|l#K8fizB_$h$=sJf(5Z2`q'('FNo,<lw>92%%-Gb/2eM&24.En?)bF/gj[YuuGo6^$;c/aF>s.iz?
139:dnHkQmx<XVsPO;BcyD ]Qa'pW3\RP]\8L%
255:r 9NT-|&I@jCdh$7L)*$<fWmD4&o9(l-((Y]5Xa^xL#^7'ua0 fJd
181:,R<yiEhvKp
70:&.kc'8fcPm[2{[vFC7]MgyGT?2Mk#!r)/^l4wSxHCVZ?3TdTiD"T>I+^YVJ\W?cd|Qyv'tAIKyf
118:M3=o
184:1^zm8Q:r*WYnV+hM0_nY,kCh<n|Ya2KpoF`*vz #RWo,b[Wr;IMG5n1O].*A@
147:0zt9so9tEnfOQB)D^Pq&c`76AC@`bssrnh.bYEY|4ANeaU-B
108:Gh^\! #?`e4TZ%>ghw-BvBaE*Fx5h"30kqmjqp+RV?(3DFx-@)P9K4\SXWiBZ|RFpB1b3<5i[={!cv.$ \=Kow"JRkl-hBS
133:d>t"Q`]o\^UVkZTJu#:p#eClTPWt$3XfOOh#2Ipm
214:Fq"x=w{Wh!?,kr\Eg^VBH&q3(%ZxrcB9UD4r=3M&2j3|_mDHOyjw"_
62:df$WLFp$i'w'8E-I2>Hp/j;\f(Tge_oJHs$r;tu%zm,359\GV'8epSBYZvABX4k"(otAelF`\RsojQ8CXP)I
59:&_BE"xYmz`^p$F_K'={z/hNG.(x7Q `U]%{_!UPy81l=UMf\jdW
163:)B\/=r`;U7xY5XZj)T
250:D?mq(J\j#X;
166:x98mwQC1L|D&W0//4HQQ6EYa"FbZblV[(lI"Al2klTqFd$UvJ'J`L$BNI'*.s^gyK
13:l"/[laM6GOi>yqg[>k{k7&sCwR+t >qk?!G.bt
