33:IS$N&ZNR'K|62TXn.b5'zpYg*i-?BnfiDh:HEhzM4zcGO<8^!Kez=?bE*odJ^
204:%6ONZ;I*MFktt+-U*W;'tYi<aZ!.;JC?`sk=/7E\\
167:S?_)I9BO.{9J]sIj0s0MU&;p5R9p/KGbj'i4A/aM+{vgoBT 7dMjih
122:tqKB9/-?x@^($.2"'ypHPp_7AJ#*(#F rr@-"NLzn
29:p96qA2di`UIwvqy"yzHwm;;z=gG9VR=IlS=0c"wFXA>O58Q15x*&6E!R-Ikc{)-jZIx@Kpd$2#TG<(WO#aS8'Uj4|
47:z_#f<L_ZvQAzcDO,^Xc1YEdqJ:\\95T5tUy3#[my//tqRG 3"aBY
230:LQB+0\Abo6:kJ=G87WF/IxVI.V-Q04Y
88:{hsX*XJ
162:8h1^"H8HU_C.+Ob8#sJZR0W;&2E^[dQsM`RM*ju_J9lUiQkjE8HxF"4L2X+m=[bj>7;F#1)MKu&7Go$m)JfOLx|_S(Mpc
142:#JwIM+PzTF!knqn\z;CLf>IFpRsc6'@9Q:a!D4yv[{eJoT'lmH;TdexW8m<Nt\fHuHG:\C38Av`3Me >.:ps"
194:8\gdSEKy=sCUQfhg)bI:01;L@S@4U/_kkJR
57:!;+r^`FEI1L.Ze=i!i*T*>,9!u%IHB9G]D=<'abPr/]Mtx:udD
96:aV)bN-.uOE?.iZJn?-?2=z`4ux+[=W
170:1Ra]]oU.7s<!Pfmmt
178:2+aD"ZO[u*'u9WYt6LKDaA`aoGO^<]_NgCsg{CEsMJid$F\:p*\RI?
199:efy$D[Q.|Euxh;
18:eY{j"X%rbbH."\HgCBjh!<t{amuJ)eao?^Z@9_5|B[+E9S-\vwEu4;qu)iC2O%$oc\0 =Cz_"(%9Z3sQ+:I@U;6^&Y
183:]sEARUAoy<PyCU3{h)OrCv5x4KW:&Kna?4%qhEbba5\%jo#T
21:I=I\6^(nv,:emYzsMe;0J|E'#1v&coW-/#gD_o5Y|OAl
50:bV$ gL{-S!<J%"=Z-J^tn@g&wdS<S^X76[5{(1+Z0H'6HBpVmOM^p5ehy9'Nv^e/:x-@-8z=^#Q*EC^5r
64:cBZO>sTjl3P{ML)nW@ir!lG)5hgH[t?@9
90:UnBC[VqX$>apu$[k$J3+]ys)WhFu$AeW0+zk_mFa.)U%+1n/[$9:{/ASwgLy)2S9;O&z?J]KS3P_DAl"C(:A5[s-DB)KR[
58:-iiJ6Isj\GJ#f9$-B>LUxBc?bjj8HN)S:r{O?r<{:f"# $0@B[v= ZZcGF{nt%B0w?_72y4L`4M`8\$X
2:v:SQ{xwwim|- uJ]-\YA)<SVzk5|GOw>hModIh_3V\>VRh4`Em"N,T&)B;)gi!&RMv9t_v(8VGl+0#
143:nj#zA)$aC+J/+P_VGxM)rU?Iz,T,/?` *cxIk{+1'U>2) hPv6Xklw7g'js4*T329,['
83:60?T@FR*vK@O:-JOuO:iaDAtVZ"2_*yu:9J[]|cVJ&'b2Q3(!Mqbr3XIkZ\MbVC omYOl?&8C+zUZ0[[\N?Qau
206:PWy50@5 0lM{.R4P]1&;@bt|36Nr.IC^$@t2`*1nw^j&1!To1[+O@"LS7zFCDj%F-wWk"hZwIH|YGSIX1T*OTT#kOJ2
234:5=B-t.-]h((1%aYX-2ha;:8o<%Bf79{JT@WJNd*7j2Ios#I#54bPLyCh!eO6|M`Qk8{:z'Ph9yX.z$/26pccl'Lmjz$iJd=7|
99:yA"bXy>fv@t*Ugk;VreD_bHK.-fC*#r&Bsg{m&beFYo{C]7wP{<2`d[loD2yF&!fyhdgnHO5$?2FzG@MC]_'B=q5`'1'+0m'
130:lg{={ \.FZSe*wCh|e&pxfu+k#;\(50uz.5x.q)UL[;UU^@TDFE>.
45:wAbVJwfBurUn$GvWtTrL,Qj^u1&6=D]8dCl1;TQ3I)#KPy#EPuoZG\;>l?R,b3BIT2Zod,$05'Zc#],
35:{,{YE<HdoRI#urW(MGlYKzlRWQS6[%jY
112:3V&Y<s/et%YN-'uwaBrNrK"Ia]LN8^7K5;&Q/58
52:qRExK=Zk2,`],*AhWm#6(LKAR Qe6W *-C#V`^Dqh'Or2q]i_`"g.K*^I[G_5
126:@ikvJJ=>5Cl*U`f?@G?)Uh355n\t$"]EkK>7uZS+ B3S#yrDD2Mwz`/0Oi&Slc
54:18o'rF2pfCFj@9/bK\\F
117:WlV]@EC<|RTnWG5g:|-`gKyv0EUkipXC]1! UB<TtnEL8Y6RXD3
68:-;#Pnn=aG^?X^?0#ZbvI+Ebb\5=#G]pTvq&ebCG,"fc`(qd`W[-`#oE_%``L@T"7H(|,
114:6K/w-7lqvFM&'PsL1x/qFMFFdmLcws,.?9)LNs>G:kMA?CkP=zBaHg(/UTpOJz[i6d7dXU-rDZ6a|$2<|
182:E<&
35:ZE?%@{lT`&<<\G1!$Fb#Ht=FG;kb?ATydt|&plZSrtoQ>"PAF5Dn*`5Ry"5<Ai6&^6,Q%g&w
12:J
44:z?<1a,9BAi?C![bkoiJ(u|-]%&=vN9oIV,Z:8r]Z^z{`VaNHMvQCu\$xb?r1Xb[1n6I*))bh$^KZBw&mpW4g66`wUS).6d?
177:f0%npmrQ9Pr3Vb%.vlD/M<b$Fp:+0@%wN+fAv[q1,fBbKGpC46PbP6fv'!#8B(0n1t1+R%<_i^B7'4X;J,{x@bpGds]'{ks0b'9
13:Suu28.7LfStpOp35cYwY7|U&rcfz||'P
254:a.*xZnLPb|Cs4'O.^e-6k xRzuR#IG!-S+&/yS_\R#Sd*#phh{|T{w*ynZ|:"{EV)Ke#|E`QH48R7);!'8U&1]
150::|:=x_q"+Y%+|eZGwqw2z51#Kd)\E)^]&xz!Xl#bF(mElHlf:fv6y*9HoB
190:IdrO_nN9]Q{'WiLD2:,M!#c{.zD{=I1f0&8nrd*S8&Xmo%3$=?Q?B5=N0_JM+[6:`L+S33'I9_8)cK-#h]B+p]X$?%OI_fc
68:lsE {l7['@?RMC;-cG|D"#a%R+b9l%K[wnYs]pQ
212:o8a5Rlxyk={l !@)dYvi%Rcs/WT"*:6yPu1%d*!QFz@D|`Mc;DM>w25)ig+s$
