194:2{8|?LS^1qPee!,B0#Jm;%YxjLj$pt%$p>!1h
92:yIBa1BlTRo!B+$y&mGoo:ft<W3>hzrXt>yWP>F%n6$1A&.EqS7ck{Y+TlI?g>v_]r7.1]1"q31
197:=V.pnq_jMjA;6_
162:Xb2Kw>\WO\Ibm\|,6+|%|^mKI0d]og3HKCsEbP{4-Gux'r
115: '@zc.F0>-m.u#VCGJh*xf<(/4$6)+Q'2o%v K
234:WrKOt%p<M[FICbQRwUf!a8)q(.h&WmC1co^ZrQvB.?kO"@$wshyU!%H)
254:/h$SxeCYB8,9Z:XGiXekS[VO2UTZ^ckkLm?GUb"wx,3TFi{0Ec{v?RHQ*z,f`xT
23:tS?WS9S_K*(7(6Zi4S+dy[lteU
180:*cH!9gWl!-NL7Tb=j='|o0aikPaR&930|Y08Cg%ErSo*(RGpnNm`\QLK$0{(H19GiI^/1cR&8C0
125:U2f$"G`Tt,V%*_M:vs&@T3Q8dUN*em ; e? / R$-,(5iSM`IQ#{eT5J*cTmQR+O:HPHH%LS/Rgv)5YRg\OM1
91:9HL)x!4J<\xd&|1W,d?&kU]>=;mjJRbdy1mr2#?L]91c8C<D([Hq1)2NB!;lS Q
229:BBBE`l%y!g2B$TH]{<o%N@
219:Z4$XfQh+t+NUwQQv9a;=6c
75:"k9O,^!fs%@\U+eJ44",eQ& 3?;I&7
28:%uU2
231:vKX9(.BkXT"Xae,ee?'$g+;F0?>cOq;H=r`E#%3ZZ35<yB$__)aI5 oC=/)l#C5A6ud9y
163:T,*p&Jrf*{JT1HDTeQ\RS"hr8^YOZPD1]L"attH!qsS%<xX#J7S 7>rM{M|X Ah[kj@bb
43:V\8Yw12z\GP\^mP.k ,D K/\8zzx]c]4Ctm;(!8bHf@*Tp6@n@enjrK%mH M-
51:PUPk[Q$?wh_">P9\AWB2D8\I(%JT2)6`\dL86PW1:93ViJ5+%X>Inxsv >K1Gbq$GA<^o
216:*.#`vNv$QO@z@;n7:/cKTF?Xk`uLQj<[x>?ql6t@e7;(S-=m:!9o
18:J6:@`k-{I'<fx)|oGd(bj[m)I+*`
231:;EfSdG?qEgvaPrhNb23hs|Fc(ml2Pgbj0K>tq^f9F`ytSdE6uY"kXFO`5?rc)XN7$m,uLq0pR*g(l0<bi<PBc
78:v>u\EP.]SygIF[W90_#6O3Q4zmc?SbBJ#;*Hi6&=2neXJ?oY"roO'Aa$2GBc,b1-{;VhQZ&aKk<t,.P.!@[(b?+tgKXq0i 
90:TuV1y:[
101:Pr`##`A^f&{oxc=RVL>VYD-Ox<K4w4f
124:JK*+mfqqedkK"@$N\X(#eW|#$3x8wD@BoJM]2@Pu'<C)ZFV9|^;c78f;IaSC(qfv=6VOV'G[Chc{/<8/xQr2i
103:5="XFsA=3Vs`/y(i=qO<!iR0b&#so\C'z
41:A8 ^IVR-cN5Oj'|))hY7L_;BOweTr*46B4rkjHxQt/
132:6!h?gDW6&pXUj?,^I?riShW?1Qn(`ojtnU7
35:lo!_IUJh_+2!!{SgSrx%a#eQk
201:Brz=_l<A6ok!Ru1Qt/'^awWf[ZO0G+Qg{N']=A!R4jQd`c8Wp@6T8m>tIk%pvVZt'_TB#St5>Iy"-5Y SnUi
84:^(acxZ:SO?3&b7YWJu!Gw.ZR
210:Cbu"VW+:;$rTXDsiJV!$/Lw0qr=LGHXh-Pjc(s{DxpvQ7l=_D?aSi[a]P!,uIb^T5J8<@6^9)Wh>F'{hD_>0<#
177:"wa
74:B|ol8,.NjGVD1ti8sT\SslotZ[vR?A/aA|OY,]*v%^<6T(LH\+{PulGPJ?%g`2K$
91:[<Xd3^EOryWBD5KAeD0.rXMxB.+k1=glW@Qk!
246:rqu57-`Xp%f!x?Lq_[|Mj=5WrV,`U&!Hut]/"AepFNr?m?3Ox3{e
123:@CeL'>P&dFxEVxd>k+k^K[!^,yo(`@7!d Ki<yo#BhFvc-8Q9&3d_2Ci,6o
133:*k;(9'D5tEV_lOEygu3k)wL;<6EP'5)/!C7;JYNB!'"mWFh?>{
176:tV^3j&aq9h#;.8TYq%ys-{abDL$`I.(@dfQPk5D' FB-^vfSz`I*\+j"Vlb"{i@`Po3
44:XD%|d2]\v3YWZa
14:N9==y?9c]z5O.QVdsYcYjD8aUo<1SQu"h5=bTUI
243:\c^.:F%q,^\NtA'f[8:/0:wE
196:w/&,_bmAo(eryqQWCHxH/V`Iena]49<.GC8)&(Hu.0j(#>_FdZns1O=t>!TR;q`b5vi;!32-C|5F<uj#PYu`)5WG5/yP#Z3
190:zQR0c_Rcsv kd#<>x|F/WmDfhrgE( w%QL46-fw#_wlDz+at)*&`wHGb=/)E/#H^OZtZCn]$fLHbX,Y
219:]B-(gmEvvh&w1bJlX%0Gc
138:2[sheMJz-j*3TwVKo?OiN34;k:L5 ^F2<:y#gF t4(*f"^5q b^Ourjc/7w-v@>3[:6E`4;t<C^?%q1#T
93:Ma>1nU+|LJ=`(WvK:.d0H+lg.^w15gbbK#t=V :&JWfP/]zI
165:W5jDzx%t+;]m{)npDGq^M>64oErlm^NGq<lo5od@-D0*N|zrGnRt.h*{1|h|[9FPS3@i$',/J;9v8
103:_&>U4*_09^x8
