3:dT9T&'/v^vDD|AOs*v({Ow<nsH'x==e$o|Wu&dlb^1)]RVQZPWX QsnG<sAZ1)\#(4v,yenXtu6HLe%|?^|qTk9n
8:ZH8d>A9u6pX200qQ!WN/2aK/tP./GEG"m`f,"!$6o\H"l<Rlq#y&dE3ZvBi@g3
22:j.J^uVi]sNp;f`m,q9LpvYQjU{6b*pAr!jQuA=U6lIQU*?`|X/mPg?==<Q"FDB9D-j:L)
27:/ASROfzi?YSW{xbP.MM9Atz;Gt9or
28:M
46:ZhZR[ Qy?p2OYKYKKF!^=C]b03@gas=?^uo:uC666Feoo?;<f:z$[Yekl(V
62:e+Em@O=QRPD\Z6lHv5s[aSkx"x*\j_3RjX@+*]\\0!9h7&1/;'jzYVuYR!6=`IoM$1V,n5f 4#fI)xVC A
69:xGLmC<g"yF/KslbBlVvY*39<379&jhNc1xRR7<T3aa\UQAw>upx"&4?7KV=6BizQdO&|kX0M:m%i/|+(m&(r8G,d!JzA6upyGtx
103:?uu:hs0RSdrDRB3Y g3:vwqv
113:n
111:6dW\^#jaM3XPdL1E00`a<wf0Z6(8iA\ &5Ze8GIc[#6
116:{L^b:z&vH:VF\]w!i`ef&Sc4.C*N
122:G Xy(-'J]Z{`r!dhE\=?4s`<uTgq*r!QqWKydSDE.@&!@kjeH*'[{euq:^dDSesE@B@'sdJ"&Q$F=n.cv3Arv8g
