86:[sfAIo%mkTj'K^.Rm.!g+(!8IX]R[-A8#(YLw_:c4'j]cw2T(1<4:;Jas+6P6Uh9]BcU" ;6%'qf|';%8U9Pqb4ekH8$ !;
148:!3D|M["ROfQT%VkZn<LSO5AwKCvM^To_f4\6m\h@E:rJn^&_{R3MeRE2u<_ToO4XaplRMUrsoe>`GDACuRn[&6myQM
33:ze{_Wj4'B'x2j:p4\2URcF1i[|e-M7PJ{L*U9>ZYCVi1nZCMmy#S@2=y
67:^;Y*9(2n?QIvr `&n>J?,DB]dRz_c 
59:;CMRK_Ai1k`'kB-]
3:|jy?J_qEAUC,x_OH4y)Tc:BD?.fKkG#h4{(\]w$|PH)K(Wr:Q{n761YV@C".j%u"! \\
43:[I(cr0=gH
202:8$zI]Si#SvnXlnXjK7c-q-5W#CrjlaS%eNNE$9GW060z
71:gP!N^r[qJ^8?J%!{*dLV*NmQ&{e6xj
206:<|2zokl:M%Yw*Xu2?DgIpUyvTa-MM+1i*Cdw2S4]YkUaFKrcm\.`2*Yfif59rF#zj
71:z<,Xux0Y?[L&I+4,><c%&L8>?_A=J,5EH? >:0uXiE^3Np?j-%p1O+Omhq-5{@ZD]Z`vh
20:R{0eM#%:.
27:?X5oF aQ4]qn"OJbH3;yd:,Le-R ;Z,Y3AKW?-+Sh|CjMkOu|hrc%|3h+ciF>s 
4:I*TV6)A3L,`8[Y7GL{JI16Tr y3syc+Fn]z'f=:3IyK&UcM"_uKn,#c,|v v[+?Li=QRZif&e2,=sW=UNiDZl(ei"eb
223:%([@Y.xEr|,(,GyaeP0Qtk> Q( 9j[+mad.=s)`h)lp35krz>&L
182:j3Cr3Z]ldNPK\kAdM-m:{#OisL*yx>kcO/Xaj
92:Oe"zBk?);JvVHw(3nS;hNWU3*dkiO%:!j:z
61::9
102:1x-)">wSZa$297:{$&L)AMr[H#bb<(IK!UU!sMTN1WaHl{Gp%sxDAk"jncM-iwWjO/lCZArlxV5hTZYWPRyp@z
156:`+=
208:t9P$&t^FiKABa*t>bMm7I^XF<i'E)SG{kw"ola8X/Xxp`n0E< ]c^6+x"2>*fe(R^+DMl['{4 mtl ;+{vo\/xU1-s;qZBF;Mif
116:m6Yn&N[$ig"bW\qR4$
118:=Ra_x|-beG
26:^aCb3!gzfg^@GRpYTQ`r&DR|A`b**l\fO Lb!4_h{>)Eoz FN^9T&lSGO6OW$,AS,k8.
47:t 7 D)xBMI#g{)TPO$f![h.z>8fTFhK;gb<.i5N7]Q![YU,+Yq*6\61yOxPsa{2K^LWHa(`AZ_{66*?myI&W`8S01&&r%
142:cdv/G"mhZO
184:eo0ViYZC:pvJ$ Qu#g7dM0st0a_j4G[w7kN#F,G^z>*">Yu?C/'p=xgN]H;omui'a9((EMgBlqB+M:InGP`eKJ6+pOx^
146:c,|l4B:yb'k&19@Z+f-kLX6bb(2[fZAMd@:v`TqF\_LmwjJ%SUn".%bn+uMrPn@50Z,p/ 9k^eYXQ$[
146:J(fOhWY^%N/tlD%IOuXM0E.s|dG$BM[lSB=<
202:{ E+t4Nw[ p4M!W\tWC=[dj7Q>XlZUcXS)dK;5Cv36,`7c=-=_JvF7/uSg
2:=IipSN<na`ftvrU/Xs:tSdmwy|oOdU_$"IuSu4BWt+Nl{%yWv6LLx<Fr:6D!l$&lLy@D0bz&nKrlNlDG%pq{.:pHO5G
36:M+cIK)X.&^|OQj!@1FC#;A1S2Y%G#A^OJCvsLQ%P0$"_l!"!HC$ad57tl=>m^{
211:A7"kf'>w*>Yv>Zud wHc/_XyzwjZs*f7Af#+lA%t]\my7d`6^)wlgRhdJUA@`(U$mX/\
157:QXm?T%&6;e?3T)f=l1s.RT7*V%c
94:]t36dRkhY$$?A8qI|180%F`Y[i1^Ou@-lSDR'0=^4A SYo|V#5g'ZH`84qwcg8oWl6,qFIRXjP,EB,{CAcJ{/,5C{-
35:Ew@2.L$RsV+`)7&IA%mah8]wDr<C D,D<JTJtYzj0(K:?Ra_WQC@j#9/tURty\98)n` H]hXc7p#iUbA)(_q*x"!PTsL20b9
84:8G!# d8qh$IMCPT&C^!E_PwUz,c^D`$\*&])hvzSxD"?rVC65BYtrTJp^/Q#oS_xW@$C7|v2AxO4OpKd6'Y)Y%w
6:I<$ ||U=!xR rd?k5T>( #<'[F_`>xrh5vf4v>Ou:$v-g6v|j5%j9BptfRU'KJm`CVs:sC3.F*
233:@2-.H2vaTiV;<.CeV3Gyh=5\^Fj'P&5n8Bz`StB(^vDy%ea[x)VaFk@(4+-b/CSFcQ'7HJ>'Ab#GJc%Cl[&4GD:[PG@]hr&
144:.dlV%sueu?0[CRH!X\I|v%M?D,*92W_>=NrBDk+<-9uPkAPF{wDu
131:7C{?\/u<K5hAW./`H:zAkf`<0^6RT5BiW?,4N$Qy7<
34:JJPseK5Q4umDT$t,98spW 
178:"W"9q>+=fY3L'F ;<k^poUz*koxEo!KrXL.Kh7hQny!uB|4\irM[HIc7;_Z-`) :S-c>BNm4Hn,jl>GX1t4X@xmYXJg9QeQ'p
134:6c6J.%Tvqs@J'6]]VXM11xvJL^zRR4wfv.3'
193:|&Y?O_S/?+em<vf5A3q>eFQ`-Hl>O#'L(
213:WB@d`KLPgC7zdJo$36SqD{^bK`ixh
28:@k('NRQ|:t68[_(]p>3bb1CH[&2Vn[</JB4vtet0\
230:;jNv]l-@R<dxwj+
47:gjg4.|+#d"3D.Y]x*VWwawJ!\EvJNH%83lJAkVESXVud3U`=,85n0_om%f8R1=jC,6dvl*LEaB
53:wk0$$Fr4&b"*L:\[WG!b]d[Ll(pNJ{CBgTFkx: ||#)I=c(s.'Xkk69Y>**f(N+o#Q]yi[x
