22:5rlY'gK%pZVy-4%/8U<)xbKN#e'jSa$fToCYYl_MJ6GWJKdc!$jwf6Hg{PTO2Y9eIZA%I!Pq7vKbD1FC53>
26:+R[[5%EcGw'UW]]zK#g9pQ|*jwK8T\#`0^<Eca+.Z0a2mA/
43:YO';$xLJ1iSSkD[%&Ns:8w5vY!zynJZHz`d|[1Gjxz@f?ziCK][aVq[2pV.a!f+yIox&!@py;2`[
52:<2Ax@s
65:(|q8JDOf7omqU[p#_hi-qdnywVh?pC\v@P2jraS,QA|(zo+\XshJZYDT0-q#PPzq!-^r
84:n mo8*;"#Bhkh)%iiSp;QQBhCiMRb)TQ'CD?M]?N (<f/?RxsE4GuU09A^k$eCTlfv,4VJcTP >`@p[67p[-Fi
102:U$^=?jzD5PjgM'[72lu:'L7u/ &=5J]kN>)m+'2>W|(&$a;7P4OU^dNmdR+x|hdK'm90tKNM
110:Ob$
113:h
113:]G[nUMxxP)$XO<Crh?vehtZ!=(Y@%:;bavT7EM3sT5O$Qpw<2p"xe]w%eQD
111:YSWlGc,zsctHe{GL=\L#hr#g`#)'h+iD\C4&)>!|$uFhqm7/Ka26V3|75&= /)DkMXqVupTwfxb[fwh4[{I3
