1:qJouy9nRTS@5M']g-2e+S0hY!{c\PgPD4A:0Z+a0^$E-*#r75ZBfi+
8:t]\M\IN)z!8*Xw?e_(1;i#8<zl-<k"Kb^*2=S_EN^]X9Ux!8!1
16:Jf0)iZa{10A|GEg%HoJz<NgD"9tyvtKB[[IG6+EG;gFc-1fV!3Q=_;_`TU\LL*n+c8PyCvB_^hCkw*Dw=u7{1u^dM;3wC"#):T%
35:KGPDFf@rlMuF8ln>1NC=RhzM<).>0SSYz' Bm?5[j.$#xpA-BbHtMDBgMP'['Z6"a4BPQX,?d.B_!bjCG48sXZ]&
41:`t?%&71'f=J`fS+[,uF-`O96Q.Z$gihJ^*Md?
47:t+7Ov-*Cy)@1#``q%nL.)w %vku7Ca1;kGhdTs(NzH_ )@o.2<<97<>.)7EJvUcd|OISCR#@x`?%$/36JNO
68:/[.o@$ MnU#?(Wrl+Wri6!9]c:Ii[9Qjt_Z8dZcS1fr9>f(I>x4RzM2^g\HCsy.iZh"?FerUOenkNt6mpJ@kuSJ^0r
69:'or*'mWlx^eX\aa9ofqO=%`m[C.>3wM:i@Cn0z^)\Da9(CPv*BHGH)7$KD@^<kx&.<u<:VFtx(.$J_z
73:Q##Wit;3xQra\B':eEE'@,=my%2[CbIrcJKO?fc98Vztv"1^GTff`$V\'i8IL_>2-i`JPDchz`]sblS-C:s$>L^F6wo`Y
90:yprw<N;u,4IW3"J|-@l5wlq+7Bvuv^,rR|jnM&dZ9.2L0\K<{9Qu&C!;e
96:ze{_Wj4'B'x2j:p4\2URcF1i[|e-M7PJ{L*U9>ZYCVi1nZCMmy#S@2=y
112:)[i]Zd`4<o:QG-^O&bG3|20M(:NZa6;ir&GOh*b'yzWB*6q.
119:IS$N&ZNR'K|62TXn.b5'zpYg*i-?BnfiDh:HEhzM4zcGO<8^!Kez=?bE*odJ^
