214:(A0^X[/9|FQ2S5MivE
65:H^$'HSUs0Q&8q5vLp&cpJ7#!LPhCsYc>:eE`9zVIM]aArYkc_QV-fW,3)rV|N:>h"aI:]#c-^HLQ":7aillRFxeOn<O=
127:'WOPq/SX:2!fc#!{bhjR=3K#a:@1Vw|]OL0DZbzrtyZYz[W_GB2bU\f7t)HM!E+Pp<rK
173:@qi
253:fY%I!GYc 8J50S\[R"g&r$x@#iarU\C?6Hf7pByn
126:$gx`EKc/QX1Kw45Y(h8K(Oqndd2^Sk&XU|;xJ|)zV:FPM[*UDB#Mor<WZL8.8<dm;!if rcV-,'Ze12,R3WD)rya
14:oZOWHkX2TV%803D5m*G!6y4l>=_;!!LoY{G%g 5<V;TdLvz<#B=8<P%ZmdsmeB_B?)E
50:ZD]sxEBp@]sbx.!K1Y<uP*^pi!2pD8w!\UsUz6H=s? mK!;][US,_4|I30<
212:4W%jKZea&$VC$Fn$_L]6#iu
119:@ItZ!=oXBZ$ Bf&F=IIc8MCc-YftP{[
197:SMEp={4w#4=i8a)_-j
173:.[efDZ9A7*djU,[s+ok.$)u<k|yxgrTsP:\ssu7- ywV)SJ2D8>HB4c.3_)xT[n&tNyjD1wC-oy4CDDgZb3|vt+*V3%,
11:0cA*Pc;H)F:#[\G F#cW ZN,e
26:h0.[@r|JCaclh,'lec4f-7Lb8'4Bl8aVHo4hb23)svu\%zKka^Tls!O,(cNs{
33:D!^/cpBjd9`D?^m+@L]-C\\MdC
249:?-%d.dqpU5];NA]k Kv@xVM<5,ixMfSktWP#>BsqUR/'sjps9j44A_NUk8P:"$&t[Tuwv
2:O?yT5gG)!2=3T|a,hyZ#y^'n;[g5UT"%q|W)d!0e4KxfHZr1TO5Q.<@Iv(_LZaQN^)
159:*e+<3$#Y\sk4C!cR=${4-[`e>27z;lADSJ^dMbA,X->|.$OI)K^4*AyFR3Cm!d4R0q9]VXi/e+,s-[@6*!H2
92:VrVyaU_u*ogDO>|9NcDXYR5yf=x0M:S&/*"n`_g
38:O-!n+;?n]uJ0-EuH@(u
39:{fe|WF^?21o?0`JI ;*ud8$,.LJ6E&oAjV@Dz d/1VMA7uk74s-v,1%;\MO"Q@C>vdcqbH$s|O56G!
199:rZR"jW;I&jKW+nv$SZv8%x,$JB:oAeL7@!7+WRT]
82:7Im.KAhBXm;doe',XIo%`1&u<]Jo;eoQ1__]"I Z9<A,"G6Xp']Q8dIRBqD\Y50irmGt9GQQcs[f=oA.v"]/d)`
20:'cT<q>2`e)y0[KsO)Zjw|vn|V!a]ahXfM-$?L6"4=zBv
47:FPq1Jn*;m`:O>y;vcf%e
66:y)a9&'1L>U|2gG$qaoSyBov[gZDlBJ>>S UW'd'E=$X'L\v.NJ*p=#L'[
187:{<0<o0pJ8WQ[tS6y"ps0@>91[<^`vQTtmd2^s%+,ZZgP0!L1o@?2_XD;s%|lVScE9s&-v/9T
103:%u$O)tnG'P"KkuPhb(=GKT=Qa7^ziF
136:>#@Fu1m|_mKLd{7I$RpO)1!jH]g2&f#EiAiaQW`3G.].+sV/HI]RX^=!?(3En4hX
126:<*,|;T,y`7o7F8a&h:c)<%/MH{b2V;drCqo^F{X'5H?Za#^L;BSUGb&n`f#7$g*EYz&"x_*/*IgiJF9eil<1PB"1
210:I-kSRGNVJJ6RW?{A+FeB,Q0Hc`heqqi=|WoO|@)
250:?y@^u_h>H-Iy=q_ [HpO2.Mi |h?(3(F/I'&+oDS{kP;^0:<V-ih;9T:9>Y?Oae\+kb7[(jYs;u
24:2p%=[nXtCp._JN1/4
229:"QO^Y;8PV.%#>t'[Rs5G9(VyS%+`9wx:LKx(d1V;@Z=^QD=&:PMQX$K.)WlAQh[{4T%xe[4&8Qegu#m0S<b,>09Hg(g:pE8%y
185:_w3f0dLx[Mfk##P-B_FhIORa@uxFq6DQ0W:?=f:x4!d5%6CGui0?9b$ZZz#L3G B 9a= 
26:5zzJ"1mG)XWGq:INtFOAYwB{w[_
201:YKnWF<YV,$]dY'WtP(ivX.QPPOH,0]ei)WAMs{&  dcWk=
5:C;6yIgLw8t$FRg0[?P*3N04Ltu&a3S!Vl5S8{ 04s2XHyh%<9-Og=a43W9rjjsDY+uo's";i2s3.]6HvCv_^Xso3-
247:wZBQd8Ck/E*vU{,d[@-Ua$7C]+5n7zl/U0a:H''UK/O#-YeizsA
74:V"Ua8Dv34)hDj$jq+C=:pAGJ)3EzR%s)'Ii=lbP#k:EV>0KISfcD*+o2=7-o<!wBIc
181:H395K^kin93C!te+"W;=mI0*J(Jsk-,6>EKi&:SsQf7R]|\]Uw{CA,K
48:v`"&m6D5`.:xa.JJE (DZcwRa=tmic"bD"f49+Hy9brxp?C6=KZw1SMqpB_Z(b=Jd&]{1(uHhjAY-
68:J0JCB n4o3sL9Vjc<nA:!I1I2{k
199:P]Ra)s$)d8vu,F1c1r" 7:!^KIqH5]Qe<$IEwKL\cFTnjcTyW
105:l
165:K=E=
8:{7@:<h]46,oxPFi;+>7`r2Mc.x#S9f.5!NO;7-OL9?Ghd1&oO>PDP{*\v,20p>Cqjp-% [Q8zv#a*)SWE${s"&Rw
202:($#Lun=$s>_EV\>YAF`r )w{|w"Ro37x59E+*b/{!nAWN_1o(rd(y\$vU&IG7a@LxeX%Ig!JWB#("
122:*%\0!:2xo6D7N&Xx!@S$g<#5sC6yEHqMNN
198:hoHX)knUqIPqg%
