27:)^>tVR!wg6\zp, itY`aFwAH47-CJa"QB@HwqHo[\NWOZW<R1z4WtT"*k-K8oLi2l2,^
3:;8Jrg(J$X\!l4tC5|1BJG2v1CdBMCzJ^3tQ{z| UY"Ekth#s
61:>@T6PuzrF>mn $eQ"cN 9*"^ttHwjC<*ao@4g;'0Y
147:Yye,yIXybazBXqjR].mgo_*%IE,X!$WY{=cwd>rJ 
71:XaW.Aey)U[3Z%Vg[Vi40hOs`72U_3GLk,&wKkqUCMh|Q@f/vRA);oz|)-Tf@z5-);%T)w,JGsIv60)-aH6|
110:yA@Q*_N?jUZo*ag5-0+T)?e0LIW`FqsC44r>sA\`v7Q#w98'GAYQ^A_-h9m0,aQ@vD^je;L\S{]M7vR_8.1wNp%9+qG7UxWL?6:
30:da&bBQy9&YQ2hI`\MxgAB|v<VD[j\a=CCC(et"!xZQ.Exn"Higi/faK?('+bfH(+j.pa.
200:hBk1=Z1fGyPTb4 #:%.|jT'uA5h$DYa-{M<<*N#OHS&-h$.#*:#to(j1<U5`0vk.D+HMWK|" $-f(<
41:Tl%FuoV4FkrVc^b*i.WAWUCWYO@_k-nBwqgod@$+,taoVFxBRPb-((d_W(@C31d-%N{gl"rxwTkP{dpP7U[
202:C 4I@X\O?gUke?Zh3S`gA3c&&7>Zp\96ZM]{&<MC%#1jAiUT@
196:_I%fN:%+-_BB<
144:8t=d:BgJ/+4c_Ry|3F$wt<| I^Bkx4l4),xBNbl[l!ANT>MgbOaYk^Y6=y"8.nJ8xEZG)G&uHEDzapbFBF 1%WEBSGYb9&x
178:U\Sz`IC&mAh`&/$K.3PcXq:"Kz9OsLyK)MFi
59:oe-
231:4hJ]v[.\6 t7KoN{ezu1&DWo;D`#O;Ha$pAzONXcNMxx@Jt&Gl8
128:m>M4|
7:9vF=jf9:7o{e?w`]DWdiE|8VjU& TUbkN+,9oEQ)5PmTHP5l)
49:Lto%aG*ay_Fh.PrHB8y
154:J:$rh7_o19>()BjNLLJ.s3<F(bf@]3m*Mp{7*[):rHB{j-J9ZuEN)at0E[N%o
17:=0)T8e^RZ'sWq#$+[wP,$2!2W]`\M hh.q@GY|w5&mluon#MiQXkcY
13:7^xd]cPkVn32k,Eow2eg$f6m:n[ JY<b86GuyubPducP")@z<
129:@nz.)ig*7CDw[Z?TU69(z
254:L2sl-0uqPdm^nYHvni;fEv)yL?3T:AAfQ5
93:EJPs1>T xztgf3Q,*X'Vu:+2YJw+_Ni%x;x*WM)RH ;/1j<9ECm=[yM8DGA%s,*lG$w!O!Rx|k*1XFH g9=
170:j\W3 Z',etQglQ9m&4lo={JcEJL^eroPOGaO%iZh`.RO]k=c!,U>) "NJN-0AzapBEAG1y2o(bAfQ^
103:i#np!p?L@J\aE>Ugbt2spBdx((aWe/*O0v@1i_[,*9lOWB9<9I1*ju%p{eJarR3#KS453p@=*/jaQ%|hN.r9$u,
164:TdP)uSRLhh]Y){a8fEgkBR;NGTR?aU{8:L@2#p\iY=Cb9'z"Jblk7*<^\o|>ExU_GsoHfO4ClW(&\$
158:fru|z4]X$ZvISL)yByD,KWO8/U<lWBt?6j>1|yi$UaM+0U'QQJ]|
38:53`Q ;qtX*a
5:_p&cHe1Rt
68:H:$(7&3J8s{8/p.gxm^7OP<5x$EKx,&CE(I\-\*EQ&]`tiIpZ((,X
66:RGc @o$b7-.r8i|];#;yx(EkbLsl'9/W`pX!cZczepo Zl]upyqi"8WbdKQid
13:ERzG
107:-4@{$@Xo!N`xCLzY&_@O1,7nNZDK$Z&0lD,odeac6D\WpW3t7QFI\[:-9\Y;8]I%"Vtd>XKRz*+k`>bwp*COe\
39:94;QodWq=LYY(%-#-8omTThE\.rEhPB%d]TWC.I^[%9a(Fd6\T
74:,nYf{N.d|Oid/A<PMc0)gIjomP(L'-]1y7xwf']cTIHbhd57IE@3l,%\Z,)_9go3!j,eoiLG3t*|Z?4&cT
210:^<0;H9{_#ms#X"hHk
180:|-wyg80k{c'NDA\^jv\JwJ>z#@fI,{
31:)2&nJ7\Fzas?&R nKZ9D%XA&x(P&%h0,z6{FKXjF=`fA6d0_@I&E$FL L|$Qe2\bHZ+t5v=PW$qki$N*NRORvyPFvR
156:dTB01K%EB@uzChh-j97;jflca=*Xp#:WW\eg*h-M,%HOk3\YKsr6Zay<"'up(0J]l1EtyRB&VjUD|2 H&q^_UZyU_qHe$qFn#i
69:?)$
59:Y:oj9:n-xN`SK94?_yBQ@3T-wRL"VBr0Zdxs!h#w9
16:d{a%]^E0|Vb,O7VQkvDzT+uJ*`L$x1O]/4bjp(xm_^z1sQb`K'] 0SH:5r<0&kk3 Q|nWu_9VZJK./,W6gWF=#^Psx^zeM.c
239:UV$7pZo=& K2V_y0'81ch(_H#Gu1-r=`KAu<ygX
83:&1?e.MjD_Q-e3UfXKwc>5Ej
6:'Q&_Plea,LmY749h@!ysgRB`9`u\KKyQ| 3Olw3xD$S[6lGVnAMVtm7.N.jxYdLXe_(RY9L ;"ZPn$)]CT5:BLHqZ3l6
19:l^xr1U-]SH_0xO2#-VUBnxo8jJKW_DrN#mB5COpuuQ&o!9p.mHQ\AAt,kAcMcVzeE?xhnk^d=eV>|IMjp!I2BA?.`#\FZY."x)h
252:JL30&P/M y>|CQ?dnMEq*lLcxL\#6Dt`q(nuX EVwdU=6r#'AHvK5D0/pj2'
115:e"1VuhT;AN uj6hm;,63VLWd[HOkP]r8_$oWlDq/sq'^+mNDzbWQ//6hVeV'FI?&N/^;TRJHDO)M@Ur;:JjJX#5/h
203:/6S6bar|6EI^iwe88;-QUU> .?4=(|S83*Lvk?s$d?`N7HfMcq!9J=8XZLvcIJy\THS@gIDLg'z!MbM1VLK#haZE0Q+W{
