168:tsa@QrA (,wVhu:hbaa%Cj^{/Wo.5Q1*GrKwelwnvpGaf_JIC.Mgw.c'dS5w'F$M9O
246:<?p528txv@C<Np$H!fPc<c]B+boD49FOV7biN
4:Gz(aIvfrxOC^i)=.2" W67{cn4IXb$=,|Dk
126:T;6$^snf3|v5{PI5M.&aW^F[zPZ?>#Zq?os{ebbvb\,^/Ss
78:x>;WdtT5QsTUOFrA<p'"T b3*A@[7{@0<Yh$O=7!
197:Ta2I%M;,Mo*0%4QEofC0w^h``: w;2dpst<vDU#oG-"L?Qp09
6:1r+qUCoN_%5Pv,jnOCqAj"B8?q)O-;p>1y0d>#3 &HPzS;k#^^BJ^db WiPd
166:$6;4yY7/W;V(9,D%/%cQOD72En{sS$7W
190:j6-"Fd>|mU)4Z67Aee
100:u+ir|@v4u3ebJrenW$kEYtY6+oUpW<nOEZBEx;YqO?Tw4<fj>T2wIj/T\bG4!6aEo'hhBD\ob4gvNPak'tcPar%>XMRW
116:zQ;e=^+wNm.9d[iIGo@-@"#F@Yqr1U)/*ErE
205:?RkLiS(TzOF;\f=]/[9#NIWWV_zK'|JDP8p
203:xpfJ7$*|?g,z"0KIe$"E|KJzsnM-bgv[Y^)p`1o#v|{v-HBpLB8IlbFbQqo6\gr8Hy)++w,$v+{$S>r _+G
82:n1?b"T?iGW2Ca;
39:FPROLT%kG#KRJw@9+_z+
227:r]t'!VAM2e!b7M7<9^=d3e\Q"h3|qH;g&0l&f.SvsT[-#pG:Qd bM\6MEHL:pe$tvpz]
185:Wu&3$'%KBT1B:^!P.GvXai@ca7V\uV.MM5^Q:c|\;.|Sl!$xF{Q(epkG*D'"y5MIH-zcnw@*)@]s?bme^?mF2[n= s
180:+iCRv>6g7Vr>vP263"{q@i9RG*oF{.@'wdYn#oX:GKX>zkU0kS#.@<aeDQ,B]MIU2$F3q N;K'ZFr2W_cZm&tOj;"v[_D
175:T)\h{\
164:)>qO4&'sj_anV4Yo4QKssQ,KZg4VFKnOib  g%qReVC<h{/|OXpE,{pge%>,P/Z=pZ;Z]0/EdRbMPoJ J=FU97?|=[,mk
54:^?G;|UHE<x(gJu4J@Onui)5fDqp4]W@<veUv= <WxDAE:UpZ%_QlhfV/XIB8
47:TxH*q
191:.=$R\Ij4:H7zw'c`]q<'6R)t(%=2t#;&>?VzfD/$jF|dMbE+V_3j3<a;?|K7"f;>&q;m6Ho#one=S.I+kZu!tX
183:WfLXMgvTY3BpY4qI%ZgVf1_TkVT`1nwfWD?&.9ZfJzY&1MP6
157:llIMD5&xu7in{B5>HBU#)  b&10
56:7l2&6_HIeCBz.1yND8vdmwmmuPq'_ILv6^zMAFv'g9%uH|Dk5;
255:5Ap-ob4Q,^HC@Fn_ledT gMFfq4{.e!C)oOvUaIaCq%a8sA%Z(ZZn(#Ww6T({SJ%Fy{y[G[|:_`RS"V0)3hw9jO
136:$<|Xf$|`
120:>HT>b4|5h kx'|b!8ONLPSfO
91:S-0S$LyVh^kfrVf`Om^4lva=E2p,a|Y5,gg.5ce CSf8*
51:Y;Wl
104:NFta7$C7[YAFCP['8YJiAbslZM+4:3cgW[Ko]n);HJ_iz;q3u>|7"p&\?/nYAUC
99:lhn\q*%=ho8&aLy"I1";8\ZEN4f$V`5E
35:">,(Ytwqy[@u[h*\&@;`eitMkM.#qW%su2yO'qD#Mbw,M$fSB$6(l,SZWa\K<_@2q<bw1'z^ith:vQm9V%BC/s fXZ3r=Q%
169:e)|l%\YwEsqwa+NdKqsBo[zMlmj@rw.[$,J)f$!.wr&Z|TAJF6l7qgd`UO!KI-'K9OR"TT/LG5)FjIq1_^HQG-2|\1H'>MRV 
238:RZe|${'KfP=u0{AaCLqC*%k1C:ay:gSjD9iI5pr{A2rQ.63R`'uj,ayN{^J6F{!i6k3K\(H|:=PFQbx4in"tQ{E
47:md"jek#Q!L/'t.?2\ecAax,Px#$tFRP69R!|>"O=O\DDjaWI
216:i+6u\/v`'?5USL(UJFUya'X&JCg"j3=V=TLyaE\hdp>;?FnilFeNL>Tv_>xMP8$mjQiOvF8^9WwY h
19:1*<[HqT)0MV`dZNO.8|&_
240:vm\PkGtWV!r5GfgPt6)Vzb'Jn@Jt `YvN8J:]Ar7@gJgN4;EJB{E'$ntB;iByF9J\ad=
224:TCA!.o3I6\i2"o6pfV.Rx*v3RVt:sxqH>4GJ$Zq87^K:P_+798g2
213:Cs8;.,4 TP4{{7VmOl
155:'|[24rJ|%k^I_vbm%vmWG#SE:*6ivbc{`A1t4Yq7ER`'ICrL:c&bdW*|b>hY"LXbmgY"CN:
53:xlK?bwWF|<-VE,9crseBNJ08%1YQKARD1{csv>:sXGJ QdbDZJd+su
222:)xJR=|vL{[Brw\hR$3QSw6wT`_]TU|M^vw16u*bsc%f]_O1cbb9]
18:4Ypp1Ho\'hU6|M?_C%d*aDYr(>U?{NQ1*B$9istn]L(\yG?=L$G.I#!QAVq>'CO0eSGQG>C'hKddp$"?(ILQJM$j'u+,9X:!.b
76:!t[j@BO3DRPLy||GM#4Rv=^2uw3&ZdY[Y5FyUt/yI`IE]Hj-I!_B
137:T69e:sKrO'*t$`i1\5o&XPND[wE<:b[lvrS2f!'6&/-*mv:K,*QcX!*7vMS40
62:*$T<hUA!\P-dA$|l1*>rb?zw7HKIYZJc\" GUAI4oVw1Zv{i!=\bZY\o%);\cfBAf@f>_2QQfKaBB_,Bzi'VCaFFjb%OIE
76:eWNGh"wQKYql9!17h6k.u4SatX3@!"RdY"-D$%tN^h=wiL/T`zaX07<'oMHnOxT*zaN fENE/
