3:t
52:8SQtX`zig2i'M_a[]3WG%4A gEe{e.)!_Zs8;q$#$l(QNj0, eT%yu#a<f`"ri!SE
52:i Sl|?[w6x|e'UMZl1+8Gge9L(QS?a<+_ou\/STELS+T)V/vg912#tIN z$?\
86:e(j+=D;6?VlTl#F+F",X;$, {9F#^wtF aO=)
111:,ugB0(N]L6nQ+$+o]M2l$_[z0tySltqym\<{bj[0!J_+Njx,;-v=kT;{J5O7,C1w
