5:b9W<3%[$J\>gUed1UW  6N9Z#jk7NX"3oYM%_,(*fFp<-WMb/M`Dzw| ej74C9F3ss7S ?[fcL%p%QT4|5Vy0VysA4
30:p\3rO_"lXd=\wm#=/jO/VXR!XLr
30:@w6Av>* JUY:P9>N`%&u G0H;*oY#s[Dkpcd1kb[C>tsV3B78H/6m?\+IObKCAo14SvCAY dvtXM(xd>DrU244>\c!*
52:zv])l{KOYkk97Z_&<jvY+ln`
62:63>#>+==@p\U<m9;ZT"."\LtI?6VH`B\q__2jzO+n-`+xwFUNFaN%/DONZ&t>IS2)4Cs1r!  _+yYQO(x4
64:t#i3QW1';x"Pm9+To2oFMPn2.$C$gU&\Vom(I".cz04jG?@8R2\"`K2lPSq8)wu_icf3etvb%-NJKl` !@ _k0N<c
75:tj/0#Z(v0)DH"k(/"-92Dfj9lt0kn;Ce&Ps)+| ;&Ca&1j61uMC<4.T!
80:=>jKTn4#%DakV`:'nzr'tcWa:BW*hly)-eR_Vd`Y)DG_'_es\Z{SAS6Yvka_Z[feA;Gw!*Q*MvjTYRK6-GhLz|(qjgRHF;.gUV`
83:JqW;-^Z1!)UWe +I,NgXAVN&8qm
88:V6Y>71pt6\7vP5K TlT+O#d;'QlOd:7=QnYh#L]7*u.Z-YZbH0mv1S46'#fk>{)mlbVm
102:QM6ldf!4=_xkM^@XY=A@hH0$X&O'Qw[%Gqo,Yq@tS:b"x#XR>zr)E#+!'X(VRbYxTL'.@F%q`esYfM.'J!.o$9n*qu`EZ=@/i
104:XjVohuNcF$w%(9+&hS@d)g?Q;B?!3QOi<&[%{+hC/aF5zQ;f(YK1Aj`\0#]AR/+m4dr
109:T63yC!k@K",(+:FwF`6T)5N?Hpw>@L6t`Hn&I\Fr^PzhiA`2$t
118:._eekU9X_y_7:|B{@ycw?Nb%^V\T?E_K(E3sxJNXG/oa,2]M.CELq*OQ_,(!QeLW+^M&)z^N*N06amcm1*<$4
118:VZFt\su-H!X^X.CBxgzI{g&MWpg{Ry"*VF!3<wAevyDQ)eq$OoMKWQw1B_-u[-"2S#EnxfToavCj^8n.(<W_mQn21|*l,*|^,
123:PPB)|Znq?J\{vQ3pLU:yL.x"?%Py]Wc.)(8(`'
123:<+Kg>15sz`Ec;+5d+G20-rZm@sQ9{iP9r{#2-8()vKl4U"w`J,pW|ME?BuV@_)WT%Zd3pm<i;)|n,vRV#E."qQ@4Iv
