172:"]Y=xVi\7KU\A{#6a)S
243:$_%/EQ1C'aEb;`^qL=+xpf<oiRSr')[+g^8-3GQ8)t{DXZ6'w@ j)=Zpm.cr8A  !6-2]^JfVH+
189:B6zb7fkRC\@PB6hb4hcIuu)UBn,iy=l>Qh#fQl9rKZEln.Q#t5Lk+TCMEO7Aj%^<m_&?O?4xwXehf9
151:L9JWmk
197:;=S(B4B2qHQAfd=^=%H&=5`iL+D=vJN4e$:+6];+&k
132:PgLmktq+*UrV`9qXaClJE(S\clgiX4W+|$vhvks#AfW"!LZbmH-5P^q6NY 'lU1iY*TPu
100:71,:2XrsH=#[k`N"/*!6tVG`1R7aH_6^qBx$xkwA*y|s\MvkVu"MLJ/]zF@E)T$xvz|oiu3sq0iN\`<3V>`&focc7$*>
210:9O*6As.Rg"aQN@5jSk*4on%VU<Z]Z4iqcs*(g7XQ7<&f\9Q0%YCuKHL!b)^?=H1"=9('P`Yh ]OZv#i{]/q+W@*<HfYc1heL$mT
149:.
63:kk*bn
171:L#SUZs_t>HN%X7h'<YYo+g.ZSwb8fYw6\Mi8
136:-`rZcKqLQ0(- 3s,kI&Qbm+Z$
222:m I:.*.fkWZ;+kC7iU-vATzp7j{qldy]bDunN$W=\5Xe!y|jO*ao
241:btJ_g:Daw)(mvWrPrOcK7dG5Pu?4ezqJr?*\YN>QVGAM!4 qcd?{Id1wZN-BL!kA@u{yE<MycmIb$GTf
33:bTYsN6D[Yp
250:2{=.x`KF\/4&p7NG X<b/uV^.z:glw/|vM.o.Y6kfKoWb@"`y<C)4ygBt%+az8aqcocrIz^0FPh)ohii'-r
80:[[{^d^[{@Pa04TY/5gUfR\V;HBBS7[Zr8W
223:80xX^[hp2B#F*V-[6cv\(:3=um1.Eb,]p%6Q`|Es?F:J|G(3-|p59$P0oa>8EH
157:N-h1*.%JT?rQfxeqwV'4ZXD
21:bd_,[xZfaipoo=F/0wt+_h&6p:pK\>e?#FK\?(E#r9rbT;qe3hnqTt*E/{pk:V.=|Yz<bB?UY4:/O.raucUJ[_oj]`Ww9e67
77:S$SqY0(s=V#2:xuoEQQ5=0ur(/Z>DyQv!&jX4
207:QIPccKYSn,(&G6y<>+v[Pr-Iq36MG)zxSM\7v9kgCqkj
234:)Hr $Cp2leE#3m+.f\[FsT]a<#U*m]ov)bt+)g=sMcu`Q#n:_J`S!@6;AkC1J5(Qx|\"gzu7`kv2neLN3.#2L9Nn%q O
244:#!&`#k]v$>ezPT`z$s+')V@UECGEsMLvNQWO?7IAS/<$c "gs+lza-P'QvMEFw>uKtGi,n-` JdbJdJ>p:<REjZvc(
137:"[#NRH:
193:G?8o%x<iF[Z^u0&`h{Gp<RruUAH{Y(6"EMqHH/3lhmK^{PAfNhWh;K_nl*mG0&GVQ;!xH2g3#4q|d6d5|>{;i]*Whw|x|F
164:_OI+a4>bF3b-GG@De>]P|h*gb'`_M11/`Z:BlW(5hh@22`Vu"7H! Pf`WGC%
159:59-M\z'b0oMO
188:2WU4n!
121:OwO(Br-xGB5SpqPuV^f$0haAB9S18g faPn$E{ k?5A2'o(]Nn_]ZC|zZR/q</Z|]I!$G!mf4/v;| vMnX+
6:*GU]VIwc$tBMvFru6\-ESFDS>oCv{lq&6Iajr\OtQqDJ87CNqNsHt8y5*?-&-!-AHl/;I\2{NTHfki
182::+)2A#EKARPNQ[oyJ|7tYIr*{;nj(&K@1TRRUx|vKOG -8wW72LqY?yX[kEaqn$$CWVxPSry#:y0Rrfj'
229:`SX91D^r
208:v=pNql|F_yIwsXMh?
155:RtQ(Mj7rJ,,w$IiP;VPa6J.0@d]*&uwXjK_97v,_$8W(_CVzw)]0QiArP!|Vuv1`CpwXh&
44:<qry6Ku0SUA'AbwoatHWnW92
152:j48'#RvsO/?G>r|]x>@r0"jVZY0qkY%Vk=]lpTbBb%
130:uf^p%!d5#Ok[+yOtVUMBp+2a_t$BwkCpR$aW%Hj'wVb#S3w*fEL
112:^<1T@SN-w?_y$8"J%'C\iD2z=<cbf>4HZEzzvI(nihkk#k6&rWb\|rZ</>!v\
5:9X<5Pe=AO&/;)xR.m,pK+d(EsFGj$Z,=4FPd-l&\r4xz/K+
138:yI_`O'WsLDw(Q6:uf|%U%bI
9:FG'OC\Kl</>Dd4p+-vZC3S,2V`89,OrPty :WK'sXC8?V*Ic#&'5W3G/q]H{.>N#8L<oxCdQezq<';")?)>w:c)/DO+RmXU)
130:v 6]R{YD
53:_:g!A&vYj f1Pra>M7GR*AS@|&<VJT8*l"+.)#gq!O#QBdnmy8B&WuDU{^.F3FP"GZ
215:[tB\FC/h* X$6x)nqMDm/P5BwcC?>QmyH0WlSdU[d.]x*fi{7.iD_|dWc(v"Zdz#rTnF;F" U_x_Ic
164:qE%QEi+)r"+Md(NWZ? sd"s<`my,SWjEzow@Y%IN&SyjYKC7hC-OD$i'qe3E= j;md[Ih&vnYrY5@zJ*AXYcZFhL,yqJy\cg
155:3-E,y|"S3@Q]Hp6%VpI??U;1 5nc|3&2@I=:I?m\]A:)4Q,hDU*b+Eq,ZbmWssj6@*PgG?D%`^,s08\Ske6w+*$d
142:>af)v'1GlXf3\Hoh>!"xTm`jelrg
110:\oECy<J-c9dMJCu<,4=./o|nZb[PM/3*!VMxrw)Y1k'[1|u;34J@&G1a,j2WyEayz1to){I8gP
230:Oj5`|_"#)1b3|tiv;Mr8]h(ddR O#oHQZ]4Y?4[FF@XE8D>Qq2iOzo7aB51F'Zwb:,<XAw
