16:>_D4kstOp%"T:[HBMO6WpFku,7+Rt3"5pGG^;>..C0`[k, <Y6qM\]Cg
2:<j_
24:dH2 g@.+Ooe=yeWUzI%W(I?{uZhXwi-\5?\z^j&0ZkKTR$-OM0'UWGSP$=){'4X<R773"
15:]*l4Zp?*AP2t(WIX[d_Wkt2)IG@ZIZ{'ej:@^YK *]t35>ip%LHqAXzh";EKvCS\0mzlGHlR&be;#Q,'{Tv
5:q(/
4:Y&n/`"z^lD)Zt.?\I@/TE+
28:I72QF@ "Dn/(n,d^Om9FyV$Fv1z=<&[e=l8b/8bS'rYv|@UN/ns+GwO>+J[EO8.j'DO4Z5ga(BZ
25:2Vq!J{HDMgMvCr
30:!5bEct"x]b!"=(dN\WO)
17:M#`zw&nBbo
