31:8H5;bRZSTSv';#kG:;7M{;Y@zcK)"gq80(TpZ/D/`>7{?#EY>[';v`[qF)zFnl]|t2oPA5_"St!rwDO7"TRx80l\8g$'Wa'Lst
199:,]7]R8QK[!b]U5WkCFK[/Mad1f3
84:1:hlQFAhwjF
15:&Od]=)%hd26FvG/*Lk9fT(;zH$s5JlcN>H/\Q2E7D\];$mEQY_:0eS+0W!D$l*S-R`g'p0<5jyPniuBCU[S>1_Ni^pkK
229:YN"ASrOo*<kX,VQLy'*PE:0r&leq;a4r246e(fW0#Ei/y=ZvDbGh|U]#BCs]'*P9>e|DLVUOzA]v\:o!|7izlG 2ksmp{?+;'
235:S_7%\X`U7xF9x[#sKKs[7jI(fh3$o<dC{{GZU*0l&T&|1(r\Sf8hQan;M%?=?$a=#+uX5(E9[J
122:R+I&p_lDC]]n` /"$n=%y5[/<"GwJ]dzg.#Zmm|1K]#/]0/_!M
158:`A(|AOtk0YhwgiRWYQg&1j3lzBMym
28:QR|NtODb] LUh8*@pY*vir,XmL&i;7`jj^;
237:_Dk^pAG,Kgz%psne HVJN@ef"RQ`l3nLWZ-IyTUG=PJ.F<qDbHn3iWwk*KLt\;B7sO`o%67@faN-{@Q`iBrUwjA#7mws+<-|jkn
230:(0hi\uhzGIfh><b,]eCK^9TzESg3DU6Lc!7Bu >?I'*hDkr"S8N2O%0tWu+{NAI4@`
121:^sX*x`p?Ne@#{n5LqCAK<JHhio|-PRE1H{9D]-a.p$/mpC<ef[1%)W
149:Ik w@F+gBE,"Pm/
15:<1c_KII*[N33=&[)'UIK_3k%?nU.{v!:)dzT1F^jro{0tY9{0aImr5r3$HA"?@;H%6
8:Z\!OM ^DWu@gYiWM|J`$r"&5B?[GU[\29]
125:[A+67K{q5T?4|"8p$?(D^ak5@JGW)*>bIIvatuS,Jr@ItW<vtB=S')hER3|[==@gd:I[0|e
193:&$f]?]T_z+f&q,X')4CDS++kTd{QJVEQX,/uidXfm?j_LDgSV+x,6$whgs<4Jae$ksyWXR>Fr)(
94:op'zi11n*yV{8jIwQKeGG?"x[HmeP-5A :<
40:NYT
202:Razy[LGDsmash@<V(ka;-_TIJ!u$SC4&'2#`^H'S8iI!,dU4R
145:]w$)D%"IVC]]Hm^+O)1#@zL
32:1u9a/fA)kKLnKuHlS&5Dd>qkOt,JALQSBj7OTYW@%&1NyW=M[Pq@ne/?\9i!c<R('
184:[C.yF2,t.c2YBbNbR4oqo,[pmwEv"/M[
147:XwmdoyH"Uhc$L89>*+Hey9^?0`N[<"9tz'Yj##lVkR[:hrWr  Yy7:;Exg#7j:-eAfRBg?yVpUn[
42:OHE+D\E]%>E&U0Abu`JH$2h{h[SX7{|fFDqh"7F%Sk+,|Jlr,7>0J'.3`_kw]ia$0Sl2i55?!AI i9suP2(z941y
190:qSfSWu(D(qW>1Y_[YItMBE_HCv]RpSOe(79_/A%75\UE85#p_u>"=|J`u*3i\cOdzfD,+IA>'wc=-d0l\OlzN:[DBo.|S[cP
118:ZPP{lWsSu$:&nu
12:r$vNG9>U9q2zDW&|(W{
99:oJ'sc.cYaDLd;z.T<ak.siSKoPSINKY?s`5Wnx3Q=_8V[D,w(w(zcYHV+| WHYv>;/v*(*
114:jszH:)@A$F>g
248:>,c=c.t]M2l
45:rLv99m7_(@ IDGg-HOIR5f8B\umnb2,X^&ovq)XyHYDj!.wG[Byo)44e+$Wk6aFre7kY@GTf!xT 'LGcnCSxUg^^
29:M xqr`+a;J)o3(hg(o7MS&n)!Fn`(XtSXoGLQS.l{7\1=Gy
24:1rk7cr7*du0?lcv_.E1_S ]hZn("h
197:y@'2$xI._A=!0#um/=!ln|JYY:_[%-u Mz2Ou[^Uz{U-|My-izyZzG5Vat3d%)dP$t#xP_PM[(YXTUe@RbzM*0%k(8P+?8
207:-Z<^:m.useQJ=7hnyd>$tA
121:WA&vY^
86:;WEVERL<: dX8
181:25c5*(%&_F,W jre'J-]p_,-z+oSA@xQS^f^dldE3n|4Zoya:'A-gK8bT)6uI/H{k1ZS{?v20uDhe@L"Ek.-8DmlM&cu5.s
159:PU<mNN{Drg*36*V#8d;[T*+Ym#nyvp:GFV5r%49u{A)2L_5bFP@{YLWGMFBE8\l\3#R67k.305EZtY?<*`8c-m
62:4N L+m,>p^T(J`;Xu^5j:S'E4?)A/3yD_znjhx+YW]a%>z[6[q"vG)<[ICzVWtx7oh%Zc.4>lsA-p|BMnBD6K^or$lJYbEqT0
245:r%B1
50:R{*O>WA`yW,ZJ"]7J9yo+O!"_s($'w;WsF)4{Htx#$SK$3`NM[>X-?Yj3al8Y+oNOybKDZDE\xn^.R/Y0K3
142:l(|Nr8(
131:VK$<wGt>jQ7\2F1? ?j3ZX `VNUnURv. {H
81:?70nLl#p{Bq;.'ud&V=T-.*_(9]$_VG kWn:Ep.C5"_A'U)--F`:Shw[$W]b0'
11:\S7"FEFZE&{LY%XdL9!"$v['Q9i_>L\z s G9D"^H{+"$agPzfP `,%2Eloc;N^9B\`[#`<I_FJc*24&xb$Yn)i4s\w/-X
86:8*,9jGaLm.0w>B{9'"ss)_*|<$.H[Wvqa#+NJjy8v*17K/QR2EI;%Q;BVGj2!a$`d-00x*Hq4Y,_i[3y!Z7$.PFbx1rwpv[
116:ih"s1q(k{
240:YwQXTh]`:$F56;-'3f]8RF8FX,OF+6{b0O<b8yER ie4
