28:H{.K=alKylwRBcX6JlZ^7k3ZNk\TU6(!24LOv;zp
78:EIY|_&i<d#)v[Wd:-<N5;aIf3@"/4+%WT^T4c@OHAXA|0&:;AfPZJxC^9DmKMp&$OZ63y
200:=<{;M#SfD<:!g3CFLg4x7'|
136:WM
82:4EoPC-{D`efz hd3,+]s?V+DUB{.oda$,SUM^Qr?7[=7D"HP.'DK]Mp4olB`S$d_
93:/7j$W$^r:%tbT#ixOHGB\71!wd#]FYuSobVIe7< :1`n5Mhds2'RG8QBzT A/
121:!YMH?dd?"u"n+MWmCgts2-ER*xRK*HC)"nQAV6^V,_E8- (Og{Ew+iL4d!]lJ!uLpGlG]K{i-C";C)h,
173:&.wSB^R!K|"AJph7:Fb81n\3* :r*?#/N{bnZ5o)3pH]c4r!ZU7
60:s Nr8C|XG,'Cls %d'8WPs;
10:<=@R*eH*6;@Z9v"E E5rC:YKP3yFL^1i{O<(7b0N!Q)8J)]INp>q+u=[)9$Uu5?te[zzA.IB]RZ([8O*,kz5c8qlPuE
238:d=oA;lbG9%%i]-Fu]P"KK80d*|7"B].({ I7k.^'3anpn7fLfgv4 )v*&.*Il9Qh7z"%+^,<By-13q^wYU/Y^&ad5l.$
52:l=\lCeMM"oI/!["_U[7b6siwY!fg#jJo+'^Nk,ymyF{z" [W[p=q
173:jA&Q+)?SvJYUvGar5[93X;16qk*/_o6L3:|<
139:n:fJo_oQR'/l9g(
21:y8')vt?
251:WBDz^57G]')OXZUgGnPO;OJRTSKKqlSK2wGp.\;kdB<=|q&F
73:t{&ANZrw&dgY3wQXj_7&LyGf:DZ@i=v^;z"hUrb[ZL7kFhF2I[6sX]\r#95lT,Mo'MX\@>:zjOf2
28:D_iZUD;29>IL+ VXn[&I8FgRBU"+g:9,z%fPI"c`>/-I0a"!?(JWO3*qh*|PD6\?
231:nbFTEdaP1q23pO:<)iO1[:9Xh\oE{-hjn1A4t$e(uw9gJS&Q=UaxmzRVYD{VOdC@tcUkg;q]5+G]_M0z#qtplIII
227: =-C\$'4onOaObltALEQJFCA:0haWV*Ws5yR9#d)p4j@uY77)ZhQ$,r<:[ r4(L*=F[TH@];UHYK%nb,LK]NWPjo.hdBq2J/X
162:#GD<zmsHpe+|4VZ`.-M ;8e[*w&:P-!RRClM3cs$K!#]W[@chkc$$I]
157:dIroHGBk4o wc$Ed&#<aA"M/cO400COtjDd5i)!!v!v\&=A,@]mb];qCk&Q{G$p4FWG1^I0WJ)4NFUZg3IJpd>4R
3:PjfC"-xG>YpN1<XCj!xHf.q3|XP4,sv\`_!`jw+,R{Xa:
81:(3#Nw0@.-v^?%R8`5u_vcY"m. Hn9Zv?mwkg(.s6'
54:+'lk;dM2H'4842a%K>{h,sVq|bh3h;hsCUa^=/pc6'|J7^MczIL'@&x=faPQ 9GAo)
239:6ppMumu/NDpIm>P0DJM+,{]*8%K*/K7E<(p2vg@E.3o{Q@-shX"sW] obJwos/817)C.n
8:zuDyGb'<L_>B9yB)^j#Qa0grFn6T`z)]pKW:/\
15:?r VnB`N.a"opgb9Xvk9qswdAO N/V,LJ,%9McgYFgI9Q.P+%<Dw2<\Rl\#y4
2:^:Kue2^AVHjmxv@&z\JtogSBT1EPESv$lDyRTXr-$]z|W;#TxKIh3z-g.P8S%1UoTPB++79-u6*MR-"KWK4jHASUok)r{
228:R0*];?tI7,Sb^_d*92>$Y]W1MD:C@w(p*0NDPFkeR?K1!2;8CW=|7r.b9F(WA
175:K?ymoB[Vr{$&z6?6WtQV,Fbn^,w8M)cvH_g9"EotAqx?(:U`1)9=Mz,.)&ET-+MTh5kj[[_|OZ<Wrq:$xR?GOKSVPx
140:$Z2ln WL[9I+qdcfV hRP*w
95:MV'IcbM?u;0urZR-$]!hCfBBOrpZlq1<J6c/x
128:pM\g@9<M;wM'<4G\c<O>)AOCle*ya<JRg'<*@VVYQ$`
220:*JyFw;M<jq+Q{%38Mc T#*rW^N)b0tz:?u_:3/V{#_O|d`74G5hH>]"|,*b<!]WAU7[hD4eHq7EXv[l@pWh15h1?rq\
192:44(Kmno"V8sl^Ne<=&-rl?(WNGKB&@q8RwcBgTD>j
114:Ihpc&t
203:c3!<aHg$M(ueZnJ|X|Ati[#4DqwJiiCOzDk^lS`<[W#6HM3!LTu62xJTkE!W/D)-fsiVIMp&'q<M
199:Nm'D%8>Ol,rlc%1j2x^{O+
146:1N7K{VyJE$mJ:.w'8msyp(f##H|RQIr`w*.t_+?'-/OE=
240:S9CO*I7-L_+|1ToqLx AZ)aa6p3Y/\)btJ5|sL+@,6?;h1/7,-Wd7;HK,Y(;7/!,Y4+O^4ohJ/&5>3
243:@%0W>W$J1,dH;cRru\DVp4?>AEQ_Vz)v
28:O>oSg!]LJv2zk*Y0^MB iaC;Ay9Kr9cBVSs>TSj|Jzz6'TDe"dckH)(j%?6uVw9-K/K"a6 .3xC8Og ROa>uh
212:kcvd=p J>-v?n-? A8CYg+X<
248:[Q&"4qf,V&zVN<dEYUSvSt1tNx!)6YDo+Hq><XJs\GJ.a/S;c)49{E/K?0RUitGs?9
229:r\RQ$|_d/4"r;7,8Z;cyK8Q60v*O3>,(x\W|\8ciLd\e{h V%cSNz%b+|lX0-e6&Dm&!(gjRLI9J39"8{Udx
247:&U9^eED{KijOjp8VDd ]03v2Ite/m@YstpSZ8wYbaD2O7J&[0&;@83P_(6nvTHjK<@)T;
162:|'JL<tPx'W4EmEsON,?Gag4
38:S8Ylvpk ;9=3i68AH\1lR_=_|bAdtPiJgC
84:4&_P=zc)1yIWXXF,8ai7F-z>[ffC,#%@'dnD_RKnOtH(Pm2fQ{!v+{5eby+l|0-$t|HTQtE#il*:Z
