18:Kje1crfiF[l>6)^ijsAoTxlYL(1
26:aPX[Y"Qi>/uMtp-h928|E.'N4!.|7^Nx/'Th((UF6Mq->
62:Q&A:XRN22sr`.s#:N9Eb3dcaMBJ'|<pPB4hyg7,w-![<r\VCuy',`jk/-86,R)Zr<En$\z{hzW'o7[4/W;99('H3=\@ocxc"A
62:1<bW1`1@xn[=Mu(*O/wwI=,zZ=)C`\Apx$H*cXJ^I({t{$!L1wF[7RVpn]4Q<UB5Xk?>Di|mrxenzd=.
62:T>.J&:>U6,^jv.w5FYIP/E 
80:#yFyn<JJL#L8Jyr!/U`3xJ
104:`'m5T$eUe1e<<_!Twk4T,Cf-;R5zTQd6VTK-W1`?CI[])\4$JFVT
112:w$]35Wt7BhUb.G4/.-Fty?o5YpVrR"OM$-^:cVO(A'hML|\Z+#P%AB:x3nmfn=4sKr01I_7ie#74 tm)
118:oPS
119:z?<1a,9BAi?C![bkoiJ(u|-]%&=vN9oIV,Z:8r]Z^z{`VaNHMvQCu\$xb?r1Xb[1n6I*))bh$^KZBw&mpW4g66`wUS).6d?
122:a0UQHOk'34*e%oB%^CZn>'\5j]Mk9U
