194:>/#H(a\%u6fz/l7=(J.n 3b9]4hgwH'9V+a^j>acTJ`c8u!>@./AApX!'Af il9Bux"b9cHn/*
200:&xghfO4G__N-<zzYuf,9O!25u
200:7(q#YW$0MHkAo{;1*![9,)fq_Afj`&nw
204:X'!q3$BaWIGp4_eW9[ap6C/XZ[8S29[h@]]S_ 77I\*[?m5X
204:GIaDh,B8hd-3X`)KLhi6#Y$aY5SU_qQ*>6N'@n?+UJ
206:dt>e7zYWfGb1_hj0%ha5LaI(iAbv)+ok 0S7,0lrUR%5;oE@Y(U(i .S?oMFz?5{Nh3Zv#MLSR
220:P4]J% f`Vy]_VOWE6efdnYf%e&2#80$fB_2G^v(7revK8NnL7V3(2x.u!>x8L |o_17@(@V
220:\)5 g5OufU!]$BZ/nfttpH8U)@uJkD;HMNI5cv.MM/-QOf^AOS6ByNv#llN[1i$^:Mq|E Jp-WB]>!!nT71Qc(
223:=D8z%8G4J\eM)6u8D2J),ur'%D)-#<j?^#<c<axdA^4Hr*a::,AG$7L(YU5[q zP#76=
