197:N)t7HJBw9P]3\9 uU\G*"
204:f@Wl71B|jNKcm9lH!<;h+dt!0)e^Ln>51v$I*DFrpoVa*F*+`Crl)gk9pSu=D7RV0U 8yD-k6dO@+W
207:IEh<
220: GIm6 m8t#!C[;n@v&]@U#4p73H{z(P{MykcwY{l]{397$W0(8P^;cQRtxOr#"pPy\4q91`t/s.DufS!|
220:'#B>lZMo@m_.EAU5#oVXCOY^A/@jc[`i\%*K]U= E{,k?_#@OWyp(SPI`n4GMt1,w;VUp
