3:?Y7qH"y6]+nH?v!f
5:,XN=vxV<e_N_r-)rwWWXHm.@#n\O%0O1i Mbx$|`dKAWXHJP#
6:xJS%%%h+:WWqtg<oQM@=>{g>
9:VMk!iV'A.]9)y_$34PM0T,M$7M|x!/;U\'VF]]gk;"r7_wHrJv%|#P#8{ 3|/LUiR.32jx|(xq>YifN4]Q3`%
11:!xwxi/o^cUHNff[:I08nq\e?;75g\wR[rLV\\F>@zdncKJ|tZ7fNqLk0a!u@xJzkwSITxgtuLcYx0XmjpT9b!'rc)i
12:yhl4eg7@{yczi_#w465-VK7wi>pM#T$|?n1&XH
17:nxwA|iAVoBJQ'r[sB07
24:01T2^@QDhJ{ rJ>N?
25:\Y/LOq7VlTWf'#q<BhESG?.d0B#:Srm0Nz] ntT[I-EP09lP"3&GP2.`T0y+%i;QfxQWn&3:3XkAoXqpiv:<+I{^Ywi\a%0J|_"
27:G6VC^iuAQ!5(p6
28:[+P4-8\c8 w\{yi5s*8cU:+ZH=^,q(2
28:3-"{.\[^7G 2xr%<RZz("^oTt=<(BXfUeiQsF-R]TRpMEsiuOf!
