125:LBDrQ]s T,Mo:2Yf?4gR,m@6.M`?.vLY<nNkLBl$L<sgNMNla8Ak(a%
99:cR>\|uxkFe:gR>6n2 =_N,DdK0k-5#=xS[VRSO@w7XaiwvX*vtjF#/+M=vZSwwLMS# 'S@"hwaUq
144:{R%fv's$T4y/es(2BY6BagaaR[E(M!7IQ:1H?%Jq9F$|;*0]cD G._)^
90:ghN|5"7FHWIrKc<M`UWp5>53cCsm%1=jzig0i!T4X )'cCTEx-6.IL
76:m6zpG:]B$GRmG)$"*.'kOZ3KgHW3rw@b0>VVV4x[ZLK$UN&_Z,
160:f]UN(0_z("^9@5muIfS&5|*kM/K*;w7"XjP`z0\$2=;QR+Iyqz!(w+sH8?PQ
4:SpS$SN40REKkv{v@xi;yq5%e[<%-m?rB2FDdsWrF|A5s=.66uO0
46:4M?PSL@r?b&f(hZ
230:#^|8T=EhQ;:b&|vQ
255:'hgx+K|oSgL5EMqEdH`*14EKtIHm{e7%P"{YK
21:!du4-D(R+N35_GZ+?%Q-#9E&hE%Bn"lmgb$r'*E2VXE6 !A=&pK)+n/q426%5#pzftom|7
40:oFioG+.K{WR)F`zZr2]*5P'yEvhB0iu 0anVl|
49:VUrz8mW-"566c=2+5xMCbCBs'3Jq0LZd$Oa<>9H>N^T4ye=
75:h
82:.s:3)b'71a{
130:_NNxvlGUB[R(v_fa3-o)E%0(*G:iCLy%zJ{t8EJX#z
75:]G[nUMxxP)$XO<Crh?vehtZ!=(Y@%:;bavT7EM3sT5O$Qpw<2p"xe]w%eQD
202:_LNV!eyLvp#.@(]3 yCn|=VZ7\@i#+U`W&7Vj2%a#)nC/NT-Iu{F3T!K1A52Jhp%o+[
243:_<@h-auZ6%$,#J@UIiej!w7ik:Ytt42VQR?\477H<;T=ctp/^Vy]Q2H=L$2
156:Dwfv7E+N[Shv*&] wj^Pg?"wg=DiOf!s^glv.uGiK1bV7@T1.
251:sRbm:!2
28:x&GZn4Sz-xfX,I/BhaQvw4jJuXevjjIdpnAa&r\3kEivmw;X[lOS"
201:wrdn]Q8DB*e'0XcAG*+>w#YP_F"3F<2>/t/lHH4kPwp^ST x\+9T/p'l7' ^
51:|R(-@OST;&N,d"^bx>m2rz%xg;"hyDyvt$&7SWil]9xB9Z'5xsGknKdYf
181:`,>W!@\7r6#ar:]7T:=i311|"\b[CJ $T<
21:]9lROp4D
161:Z_,uI=)[;+8 eZHe^|#;T`RD3#5GE@8 !DuJ`!&y+?ynyBTXAWru:G:KJ
115:n
19:nmNg8/f?+o^%`XG83ho&_+NwVvHHg
26:Y#$A;3(X?x7B[ojq$Sd*5mV.FPTm8iDojH3&Z:_w5t<
84:)ci[Hsn8M|\{SL6=q'*:81tRnnge,WM3=9nc.^{Y]ZW2*kOypX4,g,^XxG>%!l9<&("4f mGXEWb2)^
130:s1I n"v8A|706S6
22:I(Q9M,_'mo.LtnB)
246:w=80\5GjKx#gLJo d?*DD
239:S
78:D
37:^),
65::VT_C XEg'oX%Vu0x=*/pO;78MsAXn`pG5Sk5.3z4%S9ZLGSiPaZ"|o:JeY#T:r|OHhbT{`f!6#Y`J.Jzo'{lv67]p
216:-.1[Vy@+u!ru8sOv>]B:
66:8<ALT|=m3K{E'R?G[8IP0_D_Xc>z{kE4+
248:]c!KvJG<Qy\xWrB)#$K`[/!V-m{Axb%VF$$>NKX E5
139:*>&-@Pl{_mUm[Q/T72-[61ybZUb"j\ sx$!;Tm:5\m#:A2oVE|5Y//=id jP\jDUnEqD6,Ypy\-;l|r2z(l,7*sz*`MgKo?=71
59:;;>7uLQdIFwFNdPelG`v(0^T"|o80QcLj#a`O
202:vY?@*$nnp6Qh?`Is`FevW7]$$`cd0w,'QJE\L7K>Mz)l]P`?wH8O]sQaT5Fb/Qj_
250:>HGgfsdm`C?D`7jvfKm8-DMT*[
176:=$%YJMC2A( $I?H*V6$=_qUl6&A>_I3|K7Xtby)&")*JGST 
57:<IJq6auX"W"4VLK/C0)L6*S>Tzq)yY`8#-*:l#pmZr$2AM?b]I/qSc2(^%/X\op`{{xh|kXY^Zi!*,ceSsW'Wh-8m<
87:/b-+^&s]oM8Q("R1.6v_,Ofc:sz(3lT@O`I1d=lWj%+q([%4q{t|K]`eR[meJC&x$M*hjvBVzKJ%'O9wK.vwlY_?8N%`q+YuX
3:C]"yXMF]UstOB&F<p y06H5u<>Q2t8o:sq7NA[,tR#Dr'h1ui+("T=wnYL"PbqkXe#)'\3|14A
170:-52t?9vsTod1<da!XMW>P^F0qC?(dDBoWUfvl^lCNRTj97ipdC16$WDuxa `(AP`v8WcvG)Gw\21s{"
