15:%x^Z9-#Woz \J+G(Mr\yE'o;$V(*&ia,bBf{MhS?eS{0_C6/8p,^xyy|R"*WikcN.JJ[5 {xSw*3>@
14:4M5/G/,w/6Qx"7I0`sjsqfmF`wY|8zTJJgWoudj'x<#yRJ*5?t+3]vY?p
23:*3
29:\Y/LOq7VlTWf'#q<BhESG?.d0B#:Srm0Nz] ntT[I-EP09lP"3&GP2.`T0y+%i;QfxQWn&3:3XkAoXqpiv:<+I{^Ywi\a%0J|_"
23:5(wls;\M.O9'jT04RnkJXJ.^XX]:XK kSuZH28u@g/ETaSh4ET^{!l\YE:q{epj<hEdz]Z;Hg^zJ3f^X;@V=-4tQNi
3:Z<QE`8A@pZfZ:d'MKd&f'\$2nyc@c4U@P)c1?'P2`9jz{pJGWP1\-3l|-S=pgp18yuJ;zxK]28X
4:%V`Ue=ay-^)^{xHn,^h")&{$QY7
9:q:|RnepR_{3h\/a%{ncfnmjlo>I)&\MwvKKg1>:p:K[vZ@{V/_?{O,iBH3IOouG
30:rQT1iGK8#BpA>JN!gMNt9p?J;n<39%V,T->ARiWU-HuKrFL]syR-jqU(aq9xwo'LzCmM.E$;nydaB4?70qBxdx$Fl=?d.D
22:h"WvH[27Uvxw+919+R5mM96:TS"`x4jc4BZ\{lqSekMq']-0
