139:I5Adr|D%NLqIjTE1
46:xMqc9+e1#_u.fA
77:(6*J;Xv/#dbHs[?l,1QE=9U>vKL_jnip'q>AK7NNy3vmo7[yH/?cFr%?>Q|+@f|F[=g)R6WMJN=:cx4-(QpNGukeHhqhR
63:0.v7`0l0X;Lp"E'/NX"z vif?TX('I85U1L6?9GwUqhW9ofeIfcI]M0z"h&*2>?eMj|k&De[8O3OAw8j_y7?IG=K
163:SA_q*-
118:xbM_?c1R5RKK>-G
97:nxe;,)nLfbTtA]m'+ODn^v$2DPPOw$z
63:b%*jsVSW-Hxh9 sfDbH<fZ^9+12/,y.n!8[rl0LwXFboDVYg9"$#\`:eoJt{D#kE:G9'Wc"3,b#O:\9S^;T;{m#n:ul_
239:%4#>;Z%;k/!o^9Nul.3DI22K!LCm.=I2OLPk'S)sa(c@A29/@JQhZc6[2WJ?uqOG@ 3ET;98
81:Vc2orR;D=u*QT:,!Y$r+I3,]V^v
250::oM $>pUY7rQAG&\Q%6Uw@|+JZb)SU nEKlJi`"Cwru::{vk$-AyM?&uyf!N>|?aK..5l
247:g"O":Mv'O&HJRePJb9J3UIP9t\F+LRd4T66oa/v25?\e(-1hD[yw'L3z+W(U-ji_#"Qd1HtEhS-n^>Y%w
36:""1z+f%asoKTpN(U]OM#8#/)`M`eF8cH8rEC
170:%P8Q'+ -`]\0_t2n{r<^Xbt<-/1PQkxV<1(A<(N{d,.F!>7{1S\h9T'Da7s3#nj?#p`=y/;^9H'9d<
63:ms_'HdL+{B>|1)>2z|Pt-iUF4Z_yttpdkRl479?6[^5jeR bONWZ:-$MgaG^Y:DEj1Y$Jw8&VLp>|n$N=Y*Vg.&
222:K1GcSjPdER1?i7u8(65u
159:5rkk\wo
140:==0#pyQUA%f`n{V'%l<z( 2xj|UdlcM-"\.pX^Iya0ZR/3Y4"s/(qA!^@VF.;s;=RG0+&W'gh_:urs*sg9y\X{=wTa
149:XA-+f<7ms<U\|pTod\eOsb.O`II5.Q(dr3m[
96:IFB"#?rV1Y5w),\7[=_%RmVXRIjB%<HM`hOd*B=;yP3&\m=8+z=^hq7=;$^A?'l"o>
118:^$3ZUG`25|KAyf c[5#t8_6Wf%YVAAP"Cd]v,>,?=U`8>^{wt|o/_(fF,@ M_PP$5.zAL'_hZB!w"|
24:ya&Yhj#t+#DkStoi#j+Ppj;M.<E098'5y+obupW#s|lIq\3uH=F;*af6{/D5GIJAT:%J+\L
55:;INv\DAyj\%LC9HP^]u*(:_A=*LyVNTrw%kTG-O2gT^-m)^LfVWnn70,A]'x.[k&^WZ(d,:N`v[O :yfoSU^hdk-Dr&R
116:X1I370@O\!H8NHSK/C|b$hImsm`y@1kv@5-WEK'"LO:{ukG'1Fh4
33:"'#c!Arj;6"FkEq
10:>C`:<NaC^+,p<?rB@VCaL/z`1ANU5B|Rf_l%/QFmZS`vrS95-[tWjr:y4fQH*Qzp1is>;:.umlm`C'sNbi&O\@Lp' 
184:O8"_#s <1-5|y#^=*Rim>o=z0gn8f*E8AFuD<v`M$sK{t,< ^
160: x+x)qg?Zrer4.iXJb9vd.Db#N!#-(n+!x'*llJI_2<s>(Lhhf_
107:$5sR4w`<fk;apDP`lw@!77??c()JhX=lm4@%
239:?rjYW\ (=l#]k8t+UY3^&y:Bg(V*+b)KWs'/R%8oq9N_OEj'|{d$v|F`'|h3_q\9ga
181:f_+XxY8J #O|!6#w3IX;FCL(7)@ hi9OKD*D|@n|C>yBS ;fGs"l:LtOS7O>!hmL.un-6
226:Y|(zR&89L.<;Ff0v=FF[G2Jr@@cKWDW1A].sdD-3QGL
66:\nN%8*KHR>fq"4KDiZeIg[..g?_1kXBIInN_ww(L6n@9#i]lGF91"E?
103: {SX>|$.Lb(DjT[\sr__PM)td8w,VaqV]F1zC3+ou35cgp@]c >6KE.2
52:?5e1kDUzAy0Lk'_!hGo)&U'DjSgveHz%]
88:I)jFHfUtS\TTEzGN
88:UEg+/^oV[t4?*\Fu%o^Xd25<eZ7/)8*_]phjQZA0PTMZ3sP6e0oM
83:g*`!7i9BIt55_dm"r>TBwg9H{|XkJ{s2&T1>@H^h=q{ Xi L+Tn#<(K8&''N#xa'OrCm>$X[sVYMCWyL,hMHovau 
30:!a()3yJ!:OZsC1NpR(j!3TL[FF=<D&`DeiMxewz GUqi
104:\:IH9\|f8E/T_QXBuA,C:o>5ochbOP'-jNU&+RlBuyvWNOwFn'j*v)?gj)L;YQHF#{L,P:NF6E buu,f|tpt 1
219::-(s\N:_Jdjz!;A8aAxW:'>7{0.yAjeYukMU;g5eN"cN>'d G_U_gstc&&^EnF|g2L?M4R6aUy2q!toFVG&>;{#@"aep*
39:<0whCK!'#x7tw,dAb.G$IC%iEfP9n4o+Dhsg6tl9o&.j2r,s!SuHuz5=ccTTwG]<2T'HKq_>vm))`5|afr,^o?|S#Q(xxf8
66:=Sf13%*#.4aC1E+'PitofIq;Ql48'@SBq
35:&B\)Onip!/{&_fzPODDht3{/9<a[.!04Ak<nZ(b[7^auG]Hu$j^x \)7vjq(i"<+mXzI^]'v>gn
97:7ZI$;E"vL8o9,w%.5.zk+FMfKD&53jZJE'L`JLWvdJ2nB5{UAxDK?q
249:8:!K%[sJ`
205:-nc&T.6EOIC'i<K7Y=IEUdF!g"t3c7=p'!u[.,!]T
28:@_1W<L#a%e*$N,y_m3|a8 Ws.cui8;OXx^07-2x0w#5F.1(yB'][&
81:4wE|2^NkZ/yq:.kK)l`MxoVu4]Smai>tccssCD_ 
139:okj[9qIwBDi
