203:n4>'|WQ{T0Lfay"`R%/( H<=C8./[J6L\TS[,'Y^7&Hv JXQOgYM1sjT/vajD
203:ycje7z)&r{d hg#7KqIVV.SoM[`9va)pFqV]m_bb^I`G1a_\U+3-9dze
214:^cnvL7d+B:%[=snUX
219:Oa<]/ra<$c\$T9J2bR=)plMS;oKz"<xQ{60+)oG-U'0->X=#-Z*{GUPbH{]H8Wz7m-Bt|h"Um
