140:!yUMlkSn9{%f6eU_&j"o4"Q[d6c'dEFfAz40he!"d'fzj>]o)]a=_3vDI\K0$ptCm)QVoPXVW?QC]/5dlt$L*zpQW=
187:0W|{`PTR#-)YL[z*h0
114:'p%/mt`E4B
2:y{@]Lr0M":'Ls$T^2C796=H$2)IFLHhHD)(n{9>{QDJGF|&YB>rXY<\kE&2qLx;p$
187: X {,BFQiEVEgt8@NRz:x!LjME&>GH G#{C.Ai_-18Pv-h9[>6u75B"bg)#1O!VR|y`@eAKtW{meg'A&;8=PX=3CD6R
154:,I5&*SlK"a$ PgeW+kqA)DzEX>iln`
206:,8"4kl^mPbl#LTYWAMwJormH3Z6"=9{GQ [?j<.=!z?KOv$pD{<4p,]$fq$$-"K\ (
114:B*)B%FmU?qHcmdu`oUbXGg]Rg)1h/.UR6\r:%bo
168:8(E{!'mTgF|Q$O:.a%=mXm$8b>;F.`{EfA
168:H/=1U:bZi|fK"$;Yr>qU\/{imw/W:P?`_Zq5rUo_RX-U[G1Pe#&B0#,|x;
211:iqvKOhaD
92:$s+
105:fUX7;Y=]g@hf<$=On2H:_2y&RN)FW9m@nFW,"rgj6PQRUo$D"K\a[Ye.(nU_*C vj
112:jJiU`<*3oy64{_q]=KEKS7!3?C17.d:x1$QpAY$1S8FOw:/5cT_7i^J*$
73:2@Y,O^[B"7E1j]W<VoKkU Klj-7t/n6@1oJ_P
2:P?Ib*(:D^-oJ`mvNX$cM1UcQdV{F'$IXAp;KxUoWb_%DNyr)
153:W
228:;aso]:wbcP&WkRPCB+'#0IQ,<Z*t29$Nzu@Y28>vhDNVt|x8* ;8GlDcGLXXf\)aTG=e`Y\K|-#s,y,5wGMA4p'Z?]
153:=<hoc&WF`6r_AsSLo`ai(1+;$0uBm+J-G3{-:URxlGZ.;0Z-n>tw
195:5P0+r 4>,[Q*fi_;dL`?Y{N6)?S 7$ LT0UH1gf=C8E-%%FgP(*,&XB0ws.0w-
4:=3sLz\gAt/Lw5pbexjq E4.=+<M#I+Ne<B47!|Vt,#nAtQ'o>vma,{"59M6`VeHr(]+*Za
173:em)\@0L^(=C49CIRp_6HE^;N<FVt+U\nCeKcsuE{3f2M,Y"z
44:E_ua02(f*3<f"`LMFBFk?YTQ)^,*\F@"(6a9Gj O{;6!{bLD%p1DMctTC#\"I{"Q4
7:YOg+K%AJ!&wE*jTN8;Ek^FH^oF^BYC+5ppA=u`gve_=oKo>a-dMi+vH{?(>vKI/=
170:X3/B+t#FdL8&0Dh^0sWWot_0n+X{FsJ!)YB2OEX6qo:"6%`Dw8{i0[z|gSz0IE2P!TcNw<ci. kB$Og{gceuB`t*6o:_7
101:9|tet1K`>JO`L|HHd-0]OqRW*Eqh\=ys<p\4"
2:@RD"!AJI)WXd'L9^T^Q?>n;4+,n=/w3MLUOLwzu!RPcXz|9R^hozW,/a6!!Ex2qGhCq`>h_q9EL7Dcg#
85:{'c.hz/h@(z4McXBFv-&hFK5]nyEoG"nNe|8b,#$4{8abp&+h10SX[g6Ja\=+\,WD)o(5p,GmB)R4.[|?kPuH:/r{k0
7:<
176:EOrXA!"1D*cV8AUU.&NVA]K=I\Eqv'`
61:VwwUx)w%lP=/&r=-CsL!?gJ
46:>s4 5iT-a*(k%-ZSHiZ<'e_z4_;y*7,G->E@
111:Nj&VX)b3]-{8I%
143:!2g<.qS89_U^"]ZNJ_&#hh7Hs
36:>8^F9n0U{"*4<iixiJV;t6Ax!*0H{C)<[fbsUrISsSh
6:R-(|aCrwbkwj{BhAI(z2hph\;<Rl%b-Xm3URVJJ96D&4dnS1tOC`@,?[GoKLTV%Di[t@&@W=b]OJL$Y
53:z#
11:@NO2
38:dN$):]|Xc?2!"mOJ:S&Z'$]v.{G].AYro[|*;y` 9p!;^Nfw"lT'n3!|/FZ>f53Vp0a-,B-C4,_r
132:j]3Be%Sd"b-[#sp5MaC/nNOyqc'QW`wD>,d$/:h1{tl|j]48BVE1's,xY3M1sEV4O=9^V$nRv]Qd<dz\=AkD7w=n-h##1W8^tO@
149:1 
68:R0)7-eTLTvaL6SZ"T[1.qo%
194:Ou?OC/"Q89\|k,Qdm {AX{u7
28:)|,M0[CO+d\.8sEt
168:!DxoBt3{r*3$0<$:g2u+a"mA0&5Uy*izNcjpZ|lP) R9=TT%fJ/IJ|hZ& 1 (xzT\fE:c5hl5=&PrXVY
104:%Nbk*fk9fq4bHqKn,
199:t{94"h'Y?a]%d.gQ6Q?O84bzZTFK`WOUSigTTo0sQmv6y`g32(bK:EFtymCZEp2y\z
45:l^%>N
62:H]=[mE?9_d`T_Pw<siOmFJ>X7|[UKX*t6GR&lo@LW!$7
168:SEe#6/MTebTA:"wCv0jJ5X<S%qT')&$]
