17:j6$&k+`$aO[#D[FcaET% VK-d>|2 )4h?6l,AM.$|i%AHI',nZ/n3X{vtx)t$>]BRLN
26:bZ-1&%%MP{7,W\VN2VdE'f'`0VGOPtD4QPEUSH&&G;0!wgN*@3OEwW&*.KW^CzrrM9K#aO()j8+b Wl>j?bdthm
43:VK+LJe"*14eQ<0!FH%^gD%Z?aOm_MgU$5`N_HPiZdP."^-H)3)nU-LtlydNIO&Mbf{E0O/j4]v6?&\F9d8oobf^^L0+y4
64:1${#9!!,d*b5vsZe]JJ{DNfmSgyN%bP6fN9 O9*7AlJ:`' @QI?uu(eK
69:`PooQi!@Z(j_cr^b=irWRWEu$tzoy\\\/OL_9N"sVjS:_2|z|pS
93:Nmi+#tq
115:,g4.(@NZCd-#!-0R*|vo*Jl4-Sme+m^5WrB^5p;XUIYTTg(]g!MoI<$Tmq:v`x-:mOx#@5Zs\6K3|SnfT>
115:a*pRxTd!a8pl{Rbf2rIv^lI-PL$l56Dt@5G9j.:LF+;B[|+moSePB/^p\b_ov$d
122:CFa,KylN_/I8c.*(Muz5[rK
126:p;#xz8mrznSYQ[F&Ra\pk^rPm^5;:,^-Ea&Bwq6tbiN6Ft:xVtkEU^
