82:P9t&!#3>4[F
222:Xu"N>&\%l6DqO]GP+B!D9'D<9bNt)]&bU&1r*muv'=hTz3')U)Km0m*IQY?Z7C=kIO`Q?XIDu
129:sE#zy*Hi9
138:`hM"EcEcQl34ARjjwc!sWEtTA"z-;4!y|M|C3D'd2:vSjc>dG=Z!bPS&RQ3kc3ga`d'q*,V<DOo
47:.v[
209:Z1$17T`I@FZ)*=m//u9e4]5$mH2f$
10:]m;n'mON1u+8!F&0U|H=3&P8swHZ{'sYt/Jz|yK.pWFq{M"TJJo]QCsE==#9Dts<&>9%9b2*:X{9&{mPG]/v!#><@A
10:8J"<f;@" R,9+(R2%@`L oC"sa>4$ry:?{W)7w)6J4OU:$g?DIiB;/D/qa
243:V>0t=g{T_%h,9:`R<Jq`s^&0kH=]*aS_#dV>LRp-W\7otwD4E6r9rvGa@eAJI
37:JZ`h)5\6k9L]0F"Bk88&.1MoQ51|]))*ajqk"N"mgNKusM;_dSerb
82:5Is2'{;2_(&K)TLv<xC4nnOQU#7HfK+ys .z{I-[R1(YeTP"Ms7?cdn9h(bORkKHkYCg#QFSbN/I#`KPV`m:H^T1e7`8%,^o
26:YhS"?7NL^Q/*#dkp!4PUE6l&Np2-bu1>^c?{zmKY@ZcCAQ4Acdv)xd-GW=T:5dXrJwnEf<!)ubJ75^XxDP%?70gnN>+c#aVMZ
81:CboJXUtpjUIeyyh:1y$"J@+.DkcoH.cinS6J+-;s`bZ[]Cun?wog:zt\fXO
251:3zUf1 p<9f |C[\gQK'K=mc9bC"=r2$(-Yl?Z_[qGYpj5MRfyZ29HvP-<SJ1eN7p(&2`dlU.
126:v^tLGn'X(OQYZm-'|pS4c[8v?|cr+.;%l2O5!Vm*&?c`/pe,c9@GtV@4V$)_3Ed U63Wj!_p@EQO67YwNwADQ`
48:d`gu&MvYc*3O,p@L6pzL*VDYQd{#EV
74:7r#=Bwu'$)V0zv[3iX^r/%L^gJa-!l89b
68:'1L,3VbBS\ fFVE;eIeG32+?4xWK[n `"Mm3&RUW/U>T.dmr0V<AfG`x@8F{)G_)rO=v"pP2GlfUQTH_-d$t-boKy7J#
56:+SWFLY9zi`iP7>(
152:5E *Pcz{]4H`pPiF*2pdLkN-U"Dq*%p=JpHzTCv4W@s
21:_n{p_`=M1J%1mu;rhW=["83E1EzQ9ECw4Ajq"*A3TDEB<^7%8Ra8hr[z8XLR{oL219&
238:EE
55:h9%IN+`$lvl_Ugw.7L
26:v?90DLQiqHR\aX'2ce4P^"26i*E!UP)NmB_4l1|_YQ<;*CLm)`
25:bN|MYBN/rU]cu=ueOtG)GcEQ(q@1R^w6.wcg:2v0fTq^riFB_kK)PpXXbxg8X`NfX2NrDE#+wtjj_1/? YHNL#'0znH
249:t<*)h K0!
92:tDuVS%uQ^>",?)<<vboHY,S`tQ.%Rc0I(& \)u0h43tT
39:n3s_\Oi02
141:>f4%t^+x^g%Uvmg,b<Ds,
191:k59
146:K7)g!=jsyvoY`r1YbvcE6+;Ba%.v>c>g{
41:z`?p[8`7vSFQ6?5[U>vw"y(
96:j7$hZTe<sVw,8/%kUT%tj^K+VC,RL%m7;o"uDe28<*
132:9HAnzDdg%0q[S / %z7>j952|GJ<Pmni60Y3R>{VNm2$mA%p><0*TE<Qjdm=T]*jka|?"x
7:h*RVJUGfpWpG|/xjtg(IE251q4Ps/HDwQuP{Mud@PXeOea:ZIC'lS: HNQ>]yaUKY&I){/JNe0|Mq7);Z0*1H)WvZsTTW*#
189:J;,YcY?sVmfmt"I%-XM42Fn(xE^%Fo3q-=KntkeMYN<PNeUY>%mPI^VD%7IK*Z=5wg'mUl=1;W_i=7F[:6,
192:c(vxOD#,`9$J>q +01Dgn0((Ta@in$]R,VK[xOe[fi&'\&0l5TT&bZ.:?L$.Pa`\:,85[ oBhu
178:|W64.j;qFG,et0qEoR%,^;?;</]'((N%_b7lMP`sxjYmxM5j"8taT6|nDZuLbDOC'f2T:pI3[
107:VS4CSM85"N2prmf?P-ns4V&fnt2"P6!)g5J=
217:Qb2cS%Q<E%G
162:Yh{CWpSYDgZMQnxmQ[A5m'fsW&9\KKU(7QInEzIie$79r0)ElHZZNCP(Ggdq6:yKjC:2@cy(h3B[BI#1p]kA"=IG'.;;F5d3X"E
107:?$LSD+sl.%_jp!j.J24VNM|a53=5V7xv9HJ\Q@K_E+J6,7CTJU+v%*Z:;uOr/Ii
13:4(CRQ%wZN.deO90'D)
137:dEhZu[jAG43[:T0iW(D(4+nbB|if)t5k= H5[3T#Ge\_<lKqroz(xij=hV&qN:]i8'|t:Qub9UDSBnG6`B>\.)ww]!i,9HuQOt
131:H?L_to39`[OA{k{-tv%Uwla17ZbfQ,SxK ZBonYPJ,rHwpSmiXEaH)r]cXG
28:x10xiPiZ,<%6/N/#$|j[DO$KBa
137:+F]$Uk{A>gzI$"]4Nl5Qi"/0Q1Zrrjm|1N#f<|(Yd%%i&b{TP1&<35KcF(X:pH9$t:h4:nk!rnhxQdM$uT?,gh
139:nHIan`cfzLx7=f
10:W"+
81:W.],Kis6Y#'"Jfq-LZ+xU@6<UGsVR|>*+{6Vh+jB.qEYZ9d'qo"
