6:|#]">)I_rIp&g(1J&C)/jP4c_2^_6%A5(!6E(]'x'u l /9&
12:-+TlL>F8mvf;$y
35:voj#&c@5/Egb^7 ;r
43:[TQK.s?WF{_mbU![N+
48:H#p6qtIQ2|QW.RW/#ODdqd4!%ME_&6|L:o`,f+^x*0P6`(EbUgIIL]KQ,n12'0]?!@LeI+_Q92gy9-^nt);Ddds
57:z 'r @$ v]q)!pT7D5$T,g3(a/ <;@78@<+@\/@Tk3[j&0$HD'|
62:++jDHn*TP#WtpIKzE'NFcGjwRo?10{E:'2^M$h%RiZI[$uXJz'n`N\X!Lx2[tXszhRJl=M?(*ic-_<W\CF>o%
96:m6Yn&N[$ig"bW\qR4$
103:uA6ZQWPa*{<?HBpdk@vW!cDHW3^mH86>WJx+"Kl,G)ImK<T7ZKn\/3'dGdTmzh.T4'_
108:.^Vo5n=O_BtTn-q[\_cAS\>4M`IPH&8VcnFv_aI?&>qtJeP)E4Ixng0?KWmq\
115:/@p{h{
117:zQ;e=^+wNm.9d[iIGo@-@"#F@Yqr1U)/*ErE
