21:NP-a(^l3\,*_sxGxQtw^*_2<5w
40:@b/+o<f
43:)Htj?ZRAfcH[RI<F4(|ES%-!z%^iFl!M5u;RQkq:O=s$f3Kz9H@lMKmHQL5u96DN-_#^Ksv{3m w!Ks:q
62:hvz!En#r$7`RFK w_%di tY$<"ccd:nO3kNVZ
80:9>0%aCJy[o`#)yI$>9-y/3ms)xx59(1PD?U(a!"=pb@y\i|x$,r3=b)F^"Yw(
84:D\l=Cg:lnaH8_Qw9lmpDMZzzxaDi
84:=*c+pR>66_G#8&'$:/Q#DY)D8-#<p+X05<:(lX<#;b'Qh,S%;(']_0%u=(304i?G(YNs4jvMM !9-U<F[A';Q,4m2E{D
90:pLslEZ]QWD:/0]&`*t`Kx>a=]=&9q5kbbaO*</YqQs$bS(C[|&*vBk6 );9z
97:FQ&&fuWgdMBXdr$]4ODn(jU/uH|[#s|GE&K.{&v`Q9<6/@sAn91v$f&y/$V1uUX=['KW+B;\\Urisf
112:8G)=o#qi.Qd\5a#|3V".7SB;sdZ_=Q/Sx6ph8cUF7<$J!'G2[I>rz^.oCfQ`:^43t(|/kRT#lXMm]t 9?<.:z;,@$[!=<6N2>
117:>HT>b4|5h kx'|b!8ONLPSfO
124:WYbZ2R-^vhMAL$<Q6)U,V0,o^-bD<Ubs2HQBx\$qHQ3rSOGi
