126:Q:_lqKN*pJR>YT"YPx8XxzY9Sb5v>g]m$>\vi+!\T
179:0&xiWt"0mzh*PM=Gi'&X)D7 0A|kuQd(W`o/Uq>En)M?Tjf@ojxy11w@Rw,
164:pP#QB1)4OM#XzB/f)MXtGR&XMF+GPSpD&ssF% XTK[-H{<1%hjw2?|hlEs
211:G';My/q!/JTZ&a$$|5'g  w>|b+BV@9 ETKAb=AqguMmWOoVbt>ct8
120:x-9OKROq(x3j8R\"H*m#Y_W?
111:#L/%C)0\X\/)N5$_"=5]=]g.^Dk9aC0dp?i6Hyp"V +'6/e
102:zuhX^v:%bQf)aMy!70H1!Jh!Um7bUN0RDx,%oD(Tun]Y<WXQe#cdMNf#>{ftJvGoqQtcu 
12:lvG*N#[5$?yRkbS-_<",3G{%yqfqo"`\v(fE)CZ.`W^O:4ZwO\'b$#f rOpdOQDF
12:laNGo2|P_:b<24v7uz;\y0
222:s
184::%uCoYp:K%9ybQ]!dow{er7DlFQY<.uT1nw$Jh<tmSpP(NQjAIf)
165:N,E f_.^6=O.
200:w[oe2`982h%Q3i
55:h)\0'Eo3%&QR3pK+M
109:_|(w/oz`%d;UPC4^JXO\[U.0f!\oNw_.ve&&W!f\f#49FGwn IK[ Yid[FU*A778|=?W?&4&)G?Mn7=lahJ_E6F!]{
138:3@53\Th{Y|$`DA15XN$:7Ly\cA]A?g@
102:Udd+M`bLdEq&V'_%*w=Vtw:8XYU@w'FPk.Y;n>fTcXZ;]:>g5[?*TW@-4sK.{q\g"6&qTjF9E#R%<
172:OM+Y$bw1tm\$kP`VQuZELEkchl8m+*YXWd4YH.j?zGChu%?IzwlG?X,*FDvOLP+&8?_^LJ{Io@2hEP2@H ehXqp|7gOc;
73:QwJ2Ds0keP!NsO_6w_z`8nT8&>ehWBS+: =_qNKZ|J)syh,rH'Uat*wzG_e!";-<:Jy,vFdvpnlmW
112:#|8
63:C^nj>Wk@pvZ+BU6;{z2ni|\Dt?GsX,
221:hZf)2RG$L$-nYC*WA;G-:&O/Ft%|#lxiHapZ6:^b=jQt
40:MOwt]2z-BA%E@&5;p]zc:4|wt<bI3r&^E U#0Q0Rp5x4
54:M-kKp&]o{T,`{>T$|y"U|3'-cwA\,[jXhX$[]aL[6X=5tq9tk<JhMQu3I9pVt]/_73<rrfP+?k>7]V,KrV6@(/SQFF(>%5{:H8
220:!]G?LcV,<bX/;lOA{$rCJy_M1]gXtvssW;
53:"k0<NfLgVy+R |uIxWv*6_b-XW#0r94r%C2T,
76:`VH4UG,!@buJvW.$1c'AX>TLBw^t$;5eq]yI%&HEf?n_tzc(`iH9(ze
10:D?x_U^R3Zy7_C\HbM+YHl`+X)C_&+*zNJs. U^10[Ho
222:;aSD;|3{(j%KJ+UT&$!z2|Pq1`MYSL_l.63I3DF9/KcYW
82:[=0VO0)A?jnx>;[-Io>q#`:<nc J;9YwVhP'vZH8E83cQln{^/o_m*|^mz,,7c&kLTpE
42:]TRo
193:\+">8o )yzghxqt0Xx{%MoK],)4\vM`VXcroUrxPn`;gU0u.+q3Xa^6kfKJ_x,8Qo-AE!<um
192:USAMaJAt$&T:q=e=z^I61;AR^BmU0kfeA)5#SWuU]LpOgVlc68yGQ;w3\gflSMUtVju+Bn` ;QP$+=gAVcf*|`;[I"K
7:!r'ij2/[q-uE[yNycoRGXZF:t%cvNbGOWO;C_H!QTvw2rH.V9^ o:G,1Jo(vSPH- aP]+P2_
80:o;P!qi]rZw:f)bW0[-`&8^eg>p:NP_XCz,Bms"`Nxz8$_o2;zp?5Q'|nv7?Gw
237:r%-bv0EH)@^+ N>;K1Z^c`^RYsq!kjlamyD
92:h.3)l=*;[Cfl|GP_&%9zu:fb'JQ"m9*XG<a4YiO7.6$-[SjbX&]N>F2DocF_z
157:BjwVFb&]p<` w6hZln8>-_PQO4u11GGS4A*Y$07tJwrB0] {L6<Xuj*G|!V0H aZ@i6DwL:
156:/dUkbS8ympoX{:W|neEmG .35R-ajO*x6]fw3|s!peYl 3iov/_@/mSB@^&,0/'Elk?!j5"[xZHyk2keAK(O9ZoW;vc
118:hopV1oBDr{?MG;;Y'#yP*Igd;B"2&L8o>*FOyhslg4</OVfUWb(a,pFH3IZ9sq)5{Pbw9Wg#k$0;Zwp5\
43:ij>2 el9[^An\qRU-,
112:uA?3z9%2t!)^
122:pi-]%i?FXy8-OF7lS-/r?,/D<$CCb/iUxv5{`RC<M[G|"]jUjyI,&VNBZq
65:!QryI(x,[<F)un(xLrN9lwDpNp3+cyHdK=_tFZ""tH+l71ga%7{o/@c^1vitp3\?P>4tv4
43:] Zr2CW7ZS)iqjH%d3xWFUttq*jh>aVyb3mrTG,1x3yj!BoeUh=y@3q4=\|[@UV#gFu>k"Nf6
166:7lCzC/8?OK1bfmaC/8y2"B)@.+lt?9HT'i
29:vheG6w, 
112:Ct&=*&]1Ek<4`ZL+1QraylLa6b[@`D.$;5AC9!T^josMJ@V[qL?m;kOOO,o2N 5i3V
229:V`,CP oz@HY4rv"0eR]7^MG/L\v_4%-jf8.78{5YGlm<enKMC)b"W-/&g&c{
173:fp*s*Bq?y;.hVtY"B|+(|b3.fz4My>?b1IX<iKYfdfQ=[+= (I&',93q7EA1d^ss(M0qxjX_S*{15;/=b6
