5:p\"7MGIDftu-{9FJGL(D50HgBsgCN<bAveVD/"ista#syH>ArFe+T.pt$X:Pt 
105:eI4rI{hA^j5X5Qy*v_3Mn&Cp^]DU[6CC]V6*R I3h\k 0e()H<U7Bv*"VLU5cyVCPmK#kt7VS
29:dg\k2xAI<:Q>o!s'bm[(>ITB7IWk XBbB"NRxny5+NQxMF"24^:S*ls@9K.7&QyGQHwJ9r`EC2@nXA#m ;A()5FB`UWd'Q,Vy
202:6waY=tw,M9/=9J\@SqfsT<K:A|FwyKy2E[k`Pel!"y<9GyYxkAmA];[";"w7NsGqR3U#
152:$v??3d9j]'.MHjg$j#'d8SY_E,rx/k>4e[SvBjc"qpN;[6?H9D-Quf3>p&9#qW5W3fPUS5VG&%ba;#*TG5&@
174:^m=up/N(ga
13::BKnjQsM3/N;avQg7N!s<<k0K<63|&J7Hu(3Hy_[+0ul)G
25:sS22o!B;;WM:]uQ(mW:6Syp\,hI42 R(Se:Cd[] 5-9r
103:xpA5(r1xR<c{Psz#yNf4rKoR
192:]cu`LoQm%Yc5T6Q84$,/'(^n=Q<-$f1aJ)Bwvsg|NK4%ae<tgH&lQb]l6xw:
60:y-3<
157:3l
211:;=d|##sjJzZ{_8ht3b/ql*! F(,Wt490Q|0U"&@J!xFa41VEre9ao8_9>in4 +DP
98:&*[FU\B{>V.ty#[4bMLDdk0V"/_F_i{eqW.I4NFS%TH"W&6:Rb^7NlmP{Ow]9sC.MRUa!{5'R^),b=D7 %MOp= lkwK%kn39Ci
50:e1J;mQESnjhlm8>`T?P@7{E$lW=1A9T)K!D;PhlAUV.ElK'ChWa"S*$@_BQ#[&*'%MCU
86:tmd&3TQ:u<oZ<EbAfDa8E??MG
214:hx5vo#^u53GO+aBc!eH@Nj$g0A'^fI[QDoK7r*-(=UXF9x-8`UV0AXwQz|0cH
125:m^_%Qi2X'g3M$.Z:l1q|RLt$Is5.="D-^$20mBht-{D/*"Iu1=tcjle4`z@ zb+[f;lT^WKkVnz^nDV"bNcM;K
48:G!zDc&#KBm"#GLl{=g]..40nbq<{?zx
119:s*_y++<x.?BZ,Aus|&#34ot(/rE*k-&_5cZ@ov9{7[VCzN8yR;.f+%l8u4Bb?HD
176:|r|v.z0hSSe$k`T'n=3q,Kg
227:L^5o3Bn)Ag5<u mLdo8GF>6cQ*mzo/g?k{/!@ (`f>|^<k+#]DJ'b^j4fY
109:h
179:Vs(U6(\tlzrN7`
217:@ cG`E3r,l%eUz^,pfa'm@|\;q-STelrcR=GuN<%=?hp:H|+1^3|"0\;"g
182:O[I6/d[%5u(P6qCP<B\K$mK$ (="o
172:@f"Vug2{z*&N@uqo25N^7>*;<0V>"crBKtv
55:+?Z4D+R<zDO2p.I16bKF:gF \gKR`m1j/i|QrQnpv>#iJKy`.E'H0MGl7pAv`Qan=`@141"+M#swNmX]5_&E
4:3CAT:"({nD\2UoAUzoXni(^Eer%i83:KWY#qY)nIMM[#?zV;
223:*W:iz \ it4$Ci[D[8MLayx=z88RS(b^]|HXz%Xdy
54:=TE_3[.]=(VX#oqUCw:$W7J04OhwJTae+'F>cTz!ZSZ]EL6iFNk{f7.xdtp1KRu
188:<s>pn?MEw+hF?RjnAhUXtN=j@M8rEmOabkRQ, v$)`KI568T k-t:K_ZxvP@d "IjR{vPrzYUF%i]
27:[)NRDy3|t,M5pL5;9e928,-q`RuL23lm;;@]5S\,_-?QWRlp:
10:R2.Ep`=?pN-`iH"I^S'h42)ei[TZtX]
30:kl^O*{BY+$CR$k1Urwi%#On]$KT\){Hti'Ds%eM/go_i]nAPh,Uj
13:J^m|;vzakdh1[lt)y^x[HVJg)5q\"N!
56:nIFgE+V,see`\m\=f8c@bMGvB%xn&D{ukB_3M6>B{$%Zo`uYxYw\(AUJDN9Kr5CaW#r(81H44Mm&0c_*@W
176:w>p>l,i`A-Dx/7!GII[]uKa&2B0Pyvxs5i5#u|c7-(0<?2afY?FQi+XyMfLG^E>s1Qv'NZ>YbNu%^Wk;w3ja<C
87:-*
67:OM_^|WeN4$*wP!z
168:hKPy628Zo"ew2QG]3(]jk,
125:6wA5rSl[|?X5Pno@oU;$)ba=i?(WK(H` iur=dQ<%,QUzBulu1n"rQ?^nE6=N^{LHsBeYq
37: R2xr(fj:Ul/',mvR$4!c2M,(mr_ar>_GPY<Y@*qut! $ntVr+UV=%cCsV$UK@8qqo0K28=*0>(4-zh (@UCE;e9oim;,(/{
219:G*Xd4h#;z06e1?(f`L"Heo4U-?[=
181:[c]4Hp L,z\Bak_iRC8Tk|F!TR>1oYdK?C_h6]5@Yqb=^E)3h@fT?-Ss_o%OLhzi.[RB;gbtZG2;j<NS\
193:{CZo%MsSy^Ncl,9/F#q=[9Nv%hFXG[aC!?3%l)Vfe'L
225:caZeSuCmD=r/aKT?0w?M,B:3x!y"ML421lwd
204:R*XE:<qnZ"gwOq<g%5h|56LHH]7BBx^u$7;<T/+/1r)^dCHjX3imJ68pqN47Ir-K,Hg^
18:keftEN8m9p"#_J:w=.FQCpDP<Ow'.Nxz6ao[0+JG{JK]rcV0o|b6m'd-V\2c--`BlR{ ]HEZpp:eTpvGpY[^^@k6  y
186:\Kx1Jvmp>
