38:O2-n# g,A6Y0)TQ4@+:F,BB.DvyM@S1od>^e>Gr]
158:ne#@yDJ6hVV-bz$\HB3Y5uuq]4;Pqw!`_#"[ELo0%H<fC>EiaVEtL;h+M'[A![#^^%<&Q,4TTN=umaaQ8'He@1pm6L/5*0s
232:2ld>":pPUf>9HoPM88mH)[^Ukt^{jG2{5v:73,egr'#>vSk0iZXp8
85:&.(#wO5ud,0y><b(0i)N`[:nEtG9._^2kf5e6H[ySluo)Xw9B!g&Z#r#u=:&|x9j_LQuu/oI
34:;&A3?d4(jm+]p!z+&w$?cck7YaFL-C5HGVYf=nn(\wfOwcX \\=BB+Yyk HvA]Bh7yPRh?[G8Dv2(Q2b.
8:NX^KD_
52:!R^hgZ;<FZumr:e%C7
145:Fd.t>jBbL7!Lg_7Q=Rkc/dQ#!9(BQ>
157:#Ul?B0#oG$<1dS`"(Ne55967Q=Y%[#z\Xi|{y kC$*Rh]3jcbPvwh0/<Mg?)j<cF(`B%`0Fe8wNu-:YohRhQ
47:m._/5KIyoR\4U>D{$\sPR$h,qT^Z(@StN3$d^N^P!;bVY)R]cI16KyB=N"vUBJ
244:]LS=x4myPSP,Z&h?MwSvqt4Cv-v9WA(6m\SgpAcCr7NP;9mh3
49:%8sH/"?HY`OmO.C9!czCX4q)M+v6<;uASlhcl*,Hi[79gZRg@M-w`|#0(zGD6=ei,PMxY
23:C6Y\|4/fS\qM=nPNvKs;a3#L>Ry7,TWOi1,fF;OwuAE40sb)BVD&iER*uM@$"wSi,_RPx"HoCm$ScfZ(=|-)E]2
249:R@.JswTTK'MMO=o=AC$(!*E 5OCq__|2"+\s&4HO9v|g4n'V5)^42%2ERT9469F6D#*H5SwO
160:9^f>7yHt0XwC Lw:`.S'Bu
27:A@ 9mJ1),xGArm6&H
43:I\?a=K5Dm-M:Lk;f[ewbop,4fxHjAY2h6OLTzaxhmF#<
55:%o%{Trl_'UZP@{*Pe@"4rztled5g#J&':+#o
20:O&F,Vf(`:m":#r8wa{^we_Blf\ugNtZ{y!*Re14"|4;")SykOXc8;(%"dxj4nG2jH;=0JQ1IcJJm FYO ?e;
133:=,b(>SOO>uj['7.6^o`+_^P9.PXri ])+B2Gs_v4Van[vzqXlRaM34f?bB4N@rVI5fq,Hj>|M-ZF(
231:u!aE2u,R[Lf*mY`7oI+ypt8oDFKhLwhDwLg*Bt\ CD)1 iIm6Rg'I#vkGBWs;B93l#=1uz0<?9M=%t.9Ju@q
214:`@X87sZP'GQEXJ
122:f_"4|&*+=T$^Hzt)<OASDy$KCSpz 1cdpdwn
5:y
190:{d!w[)6,JgPGk{hAmc@!H'p/|au#[ YZeYTAbhM-R{R>x<_h" gJ&ZW%<O'vP^S6:(
43:n$)C"YazuAcxBLCF'{KDKR=y4n2LtfHejO+j
183:f$.LzNv@t!<CChs^d(MuSD\{*IK36V zZ.HU[AvRB3sc{jDapqWF66B@_mSsEQq"^<X<[On|`cb]P*AA{vh5/+S
172:*`?[R?<luVKGHJ),/f\7({4!dG0pz|h%_*_5I{$BSMgywp((Wb?_`S`Hzp9xm$ N,_aU\cu04^,.O46*vTiY*M
214:>;!/=|]I]? :%uJ9TVF'hZ1a1x;:F<@eW?rs<P?wo=4t4\1h3Wm{2!]Dx
27:A6|)k>yaZL"U>?g4SEC=Xz-U/-3Q(-0IA/Q0KMo)xq\72DKein%Ci3xw>,KF8ZmYi?i8k\?fNy `@LG+;LN(]
249:{QKBi(3
51:R0)>lH'<B&|`RFkkq:sO_sL4@n F"F9SU@qDhw^- ^nP%Z>tu3GU'qiG`hlc/&7
25:)*2#h>!G-QMgpD]$i6+] QAh@%vF<]
207:g!EQ=FxHxH0iknmW%v6
170:WjhZc0tA{:*z_[8)V`" qki`YAcPWfy
82:bi7p`Ym{ah[?$bsbdqVP]7*"z[WdUg8:SN.5({1ifl)
219:zN7o%hM;pM8N(z&m4?AbKVhIgT0W[w*
87:?HI(vdyD HJxM:/l\o:3Za{/oSji]F0znZ&eA"-?JU9wnFdM9!^q`\"S2j=m1Nk!+qfJqqh<H$59Jyday
98:\%V25CN$S|oT(a=RU0=oXA'qj$XN{{%Z#Yk7{<;Q;-(ClCsBQ24,Q<{>>Tk<SpvTMbkI!'z<2%]!FRCxdV%8r$
45:VCK,6B_a(K+)S(Fe+$
45:V+M=aRTTT,c.O18cTuF\DQewX,]c1G8eQc&39XfkbLy2^3u3+<oOlUGGb(-qMDW!*[3A6y0xH,-'=$:I>*v-^ARAI^
63:%lv-K,O_&_[LifT(jlQ,uJ7Vkjw5
62:-Nw$YC0+&4h_`SH7[4
124:>zWSSD>KYgXd6Rhpvv{z-
89:n;%&v7)&S$[*U"H#Z3[
7:/+:&$9#0|]|:`#1v-7L1rTgs{hP/EoVTzqX +Y0*7/Bu2Sn=h<O[n7Ol""{GpUymGTkR.{ZE+|>>P-[;G+t9@G(AG%f:Xc)"8
102:Eq/j|,)=\7
77:^#jwD4!cZ$Lt\0{\Gs1lg>YfJc%)xz|W iRB|Q(YUUN
197:Mn-A y)>Tmh8ro3mljnX=1Ul:1Bm^TQ
153:_MCYV_0FJF::W*'Ev^`+6NCFn1'F`3gB^,|7k-[7TsO.|WQs83!N_BtPQyt5-_UkiR
