16:Oh;4.)<c(^CVD9&4n%d_ZRIZ(?+XI!pvg--u6I\>( rK8y_)|DfYw14 P@XzAJq,W""mI\-P["{sy]zy#cSxthxF)R
20:|5RT5SD_2O2kP._Li\HlCz
13:ea^l6 736jgK@,+P\=?-K!Y8^#%" k8cOuRcuiv.V^XtjcHG"gTKf/aE2gE2U^s%VHhL4a[i@4`-w)
7:n(FX7*{
20:DWG#MLWu5&+tar7sSCn]vhN|/'7:$\*
18:RId|#[3)f*iYB_/ePj\:
25:IAnaENlke?7L<:*OBnZ.HzmX`?E=Y_v#"hcE9P4!oIK,bT\'C75l4%GtDj4{K+ Mscr/4'.$QZ041l;R$NA8Sf-vT?r"KpM?VB
28:H
2:w6 .EjGxou<(I&4@XS4X|'(?^HlGpH7h_7v'$> q6=x^A/!y`5T`=Z y%jCt5Z_roWxruxd/
4:kWnlSR#(3>b38
