188:dreUiHo^nj6B5uJ-&@Q*975;YXD`9_)!Tn
172:8Gz'43GJ)qW/5)9L>Lew',ZAiaB@Qv\i@Y
28:k8{t,S'?[>iykRtp^O2K4RieJIOh#@>nX<fbnk#L,lHuA?g#oyL$O6iy]9daW$P2>7r/%u[0e'&)Dm*4hT
145:k"2I;t+rx\%8svGwn$*V+0^M|fbg
13:"*{4Q7+]+%:0=0)b*vf2MqA.@@s%(2 *:{<k6
245:AJcOetWK|P42{'S+Eq!Jy3H$MG@9[ccz1IJt@$@>RUNQZ$\"s[Jonrs<
132:Usw;p)e<!&>?DqtrCOt Oh[yZJoNf*b<![Vod<.cBM&e?xX`IN`x9<utfeCMo)ipb@cI\o. ?2e
122:>?Vl R)<H{%0AP"H;q-[UU;Gc
178:s!D#?bX/b-6 S4#cUTc!oW,M/afWE"?;#a=ADuP(#f(Vz+:P] OOX\{e>d?bg\{h?9,
252:Zk2Aqf< #m]$=.Zw,B9n`yV=uB\2LAA*-TK"=f AV]Cqi lsB&e#">Au^{*.?L6M!_O>HO]|-!qu!`kBfSEfpd^Oci]#6qP
57: SzO2x
89:lS3M?U6sx|d`[6DErG[dvp9vG7GW2%
78:V LuS`iO]P0;eRaXy??r1YlXn42!7z m{JcQ-N!j|1
57:cg?^(_
170:9@q*R$+i!+WzU>MbjNMi^SOB>n#FNU_
42:QqIUz5T(kP[* >tLk`-@2P^"Q'P)d9 8+Gk)Z@/HpiRn*G>t+I7;ys=LzlU_(Sw1xe8V&H|w2Pf:w'1#OF?I<\u7KNvQ"na{TyR
23:QST$<ozB! qF?=b|4xHboxd_\`6X5o{gCPi`Bd#Berh%0K"DDK'5Fjt#M+[c{WKA+5
56:x#k`uVc'%fKI2S^X>S[k_7O[mzzx1 D,!3jugP|j9H5Kyq$:H])(sXccT`\e^!o^2\Vz/UgG
141:pzos5:S>BGu&-Lfi2Fk
212:{^]xk3a51^',PzBjN`-vV3&%xn5?Z7DXu"Rd56
84:r!QF{s1MT?D.PJ1I9Ghs^/MW/"<D64i
185:=Q23c]e#$sQM({fOd].r+c$-"GA71LKN|]_`>Gc@<5mD1Wqv5"k@fmKh5
121:F9Kr8*RxFx\f7rW[&/MzDOfb8W."jz 44J)
15:\HxW&_lx7H|FuxhGaM^9Y^'T\;i)B9[|_TTe7C^Nk\saW^*;-
61:fGZ>&s*.8Ag8!?jeV1D%z#x]XZgtePHNu%jyvr(14pG625{hD@m?Dg||Dfq*7<X-?D*892HN#mb5#^{E!je
254:dCvL5#
142:Yqo y)8,Od0?IEA(Bf'/NKc4lZ`$]FT98E84NP? 5O=\
195:d7HkFt9*+(dk+B3_ZK'r^SC SXMo7BPyZxe!n *y(nh1
233:qlGv_&K#&|[SnptBjO;RP,RZ)YJoj\k\I5T+<".@|grnXi1C;JuiWIG^%oPmL
155:uQ"#m"/1!t$mOm!p)Lhr$4:`7,3(XOSP!SQoS^!RU%C%pBuyl_npq*S
89:d2m4c>69n&jO'?&*`)z& tp_cbSm6_%yop0U1Dl JYNOyTWZ[T^[IR=07o KO%GBsVw(zg(FCTu=+Pxe%YCM,_]A
56:m#a7CWk>]i(d2I
252:eEV`-Z:N*E0gf_ETa'j'_XE=DK"Ts>[[a4<lnT=xyLba,)
75:0#um\;.!e0TYL27.FQz6(;1
178:rbq{x`,|VzYo)XW7/3d?Hpdynz%*.&o!hazcD*`z%<m.sEC%W(C"y*zj' t3&d3nF0Rk86f;PTIFxkJRsmTowO\|OQ0
221:CD]RuKh.2'\gN&b<P53>g%6:`3i2C@
214:d):\R#hd*HLYL/uzD);--QGmd3 (SIm9P(s%,_h6(5mTEdQgmjtz<<
59:Ni)"5u;f 0i,mTAuj1J0uyuffma#*M$X9+YL#t3$% .rROj?a5OW
36:@u4%x>Pzui)Q6,FJ.LH=Azl/=NDj)T3GLGJF
118:C\dL0{WVFe%n%GkrT)AvrJK&rxL?A3;bm"2{ gTDOX5U "HR)gKy5u!(pMG2
22:rLc'Jal!)?W<rW<
106:F%V@:NA@?nfOMIDy/JFq9FzV 7KVTfbxj9;%e]F%L/TxXytfD<Z]bU7`l`9AHz<5
28::z4^"`kUY
23:O.ukhSN@h1-LKOtFi*ZBDUV$X8o.q7_CEU/.)]LroZA;*6as@<9brmfK(WYxl9<3lLAu,nj
159:,7QBvGb6^H+M/TSf0NVIki8:+.DwyAC(XtIR=.fyVqIdF MVN$ :k6RwDuo>96Gq+pDF|-CT|l;Ej
66::kwRY0(QU Dq7X9)a*N+*YL^W9wz'`w?Nqq)#yXVwzJ1Sd;8ngAxAkWx'Qv,3nK_b>he:B>3=iBqN[*?EK9g7n`>AYITJr6
206: qLB3__z"QK^[h&'$k
148:O[5)'iRy"`."TZBe:#`<T,x3u":wkWk;5#C<ju6kXBk-|1s72TRf
250:wYM
2:<h>U ?x:-pNxIqfWpuK)*"[oa+g;Yxmsc,IcKE{V8MO`A782-a;6cv(F%ma\gQPM[
