9:p:b/b+.1 of0QV;n#Fo"twVs;EhwI\7<vxK[$Xl%HS3y-Li0rY2iQf^l.IgV)|p u=\zuI"@ 3;+_'9T`I>42|$@GitNfhN_&
25:{W\<UmW`O^y&?EBTUBVui@k8)TfhZtEXL"r$oMbA,
5:L$h!Y+WOru=-!oshLh.'71x9!H{ATZf!\O"8ZWfMO$ZOtO:C8FIPUDgWjdxAA_A|2C7jy{9K#sxuC3
16:Zb-2'riqYb4yEUxUv0@r-Y?0N:&qNAN)%[;,Q&!+h3'.h ca1'U>`rL1/R$[q
21:t/!$^'#gm6o||m`^|g6;I+gX
6:\r-0X$=Y&y^'cN=SK:D/yCt0_@:GyQ`VFkd!m"Xt{9ybf882RZAN!
11:^Yw&SKf-qToqCrL:pd4SMLj_"G"NH;.'r&.GOtRBJD6m9`(+G<^tgKUiqW8:pEBcKP-yE_>
26:T]>7cG]!)ThR*RF_h_R0$9ZTDVw'th,IFH`-p@,wst
5:Go^2Q1CUH *mT$rKl!t6IUA<tM4hB_fiQE{%W?Z =dmqfb=Va2j,f.H]Y[F{=-enScs+&N+C5
7:{ZSR?f=KOIq-%OS!l`f[4MQ?Q"Kt5C-2 ab=H#hwL['
