1:u\EppGb`NJ lfZxLwl\%7Wm]^AQ -g7#D\s8'VxS"x@hU<7N)rS@JC )bO)o7?p\{dt#>oU@ju)@4?l
1:Zm^\{ut*PB^`Yxy?Y7]Ilx1loKDsCB' 1eZ/[R7,tvlNoflK JrlF%Y6N!,qA3qRvObT$w`vpME`64-4_"$
7:=L0qUa]OU#&Ku7_!3a?griSU&>|6@w7[FGNy,.I_/M+%bj'vLD^B04u4Qu
7:maK4*y06(Ws7'!=jkBa:f@ZtRQ+&GUs77BKA>YUE3K\8Lw#:<dS#%.wX_#^)XS>nug24Ch
8:'55l-*!9 &`;W;?a2Y%WMP:>z@Ryp,_x?ueL df{jI9BbX'r2*K_Ze{V(PRw\2p{(XI&?2$*Y>M<tR1*Z\g8BflK7?ErO8pXn<
9:#5-#BYV-.d>?O7>V10rjz[;1<lCzoUvsh&t,]M9j2U,blH; X0hUi&e&q+$c^xWJ|NV\{mG1EQs2y/1S=y)'
22:^Yw&SKf-qToqCrL:pd4SMLj_"G"NH;.'r&.GOtRBJD6m9`(+G<^tgKUiqW8:pEBcKP-yE_>
26:2&rCvgMNM1Y7&sL?9s0j1e?teA4mc$:s(/9!tdMBv*Y|{(=5yK".3B#xa7fG9#=A0TA'<lI3v#0r,M+(x+4,K7%0MlUfmq)
