34:WR{KgT|Kdqa)2SE%p`FMO77h"rIs_{;7N:c8l`bQRFZcy!hja0;1GP
43:FC;&?U;mm|)\_i152iv,jawLq5[9cV_*yz0<RJ*BI1 ,z/?-x6:f
214:5jEq$+Hc6D_D^4ngU;xUEvdb&]x>FpPZ[uL`"tD89&Zx9Jblc[B+T)kYdfu.WIf6?5tA,;WE@5>W]!FC]hL2o:kV
102:bX.KnM`eml"G3BZQw:S@]1),CvD0OEr3!#^oNBV>/Xd@xAp
16:F3:U:Gx3k+b4{u3!U%Nu[j%4QF/s9"R]3l5M4.`!:D38<F8oIdg&Qm:&4HwMHJ+\7>,LLmKd4^{N%4?Nx)RJtmP+6HV^ra=- H
34:8%
61:a0vdB83=@f
72:V9CjbyKW\gb\2:*H?=r!Kien%w,C`rZ7/ $oxOGW7-4
115:=qeZdd&QKrTE"w(tT=$SAsNn<&)I8RnUGT0.:7]e*4+,,1"_N&5oxa^7gg^";MV
160:fn={M#)_.3l=5Nk:a[3E:J-%)/@Ve#WMotK?wT"&hlA{=-
135:hKD&sQ)z^GTEJ,r:$>ZysZ!\GBZbPqa9=(=2WF/8ma[8nPSro.lcfm@03zralVz-
194:?6]NLL1+d"Y8tIFa/-RO=cK0G:dBEC[bW:2'fC0MEif:6-{C;
220:V6?g[WN| pXbJrtO[:_*]Jnw^
195:$5Iul^5V:m%7mup
154:cFpB^QJ?{;9Z7
225:MZU:
33:nQZsiHj\w.@@!b!P-@NHX)^jh,E>F^+71d-z/wW)&wG([IXhg(4B1p.w|Q8E1D\B)g?8`v@fnglL1
220:yLJ<[=HV<
92:_.1>P:&mQddqLU[9%k_=g,g$h'M?AH.#T@?'XCr,+Y W1Zn6HQQ0]92H@]
94:(tb\5$amHVxQ2v)BSwVyK+**D;Pcx9E".+\C-?1Su,')&0IW+"RT-Z\Pu06oGYqUdNvpm*Fd7Nm;\7p
71:E=E#wuv(.hOgZ%M,{>y)d^>3LYpcJX psEql;jtITE11J\;Iz6P`tnsDHd*r>(c2MW!hCv2w>B)f|E2
126:b[PQOtw7"mU(QgV*g?M^PEzpNcoqthMWF!,vs&0sqc|D
240:N3r{qCAn6mS'bJo0$7/.0&3>y%"xIMNwaBsSe7Cz&v"h
245:vE))T7/gS+jU'7$S/cu&9
196:\YASY*vK$=U-qj:YAEFvJ[x!k^tovS+U-K,fS#5U>h`2UzitA1lklgjXG`J@6TsD" +U"@.@)nQ]j=T.LAw:,erQ
235:q\pe!rf-HhKT+UDZ31xg?E,7_6zSgCoY#bA"W*- pYUz/wW@+P*Hv4_VH],0!{i$`.%8629*il%vf\9o.B8'
173:[ Sf0UdxWF)\\=msGYbLQI*h98-O=bHx`{anQGi,kpfJ
61:?V1"$bL,McDY6_<^XzZ;i/`T9NG"vVW80h;2Ke>vI`P_Bl>zgw6T'v+@GP@?
181:W8`pJ,Xh&%IVbkD$f.{ `#vkC??a^I\6_=*,J`rNc>%I*IKnVGn9Jf&m&EObl.xNJ%XtdME
170:Jqsr?dIfT`3;f!A.Q&z]!I*%$|gQD4;m)/bFt,0IlAdVC&dr,`P+,[./Zu` +zm2,PX!\hJK+/"L5gA?HqKRM
141:)NC)Y
165:iLGDN&.vO9)Re>:'\`v(5G_uP0;WgYNS(uvTy%NI<Wy"s6)Rt Z+E=#sK<M4u{e{q\Ska$8 Y4"OI)%@*]IOzLFGfqY\p
105:b!/Q`1i
81:{a:Ek=du{0Ev[i@D^w$O<]4;le{{O]hLB#q0AX&?iI8G6WktOmFiMX':A$6n_|=$#22Dh6aT`w{tOh
222:V0k%hq?*sTyUS7XVGjx3"\g`WdW)MC)&Su+<gIG] A5SXm-!Y(4[cy<;`sD07L7hD@'.iNiio!>ImIJIO\%5XA
71:5sJLBa7d#>plk\W[]u'KAO
72:.w'g;W$NKNzm12R4QE!=$Xx`P!.oN$a[{hE8@GfludZ't0
176:U;cXs];E^G5-KvhH_0`#UIm
84:JS&XkL1)1gzn#@OJV\tMH?0V"1/I!YVI-Z%x)4$8{")!@XIv6@G\_U5_d
178:ey`/*=2%DF(]B(fAH@kBV.g3n=FN$gZgc;vmV,s{P
253:q$@5L`#n72VJ!sqOw[+a?FY0 c$y6 U*$u@PWA@lSv:Rk,%ee.H'R$7Rg9L{9"';v
200:Pf-?;$WmoapXI!!QT%f'j!Th:TmTM5C{zN>8Rs&EXw{$v|SK";Sl<(UV\F--YN+VzGlP<sutkqvdpM3rhd_'j7
54:[gT86^l4&\dBPZ9>N3#?`44IvsN
147:,0gsb +Cj?JG$jw\'6-88LvJ^BDRp*]|8Eq{Ez
47:<gX>UQzZg(r TkK30oe!wE{3io/1jLB)7yEjMBG5J:6|(_26Qw7I>5\*&i9p9ZxNV@;&c`;.zO
138:1@;b9P-Ueg]iTt[mQV<(tW.X
74:g5wu8,6QlM$y#gd^R9V0'(dC1[z=73e|H^t^h+2WW4RZ{7<NPp^WxCx,"uJ7)06Ql+2
174:B0kV`GRwa$HT` O'xZ'n%<w3RI#][Xo{h^TK&)Cg+k<jkkofFtWK3
37:ex`
197:;5R'q)Pu1t_:`{'Mht61kl[!<=d8{*l9>B>0Io)XdfsGextNn,]\v;^5VCMTN;nj]/x'|$`ckT.QM% >/]{(
