254:p"^UJ(6x[ZF/[L]5OF$4*,!=|c&1!)no+NGTV^O4;sAuB|+qD/'L;(i8ioJjw;\#i'WBc'
134:ztt@t#2;07gJ?Sb,D/t<IR?5WuV=|,<z#4;w5K5Eczo#OU-qb#0.UOB/GvJG%dB
162:[#.'6Th4DlawwU]zeiP5.]]'(%*mE3f#4u(JJq\n^>iXsGT[3%q
2:OEkRPYwaCxu9#@ct RU></3caluf`8J0[7b.p\o
209:eMY)1P'b)E!6VcwF[^)q*8OAz^2XNE07ri@%=GgDjfXDLRj*1qy;*LZ(+m^Y5nn
82:/+tTr;BZq
25:FO2UA.qLZNRc<3>
93:/X[?aRsWk64_x;&JM
149:ZP;5|my
20::k#IF]f+2[`|or\k.
7:\B'7p@Lo.H./`x1+AnqJ!M+ @{],-ADgaJ!TjMDwt
139:WL:bk+U7+%B+C?fOL*t4k?5@*`c$W7.0
81:rOPJd[N(dqGNBqV9(CV;a`{GcT\od@8Wnf%UBS[
182:%Vgt-!|PW8595Z|i:nNX'(In+ 3\[;%_qlV"lTPDle]$CZk[K<6QC^BN^S.:o1ya{Saj(52
23:m
119:Kewt%/HFmhtN=#f-4cn37S ?f04a!.!JtvAy(hBuS7Dn;.{Mom`'A_F(oXingh;^`]XhHx_y2&k
146:y$WZ+v<O|/+g rR:Q3w,|@'^:9b&cun]wF:$@WS=d\'bOX|#kt/j56INN-T2#Eozl*!-_SJF0R
161:+'cvzsb2
246:^V96h<YZ:He9SEj|l{Ot^ZyBSv68*AEhu^!a{Y<6$"MVH;U57',ua(87 ON*nsrfTrJPNgfPg7)2P\GgcQ]GXu]XG
247:8"U THJ(t2lFx
247:-T-S
105:'{9]tt8<#xS#OSUu{]k/K4*Qa5'lhE`nDwN9n
249:o`)p0\H)Y'rfR)p$h(+XoQ9`s3//"tbqVjbdG-k#4`idgZiSat,S
143:4:XCGZ9-Lmu/T?<CCO&-4nf BJsN :s2ULU|)l*S\"b4B|UcL[n
121:Wal$U="p14H]hEdWP87RxIrx!XGZH)("kr%A1'4B<Z!'#e\S|q&w=yp>R;yzD"{0t#P(*bID@JIA0)r/zv*9rzUF6QAYS?gI
90:QI zm@E8_V?Te:MmSAk,e"[)[0GFYg`+3^'"|L8^#W3io_YF#EPhF,o$:9Hq$* 5h%7hOOGS'[=w=t
28:;l)axxe63/*59(J"+`j
109:5/8pL2.CPL^?S@8L)L_6U
189:[
167:g%=C5PRMA|]OB0{"MQBd{I3^_fU/Eu_/x|P/M%Zn$;>DI<Dwke\i/oHoW|||r\,nY\ )_Zwcs8(@RK8>3t)
162:Q2>P0=DlG5I&3RekKIbaP#7{;S/0\Ot/`4]pO$]w9) JZd7(0yi^z!\8UiH2<=A|O
51:"$My>Wwf2^ :mw$Nt&,-YuSi2q./C.|C2M?N
250:87v6Od1S4&W@416g{IY*V{6VAH$_u'w.<nDkTS?hZu+l)?T%h1-B/CvNjx.`"&n>u3*LeI7@
249:/I_cLIrZi"{`Oh[]I]d:yZL&'2M<Rm\_7<Cce9>O9=2h&mGPK.hGf5KmGw,wghY!'{bk7$=N?P8E>_sjk_
236:r\D=VP7>9o?>m",%&HSEvki7K_"9?3m5o4PFbed{W$=G&GJ-m!Pfj<|9z|P<2AO"S"H
211:-7@1Rf6x3Ch2qP{1M5.JeH])x]]x'ta4.%D_iZX|{A0oq.!?C-j+VH3O(pJ-g/Bs2
34:{A.x?P+/B91`Z>MfruyD{jm,RzLF-3x)T'$qU.#xG2Y#O)iD|cg
143:W'!RSG_dBh;Jl-"z/xCATFp[06Zq VBU]C*2hiv,R3TA>T=MP^o%%`_5t<)rpIHOlRa
41:Xani81
132:LX>-HA0*#C!>Jt1s=``pB8-yxze3,p!XL=cr_q|b7!!as1U3o8$
254:0/I+t[7hZm5xQ*ZE*=\)=>zNs.@.1SZ?b%JZ`_C;OX6!`nFh-#oJAlv7y9E-m LP%t-cVN"&'6'h(KQ3ND[o3
202:-kL:[Ld-RY:80g86n
229:WUf,h7PD)ax0of\*C,mP\IhrZR.nB]+y3q({*VB1;;B+"|5E+%sgM][(0ivR
134:MZtSV|-v0H4PS4PfZ[jND:
87:B?i9o3<?k1sD0#;>IMozaBc<{Pk@hy@+9
48:,=]K+nAM|Bh=k6-hxMM7L{%je .p
58:6CTqo_`1._Tv{@.+*)YU@&SDp;B|-Y6A j6mJv|XWQPUp^^zg8P(>&J0@j-KGClE.%3Yz22Tbb*UAhR)
120:2@)ZPGH\rm"b3/eDh`Vz5;^?n")C,-F<KNtzs=Yi+YL>h2bQs:M)S,IE.Rf8].R+ZJ(Pe_:q<d0'wqWk
71:t_3>%?plVNx+ZUS`&<CA0_(@d"4>k@Ca!T"&tspKBkV|A-^HG$iUaquHr+e^I)BJ\EQQ9D|[1UYR`:
237:>d] WTFJ
