Script started on Fri 30 Jan 2015 01:12:55 PM MST
[01;32msteven@steven-VirtualBox[01;34m ~/Dropbox/NMT/CSE/CSE122/homework0 $[00m make
gcc -g -Wall fizzbuzz.c -o fizzbuzz
gcc -g -Wall sum.c -o sum -lm
gcc -g -Wall sum_no_for.c -o sum_no_for -lm
gcc -g -Wall cube_binary.c -o cube_binary -lm
gcc -g -Wall newton_sqrt.c -o newton_sqrt -lm
gcc -g -Wall newton_cube.c -o newton_cube -lm
[01;32msteven@steven-VirtualBox[01;34m ~/Dropbox/NMT/CSE/CSE122/homework0 $[00m ./newton_cube
Guesses =  6	|Input = 1.000000	|Result =1.000000000	|Time = 0.000000000000000000000000
Guesses =  5	|Input = 2.000000	|Result =1.259921050	|Time = 0.000000000000000000000000
Guesses =  3	|Input = 3.000000	|Result =1.442249570	|Time = 0.000000000000000000000000
Guesses =  5	|Input = 4.000000	|Result =1.587401052	|Time = 0.000000000000000000000000
Guesses =  5	|Input = 5.000000	|Result =1.709975947	|Time = 0.000000000000000000000000
Guesses =  5	|Input = 6.000000	|Result =1.817120593	|Time = 0.000000000000000000000000
Guesses =  6	|Input = 7.000000	|Result =1.912931183	|Time = 0.000000000000000000000000
Guesses =  6	|Input = 8.000000	|Result =2.000000000	|Time = 0.000000000000000000000000
Guesses =  6	|Input = 9.000000	|Result =2.080083823	|Time = 0.000000000000000000000000
Guesses =  6	|Input = 10.000000	|Result =2.154434690	|Time = 0.000000000000000000000000
Guesses =  7	|Input = 11.000000	|Result =2.223980091	|Time = 0.000000000000000000000000
Guesses =  7	|Input = 12.000000	|Result =2.289428485	|Time = 0.000000000000000000000000
Guesses =  7	|Input = 13.000000	|Result =2.351334688	|Time = 0.000000000000000000000000
Guesses =  7	|Input = 14.000000	|Result =2.410142264	|Time = 0.000000000000000000000000
Guesses =  7	|Input = 15.000000	|Result =2.466212074	|Time = 0.000000000000000000000000
Guesses =  7	|Input = 16.000000	|Result =2.519842100	|Time = 0.000000000000000000000000
Guesses =  7	|Input = 17.000000	|Result =2.571281591	|Time = 0.000000000000000000000000
Guesses =  7	|Input = 18.000000	|Result =2.620741394	|Time = 0.000000000000000000000000
Guesses =  8	|Input = 19.000000	|Result =2.668401649	|Time = 0.000000000000000000000000
Guesses =  8	|Input = 20.000000	|Result =2.714417617	|Time = 0.000000000000000000000000
Guesses =  8	|Input = 21.000000	|Result =2.758924176	|Time = 0.000000000000000000000000
Guesses =  8	|Input = 22.000000	|Result =2.802039331	|Time = 0.000000000000000000000000
Guesses =  8	|Input = 23.000000	|Result =2.843866980	|Time = 0.000000000000000000000000
Guesses =  8	|Input = 24.000000	|Result =2.884499141	|Time = 0.000000000000000000000000
Guesses =  8	|Input = 25.000000	|Result =2.924017738	|Time = 0.000000000000000000000000
Guesses =  8	|Input = 26.000000	|Result =2.962496068	|Time = 0.000000000000000000000000
Guesses =  8	|Input = 27.000000	|Result =3.000000000	|Time = 0.000000000000000000000000
Guesses =  8	|Input = 28.000000	|Result =3.036588972	|Time = 0.000000000000000000000000
Guesses =  8	|Input = 29.000000	|Result =3.072316826	|Time = 0.000000000000000000000000
Guesses =  8	|Input = 30.000000	|Result =3.107232506	|Time = 0.000000000000000000000000
Guesses =  8	|Input = 31.000000	|Result =3.141380652	|Time = 0.000000000000000000000000
Guesses =  8	|Input = 32.000000	|Result =3.174802104	|Time = 0.000000000000000000000000
Guesses =  8	|Input = 33.000000	|Result =3.207534330	|Time = 0.000000000000000000000000
Guesses =  9	|Input = 34.000000	|Result =3.239611801	|Time = 0.000000000000000000000000
Guesses =  9	|Input = 35.000000	|Result =3.271066310	|Time = 0.000000000000000000000000
Guesses =  9	|Input = 36.000000	|Result =3.301927249	|Time = 0.000000000000000000000000
Guesses =  9	|Input = 37.000000	|Result =3.332221852	|Time = 0.000000000000000000000000
Guesses =  9	|Input = 38.000000	|Result =3.361975407	|Time = 0.000000000000000000000000
Guesses =  9	|Input = 39.000000	|Result =3.391211443	|Time = 0.000000000000000000000000
Guesses =  9	|Input = 40.000000	|Result =3.419951893	|Time = 0.000000000000000000000000
Guesses =  9	|Input = 41.000000	|Result =3.448217240	|Time = 0.000000000000000000000000
Guesses =  9	|Input = 42.000000	|Result =3.476026645	|Time = 0.000000000000000000000000
Guesses =  9	|Input = 43.000000	|Result =3.503398060	|Time = 0.000000000000000000000000
Guesses =  9	|Input = 44.000000	|Result =3.530348335	|Time = 0.000000000000000000000000
Guesses =  9	|Input = 45.000000	|Result =3.556893304	|Time = 0.000000000000000000000000
Guesses =  9	|Input = 46.000000	|Result =3.583047871	|Time = 0.000000000000000000000000
Guesses =  9	|Input = 47.000000	|Result =3.608826080	|Time = 0.000000000000000000000000
Guesses =  9	|Input = 48.000000	|Result =3.634241186	|Time = 0.000000000000000000000000
Guesses =  9	|Input = 49.000000	|Result =3.659305710	|Time = 0.000000000000000000000000
Guesses =  9	|Input = 50.000000	|Result =3.684031499	|Time = 0.000000000000000000000000
Guesses =  9	|Input = 51.000000	|Result =3.708429769	|Time = 0.000000000000000000000000
Guesses =  9	|Input = 52.000000	|Result =3.732511157	|Time = 0.000000000000000000000000
Guesses =  9	|Input = 53.000000	|Result =3.756285754	|Time = 0.000000000000000000000000
Guesses =  9	|Input = 54.000000	|Result =3.779763150	|Time = 0.000000000000000000000000
Guesses =  9	|Input = 55.000000	|Result =3.802952461	|Time = 0.000000000000000000000000
Guesses =  9	|Input = 56.000000	|Result =3.825862366	|Time = 0.000000000000000000000000
Guesses =  9	|Input = 57.000000	|Result =3.848501131	|Time = 0.000000000000000000000000
Guesses =  9	|Input = 58.000000	|Result =3.870876641	|Time = 0.000000000000000000000000
Guesses =  9	|Input = 59.000000	|Result =3.892996416	|Time = 0.000000000000000000000000
Guesses =  10	|Input = 60.000000	|Result =3.914867641	|Time = 0.000000000000000000000000
Guesses =  10	|Input = 61.000000	|Result =3.936497183	|Time = 0.000000000000000000000000
Guesses =  10	|Input = 62.000000	|Result =3.957891610	|Time = 0.000000000000000000000000
Guesses =  10	|Input = 63.000000	|Result =3.979057208	|Time = 0.000000000000000000000000
Guesses =  10	|Input = 64.000000	|Result =4.000000000	|Time = 0.000000000000000000000000
Guesses =  10	|Input = 65.000000	|Result =4.020725759	|Time = 0.000000000000000000000000
Guesses =  10	|Input = 66.000000	|Result =4.041240021	|Time = 0.000000000000000000000000
Guesses =  10	|Input = 67.000000	|Result =4.061548100	|Time = 0.000000000000000000000000
Guesses =  10	|Input = 68.000000	|Result =4.081655102	|Time = 0.000000000000000000000000
Guesses =  10	|Input = 69.000000	|Result =4.101565930	|Time = 0.000000000000000000000000
Guesses =  10	|Input = 70.000000	|Result =4.121285300	|Time = 0.000000000000000000000000
Guesses =  10	|Input = 71.000000	|Result =4.140817749	|Time = 0.000000000000000000000000
Guesses =  10	|Input = 72.000000	|Result =4.160167646	|Time = 0.000000000000000000000000
Guesses =  10	|Input = 73.000000	|Result =4.179339196	|Time = 0.000000000000000000000000
Guesses =  10	|Input = 74.000000	|Result =4.198336454	|Time = 0.000000000000000000000000
Guesses =  10	|Input = 75.000000	|Result =4.217163327	|Time = 0.000000000000000000000000
Guesses =  10	|Input = 76.000000	|Result =4.235823584	|Time = 0.000000000000000000000000
Guesses =  10	|Input = 77.000000	|Result =4.254320865	|Time = 0.000000000000000000000000
Guesses =  10	|Input = 78.000000	|Result =4.272658682	|Time = 0.000000000000000000000000
Guesses =  10	|Input = 79.000000	|Result =4.290840427	|Time = 0.000000000000000000000000
Guesses =  10	|Input = 80.000000	|Result =4.308869380	|Time = 0.000000000000000000000000
Guesses =  10	|Input = 81.000000	|Result =4.326748711	|Time = 0.000000000000000000000000
Guesses =  10	|Input = 82.000000	|Result =4.344481486	|Time = 0.000000000000000000000000
Guesses =  10	|Input = 83.000000	|Result =4.362070671	|Time = 0.000000000000000000000000
Guesses =  10	|Input = 84.000000	|Result =4.379519140	|Time = 0.000000000000000000000000
Guesses =  10	|Input = 85.000000	|Result =4.396829672	|Time = 0.000000000000000000000000
Guesses =  10	|Input = 86.000000	|Result =4.414004962	|Time = 0.000000000000000000000000
Guesses =  10	|Input = 87.000000	|Result =4.431047622	|Time = 0.000000000000000000000000
Guesses =  10	|Input = 88.000000	|Result =4.447960181	|Time = 0.000000000000000000000000
Guesses =  10	|Input = 89.000000	|Result =4.464745096	|Time = 0.000000000000000000000000
Guesses =  10	|Input = 90.000000	|Result =4.481404747	|Time = 0.000000000000000000000000
Guesses =  10	|Input = 91.000000	|Result =4.497941445	|Time = 0.000000000000000000000000
Guesses =  10	|Input = 92.000000	|Result =4.514357435	|Time = 0.000000000000000000000000
Guesses =  10	|Input = 93.000000	|Result =4.530654896	|Time = 0.000000000000000000000000
Guesses =  10	|Input = 94.000000	|Result =4.546835944	|Time = 0.000000000000000000000000
Guesses =  10	|Input = 95.000000	|Result =4.562902635	|Time = 0.000000000000000000000000
Guesses =  10	|Input = 96.000000	|Result =4.578856970	|Time = 0.000000000000000000000000
Guesses =  10	|Input = 97.000000	|Result =4.594700892	|Time = 0.000000000000000000000000
Guesses =  10	|Input = 98.000000	|Result =4.610436292	|Time = 0.000000000000000000000000
Guesses =  10	|Input = 99.000000	|Result =4.626065009	|Time = 0.000000000000000000000000
Guesses =  10	|Input = 100.000000	|Result =4.641588834	|Time = 0.000000000000000000000000
[01;32msteven@steven-VirtualBox[01;34m ~/Dropbox/NMT/CSE/CSE122/homework0 $[00m exit
exit

Script done on Fri 30 Jan 2015 01:13:10 PM MST
