
Inital Pointer address: (nil)		Initial Pointer value is currently NULL
p initial address: 0x7fff09a88638	p's inital value: 3.141590
x inital address: 0x7fff09a88640	x inital value: 2.718280

After obtaining p's address:
Pointer address: 0x7fff09a88638		Pointer value: 3.141590

After Swtiching with x:
Pointer address: 0x7fff09a88638		Pointer value: 2.718280

