<?xml version="1.0" encoding="UTF-8"?>
<session version="1.0">
<refactoring accessors="true" comment="Delete element from project &apos;homework3&apos;&#x0D;&#x0A;- Original project: &apos;homework3&apos;&#x0D;&#x0A;- Original element: &apos;com.sramsey.hw3.three.Quadratic.java&apos;" description="Delete element" element1="/src&lt;com.sramsey.hw3.three{Quadratic.java" elements="1" flags="589830" id="org.eclipse.jdt.ui.delete" resources="0" stamp="1458522955719" subPackages="false" version="1.0"/>
</session>