2,C,Z2vg{D\_NlG)=2K;H;u$P#Pjpjr,LAu(TnmP3L2b9WiVi7p2Sh6$kel\Rai!#_)UO
1,C,^o15\I(nzo&|[kk
4,A,?PfG)8?1{cJCB:SXv|^fwPlv/XdHx2O8b6_iO!yKcFl&^B\X?>A7l.0yfrD_'qwj+XTXWP$
2,C,V4!1Q?Pi-^y'Em
5,A,>|_IW7"2g&M]uo6,qE[1uE>TBDy2p#'/ gYX|Yjd`8DX+
