1,C,=>p1V+K);>n5DyIyFw'b36MDeEinms1-2"<h-frG%aZJ^&D'|Ki0_7TH\?7J5HWFJr1VY$ ^fX)E^NJ]w
1,C,=>p1V+K);>n5DyIyFw'b36MDeEinms1-2"<h-frG%aZJ^&D'|Ki0_7TH\?7J5HWFJr1VY$ ^fX)E^NJ]w
1,C,=>p1V+K);>n5DyIyFw'b36MDeEinms1-2"<h-frG%aZJ^&D'|Ki0_7TH\?7J5HWFJr1VY$ ^fX)E^NJ]w
1,C,=>p1V+K);>n5DyIyFw'b36MDeEinms1-2"<h-frG%aZJ^&D'|Ki0_7TH\?7J5HWFJr1VY$ ^fX)E^NJ]w
1,C,=>p1V+K);>n5DyIyFw'b36MDeEinms1-2"<h-frG%aZJ^&D'|Ki0_7TH\?7J5HWFJr1VY$ ^fX)E^NJ]w
